freguesia,acronym,validVotesPercentage,votes,dicofre
Adão,PPD/PSD.CDS-PP,46.77,58,090766
Adão,PS,27.42,34,090766
Adão,PPV,9.68,12,090766
Adão,B.E.,3.23,4,090766
Adão,MPT,2.42,3,090766
Adão,PAN,2.42,3,090766
Adão,PCP-PEV,1.61,2,090766
Adão,PND,1.61,2,090766
Adão,L,0.81,1,090766
Adão,MAS,0.81,1,090766
Adão,PCTP/MRPP,0.81,1,090766
Adão,PNR,0.81,1,090766
Adão,PPM,0.81,1,090766
Adão,PTP,0.81,1,090766
Adão,PDA,0,0,090766
Adão,POUS,0,0,090766
