freguesia,acronym,validVotesPercentage,votes,dicofre
Afife,PS,26.83,158,160901
Afife,PPD/PSD.CDS-PP,26.49,156,160901
Afife,PCP-PEV,19.02,112,160901
Afife,MPT,12.56,74,160901
Afife,B.E.,4.24,25,160901
Afife,PCTP/MRPP,2.89,17,160901
Afife,L,2.55,15,160901
Afife,PAN,1.7,10,160901
Afife,PND,1.02,6,160901
Afife,PNR,0.68,4,160901
Afife,POUS,0.68,4,160901
Afife,PPV,0.51,3,160901
Afife,PPM,0.34,2,160901
Afife,PTP,0.34,2,160901
Afife,MAS,0.17,1,160901
Afife,PDA,0,0,160901
