freguesia,acronym,validVotesPercentage,votes,dicofre
Agualonga,PS,45.88,39,160501
Agualonga,PPD/PSD.CDS-PP,28.24,24,160501
Agualonga,MPT,7.06,6,160501
Agualonga,PCP-PEV,7.06,6,160501
Agualonga,B.E.,3.53,3,160501
Agualonga,L,3.53,3,160501
Agualonga,MAS,1.18,1,160501
Agualonga,PCTP/MRPP,1.18,1,160501
Agualonga,PND,1.18,1,160501
Agualonga,PTP,1.18,1,160501
Agualonga,PAN,0,0,160501
Agualonga,PDA,0,0,160501
Agualonga,PNR,0,0,160501
Agualonga,POUS,0,0,160501
Agualonga,PPM,0,0,160501
Agualonga,PPV,0,0,160501
