freguesia,acronym,validVotesPercentage,votes,dicofre
Airó,PPD/PSD.CDS-PP,44,165,030205
Airó,PS,32.53,122,030205
Airó,MPT,8,30,030205
Airó,PCP-PEV,4,15,030205
Airó,B.E.,2.67,10,030205
Airó,PPM,1.6,6,030205
Airó,MAS,1.33,5,030205
Airó,PAN,1.33,5,030205
Airó,PCTP/MRPP,1.33,5,030205
Airó,L,0.8,3,030205
Airó,PND,0.8,3,030205
Airó,PTP,0.8,3,030205
Airó,PDA,0.53,2,030205
Airó,PNR,0.27,1,030205
Airó,POUS,0,0,030205
Airó,PPV,0,0,030205
