freguesia,acronym,validVotesPercentage,votes,dicofre
Ajuda,PS,40.81,2184,110601
Ajuda,PCP-PEV,21.49,1150,110601
Ajuda,PPD/PSD.CDS-PP,18.15,971,110601
Ajuda,MPT,5.1,273,110601
Ajuda,B.E.,4.93,264,110601
Ajuda,L,3.16,169,110601
Ajuda,PAN,2.21,118,110601
Ajuda,PCTP/MRPP,1.59,85,110601
Ajuda,PPM,0.5,27,110601
Ajuda,PTP,0.43,23,110601
Ajuda,PNR,0.39,21,110601
Ajuda,PND,0.36,19,110601
Ajuda,PPV,0.34,18,110601
Ajuda,MAS,0.32,17,110601
Ajuda,PDA,0.13,7,110601
Ajuda,POUS,0.09,5,110601
