freguesia,acronym,validVotesPercentage,votes,dicofre
Alcochete,PCP-PEV,27.91,874,150201
Alcochete,PS,27.82,871,150201
Alcochete,PPD/PSD.CDS-PP,18.78,588,150201
Alcochete,MPT,7.47,234,150201
Alcochete,B.E.,6.23,195,150201
Alcochete,L,4.18,131,150201
Alcochete,PAN,2.24,70,150201
Alcochete,PCTP/MRPP,2.04,64,150201
Alcochete,PPM,0.7,22,150201
Alcochete,PTP,0.67,21,150201
Alcochete,PNR,0.54,17,150201
Alcochete,PND,0.48,15,150201
Alcochete,MAS,0.45,14,150201
Alcochete,PPV,0.22,7,150201
Alcochete,PDA,0.19,6,150201
Alcochete,POUS,0.06,2,150201
