freguesia,acronym,validVotesPercentage,votes,dicofre
Aldeia das Dez,PS,43.53,74,061101
Aldeia das Dez,PPD/PSD.CDS-PP,42.94,73,061101
Aldeia das Dez,MPT,5.88,10,061101
Aldeia das Dez,PND,1.76,3,061101
Aldeia das Dez,B.E.,1.18,2,061101
Aldeia das Dez,PCP-PEV,1.18,2,061101
Aldeia das Dez,L,0.59,1,061101
Aldeia das Dez,MAS,0.59,1,061101
Aldeia das Dez,PAN,0.59,1,061101
Aldeia das Dez,PCTP/MRPP,0.59,1,061101
Aldeia das Dez,PDA,0.59,1,061101
Aldeia das Dez,PNR,0.59,1,061101
Aldeia das Dez,POUS,0,0,061101
Aldeia das Dez,PPM,0,0,061101
Aldeia das Dez,PPV,0,0,061101
Aldeia das Dez,PTP,0,0,061101
