freguesia,acronym,validVotesPercentage,votes,dicofre
Aldeias,PPD/PSD.CDS-PP,52.99,62,180101
Aldeias,PS,21.37,25,180101
Aldeias,MPT,6.84,8,180101
Aldeias,PCP-PEV,6.84,8,180101
Aldeias,PND,2.56,3,180101
Aldeias,B.E.,1.71,2,180101
Aldeias,PAN,1.71,2,180101
Aldeias,PCTP/MRPP,1.71,2,180101
Aldeias,POUS,1.71,2,180101
Aldeias,L,0.85,1,180101
Aldeias,PPM,0.85,1,180101
Aldeias,PTP,0.85,1,180101
Aldeias,MAS,0,0,180101
Aldeias,PDA,0,0,180101
Aldeias,PNR,0,0,180101
Aldeias,PPV,0,0,180101
