freguesia,acronym,validVotesPercentage,votes,dicofre
Alhos Vedros,PCP-PEV,39.54,1781,150601
Alhos Vedros,PS,26.51,1194,150601
Alhos Vedros,B.E.,9.15,412,150601
Alhos Vedros,PPD/PSD.CDS-PP,8.57,386,150601
Alhos Vedros,MPT,5.71,257,150601
Alhos Vedros,PCTP/MRPP,3.22,145,150601
Alhos Vedros,L,2.33,105,150601
Alhos Vedros,PAN,2.2,99,150601
Alhos Vedros,PND,0.73,33,150601
Alhos Vedros,PNR,0.53,24,150601
Alhos Vedros,PTP,0.38,17,150601
Alhos Vedros,MAS,0.36,16,150601
Alhos Vedros,PPM,0.29,13,150601
Alhos Vedros,PPV,0.27,12,150601
Alhos Vedros,PDA,0.13,6,150601
Alhos Vedros,POUS,0.09,4,150601
