freguesia,acronym,validVotesPercentage,votes,dicofre
Alter do Chão,PS,32.09,189,120101
Alter do Chão,PPD/PSD.CDS-PP,31.75,187,120101
Alter do Chão,PCP-PEV,20.54,121,120101
Alter do Chão,MPT,6.28,37,120101
Alter do Chão,B.E.,2.38,14,120101
Alter do Chão,PCTP/MRPP,2.04,12,120101
Alter do Chão,L,1.02,6,120101
Alter do Chão,PND,1.02,6,120101
Alter do Chão,PNR,1.02,6,120101
Alter do Chão,PTP,0.68,4,120101
Alter do Chão,MAS,0.34,2,120101
Alter do Chão,PAN,0.34,2,120101
Alter do Chão,PDA,0.17,1,120101
Alter do Chão,POUS,0.17,1,120101
Alter do Chão,PPM,0.17,1,120101
Alter do Chão,PPV,0,0,120101
