freguesia,acronym,validVotesPercentage,votes,dicofre
Alvarenga,PPD/PSD.CDS-PP,54.38,180,010402
Alvarenga,PS,29.31,97,010402
Alvarenga,MPT,7.85,26,010402
Alvarenga,PCP-PEV,1.81,6,010402
Alvarenga,PND,1.51,5,010402
Alvarenga,B.E.,1.21,4,010402
Alvarenga,PAN,0.91,3,010402
Alvarenga,PPM,0.91,3,010402
Alvarenga,L,0.6,2,010402
Alvarenga,PCTP/MRPP,0.6,2,010402
Alvarenga,MAS,0.3,1,010402
Alvarenga,PDA,0.3,1,010402
Alvarenga,PTP,0.3,1,010402
Alvarenga,PNR,0,0,010402
Alvarenga,POUS,0,0,010402
Alvarenga,PPV,0,0,010402
