freguesia,acronym,validVotesPercentage,votes,dicofre
Argela,PS,40,52,160205
Argela,PPD/PSD.CDS-PP,28.46,37,160205
Argela,PCP-PEV,13.85,18,160205
Argela,MPT,6.15,8,160205
Argela,B.E.,4.62,6,160205
Argela,PAN,3.08,4,160205
Argela,PTP,1.54,2,160205
Argela,MAS,0.77,1,160205
Argela,PND,0.77,1,160205
Argela,PPV,0.77,1,160205
Argela,L,0,0,160205
Argela,PCTP/MRPP,0,0,160205
Argela,PDA,0,0,160205
Argela,PNR,0,0,160205
Argela,POUS,0,0,160205
Argela,PPM,0,0,160205
