freguesia,acronym,validVotesPercentage,votes,dicofre
Aveleda,PS,50.25,204,131603
Aveleda,PPD/PSD.CDS-PP,24.88,101,131603
Aveleda,PCP-PEV,6.4,26,131603
Aveleda,MPT,6.16,25,131603
Aveleda,L,2.96,12,131603
Aveleda,B.E.,2.46,10,131603
Aveleda,PCTP/MRPP,1.72,7,131603
Aveleda,PTP,1.23,5,131603
Aveleda,PNR,0.99,4,131603
Aveleda,PND,0.74,3,131603
Aveleda,PPM,0.74,3,131603
Aveleda,MAS,0.49,2,131603
Aveleda,PAN,0.49,2,131603
Aveleda,POUS,0.25,1,131603
Aveleda,PPV,0.25,1,131603
Aveleda,PDA,0,0,131603
