freguesia,acronym,validVotesPercentage,votes,dicofre
Barreiros,PPD/PSD.CDS-PP,53.72,130,030102
Barreiros,PS,23.55,57,030102
Barreiros,MPT,7.85,19,030102
Barreiros,PCP-PEV,4.13,10,030102
Barreiros,B.E.,3.72,9,030102
Barreiros,PND,2.07,5,030102
Barreiros,PCTP/MRPP,1.65,4,030102
Barreiros,MAS,0.83,2,030102
Barreiros,L,0.41,1,030102
Barreiros,PAN,0.41,1,030102
Barreiros,PNR,0.41,1,030102
Barreiros,PPM,0.41,1,030102
Barreiros,PPV,0.41,1,030102
Barreiros,PTP,0.41,1,030102
Barreiros,PDA,0,0,030102
Barreiros,POUS,0,0,030102
