freguesia,acronym,validVotesPercentage,votes,dicofre
Barão de São Miguel,PS,35.83,43,081501
Barão de São Miguel,PPD/PSD.CDS-PP,20,24,081501
Barão de São Miguel,PCP-PEV,19.17,23,081501
Barão de São Miguel,MPT,10,12,081501
Barão de São Miguel,B.E.,7.5,9,081501
Barão de São Miguel,L,3.33,4,081501
Barão de São Miguel,PCTP/MRPP,1.67,2,081501
Barão de São Miguel,POUS,1.67,2,081501
Barão de São Miguel,PAN,0.83,1,081501
Barão de São Miguel,MAS,0,0,081501
Barão de São Miguel,PDA,0,0,081501
Barão de São Miguel,PND,0,0,081501
Barão de São Miguel,PNR,0,0,081501
Barão de São Miguel,PPM,0,0,081501
Barão de São Miguel,PPV,0,0,081501
Barão de São Miguel,PTP,0,0,081501
