freguesia,acronym,validVotesPercentage,votes,dicofre
Bela,PPD/PSD.CDS-PP,50.34,73,160406
Bela,PS,29.66,43,160406
Bela,B.E.,5.52,8,160406
Bela,MPT,4.83,7,160406
Bela,PCP-PEV,2.76,4,160406
Bela,PCTP/MRPP,2.07,3,160406
Bela,PTP,2.07,3,160406
Bela,L,0.69,1,160406
Bela,PAN,0.69,1,160406
Bela,PDA,0.69,1,160406
Bela,PPV,0.69,1,160406
Bela,MAS,0,0,160406
Bela,PND,0,0,160406
Bela,PNR,0,0,160406
Bela,POUS,0,0,160406
Bela,PPM,0,0,160406
