freguesia,acronym,validVotesPercentage,votes,dicofre
Bendada,PS,54.42,123,091110
Bendada,PPD/PSD.CDS-PP,29.65,67,091110
Bendada,MPT,6.64,15,091110
Bendada,PCP-PEV,2.65,6,091110
Bendada,B.E.,1.77,4,091110
Bendada,L,1.33,3,091110
Bendada,PAN,0.88,2,091110
Bendada,MAS,0.44,1,091110
Bendada,PCTP/MRPP,0.44,1,091110
Bendada,PND,0.44,1,091110
Bendada,PNR,0.44,1,091110
Bendada,PPM,0.44,1,091110
Bendada,PTP,0.44,1,091110
Bendada,PDA,0,0,091110
Bendada,POUS,0,0,091110
Bendada,PPV,0,0,091110
