freguesia,acronym,validVotesPercentage,votes,dicofre
Bravães,PS,42.16,86,160603
Bravães,PPD/PSD.CDS-PP,35.29,72,160603
Bravães,MPT,8.33,17,160603
Bravães,PCP-PEV,4.41,9,160603
Bravães,B.E.,2.45,5,160603
Bravães,PCTP/MRPP,1.96,4,160603
Bravães,L,1.47,3,160603
Bravães,PTP,1.47,3,160603
Bravães,PAN,0.98,2,160603
Bravães,PPM,0.98,2,160603
Bravães,PND,0.49,1,160603
Bravães,MAS,0,0,160603
Bravães,PDA,0,0,160603
Bravães,PNR,0,0,160603
Bravães,POUS,0,0,160603
Bravães,PPV,0,0,160603
