freguesia,acronym,validVotesPercentage,votes,dicofre
"Caia, São Pedro e Alcáçova",PS,63.52,841,120713
"Caia, São Pedro e Alcáçova",PPD/PSD.CDS-PP,13.75,182,120713
"Caia, São Pedro e Alcáçova",PCP-PEV,8.99,119,120713
"Caia, São Pedro e Alcáçova",B.E.,4,53,120713
"Caia, São Pedro e Alcáçova",MPT,3.85,51,120713
"Caia, São Pedro e Alcáçova",PCTP/MRPP,1.89,25,120713
"Caia, São Pedro e Alcáçova",PAN,0.68,9,120713
"Caia, São Pedro e Alcáçova",L,0.6,8,120713
"Caia, São Pedro e Alcáçova",PPM,0.6,8,120713
"Caia, São Pedro e Alcáçova",PTP,0.6,8,120713
"Caia, São Pedro e Alcáçova",MAS,0.38,5,120713
"Caia, São Pedro e Alcáçova",PND,0.3,4,120713
"Caia, São Pedro e Alcáçova",PPV,0.3,4,120713
"Caia, São Pedro e Alcáçova",PDA,0.23,3,120713
"Caia, São Pedro e Alcáçova",PNR,0.23,3,120713
"Caia, São Pedro e Alcáçova",POUS,0.08,1,120713
