freguesia,acronym,validVotesPercentage,votes,dicofre
Candosa,PS,54.41,142,061602
Candosa,PPD/PSD.CDS-PP,26.05,68,061602
Candosa,MPT,6.9,18,061602
Candosa,PCP-PEV,3.45,9,061602
Candosa,B.E.,2.68,7,061602
Candosa,PCTP/MRPP,1.53,4,061602
Candosa,PND,1.15,3,061602
Candosa,MAS,0.77,2,061602
Candosa,PAN,0.77,2,061602
Candosa,PNR,0.77,2,061602
Candosa,PPM,0.77,2,061602
Candosa,L,0.38,1,061602
Candosa,PTP,0.38,1,061602
Candosa,PDA,0,0,061602
Candosa,POUS,0,0,061602
Candosa,PPV,0,0,061602
