freguesia,acronym,validVotesPercentage,votes,dicofre
Canha,PS,45.76,178,150701
Canha,PPD/PSD.CDS-PP,23.39,91,150701
Canha,PCP-PEV,17.99,70,150701
Canha,MPT,6.43,25,150701
Canha,B.E.,2.31,9,150701
Canha,PCTP/MRPP,1.29,5,150701
Canha,PAN,0.77,3,150701
Canha,PNR,0.77,3,150701
Canha,L,0.51,2,150701
Canha,MAS,0.26,1,150701
Canha,PPV,0.26,1,150701
Canha,PTP,0.26,1,150701
Canha,PDA,0,0,150701
Canha,PND,0,0,150701
Canha,POUS,0,0,150701
Canha,PPM,0,0,150701
