freguesia,acronym,validVotesPercentage,votes,dicofre
Capelo,PS,47.86,67,470101
Capelo,PPD/PSD.CDS-PP,29.29,41,470101
Capelo,PCP-PEV,7.86,11,470101
Capelo,MPT,4.29,6,470101
Capelo,B.E.,3.57,5,470101
Capelo,PCTP/MRPP,2.14,3,470101
Capelo,PND,2.14,3,470101
Capelo,L,1.43,2,470101
Capelo,PPM,1.43,2,470101
Capelo,MAS,0,0,470101
Capelo,PAN,0,0,470101
Capelo,PDA,0,0,470101
Capelo,PNR,0,0,470101
Capelo,POUS,0,0,470101
Capelo,PPV,0,0,470101
Capelo,PTP,0,0,470101
