freguesia,acronym,validVotesPercentage,votes,dicofre
Castelejo,PS,33.33,89,050412
Castelejo,PPD/PSD.CDS-PP,32.21,86,050412
Castelejo,MPT,15.36,41,050412
Castelejo,PCP-PEV,3.37,9,050412
Castelejo,PCTP/MRPP,3,8,050412
Castelejo,B.E.,2.62,7,050412
Castelejo,PND,2.25,6,050412
Castelejo,PAN,1.5,4,050412
Castelejo,L,1.12,3,050412
Castelejo,PNR,1.12,3,050412
Castelejo,POUS,1.12,3,050412
Castelejo,PTP,1.12,3,050412
Castelejo,MAS,0.75,2,050412
Castelejo,PPM,0.75,2,050412
Castelejo,PDA,0.37,1,050412
Castelejo,PPV,0,0,050412
