freguesia,acronym,validVotesPercentage,votes,dicofre
Caíde de Rei,PS,47.91,343,130504
Caíde de Rei,PPD/PSD.CDS-PP,26.4,189,130504
Caíde de Rei,PCP-PEV,7.82,56,130504
Caíde de Rei,MPT,7.26,52,130504
Caíde de Rei,B.E.,3.07,22,130504
Caíde de Rei,PCTP/MRPP,1.82,13,130504
Caíde de Rei,PAN,1.54,11,130504
Caíde de Rei,PTP,0.84,6,130504
Caíde de Rei,L,0.7,5,130504
Caíde de Rei,PND,0.56,4,130504
Caíde de Rei,PNR,0.56,4,130504
Caíde de Rei,MAS,0.42,3,130504
Caíde de Rei,PPM,0.42,3,130504
Caíde de Rei,POUS,0.28,2,130504
Caíde de Rei,PPV,0.28,2,130504
Caíde de Rei,PDA,0.14,1,130504
