freguesia,acronym,validVotesPercentage,votes,dicofre
Cervos,PPD/PSD.CDS-PP,60.95,64,170603
Cervos,PS,29.52,31,170603
Cervos,MPT,3.81,4,170603
Cervos,PND,2.86,3,170603
Cervos,B.E.,0.95,1,170603
Cervos,PCP-PEV,0.95,1,170603
Cervos,PTP,0.95,1,170603
Cervos,L,0,0,170603
Cervos,MAS,0,0,170603
Cervos,PAN,0,0,170603
Cervos,PCTP/MRPP,0,0,170603
Cervos,PDA,0,0,170603
Cervos,PNR,0,0,170603
Cervos,POUS,0,0,170603
Cervos,PPM,0,0,170603
Cervos,PPV,0,0,170603
