freguesia,acronym,validVotesPercentage,votes,dicofre
Chacim,PPD/PSD.CDS-PP,52.87,46,040509
Chacim,PS,34.48,30,040509
Chacim,PND,3.45,3,040509
Chacim,MPT,2.3,2,040509
Chacim,PCP-PEV,2.3,2,040509
Chacim,MAS,1.15,1,040509
Chacim,PCTP/MRPP,1.15,1,040509
Chacim,PPM,1.15,1,040509
Chacim,PPV,1.15,1,040509
Chacim,B.E.,0,0,040509
Chacim,L,0,0,040509
Chacim,PAN,0,0,040509
Chacim,PDA,0,0,040509
Chacim,PNR,0,0,040509
Chacim,POUS,0,0,040509
Chacim,PTP,0,0,040509
