freguesia,acronym,validVotesPercentage,votes,dicofre
Chãs,PPD/PSD.CDS-PP,43.36,49,091404
Chãs,PS,38.94,44,091404
Chãs,MPT,6.19,7,091404
Chãs,B.E.,2.65,3,091404
Chãs,PCP-PEV,1.77,2,091404
Chãs,PND,1.77,2,091404
Chãs,PNR,1.77,2,091404
Chãs,PCTP/MRPP,0.88,1,091404
Chãs,PDA,0.88,1,091404
Chãs,PPM,0.88,1,091404
Chãs,PPV,0.88,1,091404
Chãs,L,0,0,091404
Chãs,MAS,0,0,091404
Chãs,PAN,0,0,091404
Chãs,POUS,0,0,091404
Chãs,PTP,0,0,091404
