freguesia,acronym,validVotesPercentage,votes,dicofre
Cornes,PS,45.97,57,161003
Cornes,PPD/PSD.CDS-PP,32.26,40,161003
Cornes,MPT,7.26,9,161003
Cornes,PCP-PEV,5.65,7,161003
Cornes,PND,2.42,3,161003
Cornes,PAN,1.61,2,161003
Cornes,PCTP/MRPP,1.61,2,161003
Cornes,B.E.,0.81,1,161003
Cornes,L,0.81,1,161003
Cornes,MAS,0.81,1,161003
Cornes,PTP,0.81,1,161003
Cornes,PDA,0,0,161003
Cornes,PNR,0,0,161003
Cornes,POUS,0,0,161003
Cornes,PPM,0,0,161003
Cornes,PPV,0,0,161003
