freguesia,acronym,validVotesPercentage,votes,dicofre
Cortes do Meio,PS,49.13,142,050308
Cortes do Meio,PPD/PSD.CDS-PP,22.84,66,050308
Cortes do Meio,PCP-PEV,12.46,36,050308
Cortes do Meio,MPT,3.46,10,050308
Cortes do Meio,B.E.,2.77,8,050308
Cortes do Meio,PAN,2.08,6,050308
Cortes do Meio,MAS,1.38,4,050308
Cortes do Meio,PCTP/MRPP,1.38,4,050308
Cortes do Meio,L,1.04,3,050308
Cortes do Meio,PND,1.04,3,050308
Cortes do Meio,PPV,1.04,3,050308
Cortes do Meio,PNR,0.69,2,050308
Cortes do Meio,PPM,0.69,2,050308
Cortes do Meio,PDA,0,0,050308
Cortes do Meio,POUS,0,0,050308
Cortes do Meio,PTP,0,0,050308
