freguesia,acronym,validVotesPercentage,votes,dicofre
Cousso,PPD/PSD.CDS-PP,56.98,49,160304
Cousso,PS,31.4,27,160304
Cousso,PND,4.65,4,160304
Cousso,MPT,2.33,2,160304
Cousso,L,1.16,1,160304
Cousso,PCP-PEV,1.16,1,160304
Cousso,PPM,1.16,1,160304
Cousso,PTP,1.16,1,160304
Cousso,B.E.,0,0,160304
Cousso,MAS,0,0,160304
Cousso,PAN,0,0,160304
Cousso,PCTP/MRPP,0,0,160304
Cousso,PDA,0,0,160304
Cousso,PNR,0,0,160304
Cousso,POUS,0,0,160304
Cousso,PPV,0,0,160304
