freguesia,acronym,validVotesPercentage,votes,dicofre
Criação Velha,PPD/PSD.CDS-PP,55.8,77,460203
Criação Velha,PS,31.16,43,460203
Criação Velha,MPT,4.35,6,460203
Criação Velha,PCP-PEV,4.35,6,460203
Criação Velha,B.E.,2.17,3,460203
Criação Velha,L,0.72,1,460203
Criação Velha,PDA,0.72,1,460203
Criação Velha,PPM,0.72,1,460203
Criação Velha,MAS,0,0,460203
Criação Velha,PAN,0,0,460203
Criação Velha,PCTP/MRPP,0,0,460203
Criação Velha,PND,0,0,460203
Criação Velha,PNR,0,0,460203
Criação Velha,POUS,0,0,460203
Criação Velha,PPV,0,0,460203
Criação Velha,PTP,0,0,460203
