freguesia,acronym,validVotesPercentage,votes,dicofre
Figueiró da Granja,PS,42.68,70,090504
Figueiró da Granja,PPD/PSD.CDS-PP,34.76,57,090504
Figueiró da Granja,MPT,12.2,20,090504
Figueiró da Granja,PCP-PEV,3.66,6,090504
Figueiró da Granja,B.E.,1.83,3,090504
Figueiró da Granja,L,1.22,2,090504
Figueiró da Granja,PAN,0.61,1,090504
Figueiró da Granja,PND,0.61,1,090504
Figueiró da Granja,PNR,0.61,1,090504
Figueiró da Granja,PPM,0.61,1,090504
Figueiró da Granja,PPV,0.61,1,090504
Figueiró da Granja,PTP,0.61,1,090504
Figueiró da Granja,MAS,0,0,090504
Figueiró da Granja,PCTP/MRPP,0,0,090504
Figueiró da Granja,PDA,0,0,090504
Figueiró da Granja,POUS,0,0,090504
