freguesia,acronym,validVotesPercentage,votes,dicofre
Figueiredo,PPD/PSD.CDS-PP,41.45,177,030315
Figueiredo,PS,38.88,166,030315
Figueiredo,MPT,6.32,27,030315
Figueiredo,PCP-PEV,4.22,18,030315
Figueiredo,B.E.,2.81,12,030315
Figueiredo,PCTP/MRPP,2.34,10,030315
Figueiredo,L,0.94,4,030315
Figueiredo,PND,0.94,4,030315
Figueiredo,PPM,0.7,3,030315
Figueiredo,MAS,0.47,2,030315
Figueiredo,PAN,0.23,1,030315
Figueiredo,POUS,0.23,1,030315
Figueiredo,PPV,0.23,1,030315
Figueiredo,PTP,0.23,1,030315
Figueiredo,PDA,0,0,030315
Figueiredo,PNR,0,0,030315
