freguesia,acronym,validVotesPercentage,votes,dicofre
Foros de Vale de Figueira,PCP-PEV,59.28,262,070610
Foros de Vale de Figueira,PS,24.66,109,070610
Foros de Vale de Figueira,PPD/PSD.CDS-PP,7.47,33,070610
Foros de Vale de Figueira,B.E.,2.49,11,070610
Foros de Vale de Figueira,MPT,2.49,11,070610
Foros de Vale de Figueira,PCTP/MRPP,1.58,7,070610
Foros de Vale de Figueira,L,0.68,3,070610
Foros de Vale de Figueira,PAN,0.45,2,070610
Foros de Vale de Figueira,MAS,0.23,1,070610
Foros de Vale de Figueira,PDA,0.23,1,070610
Foros de Vale de Figueira,PND,0.23,1,070610
Foros de Vale de Figueira,PNR,0.23,1,070610
Foros de Vale de Figueira,POUS,0,0,070610
Foros de Vale de Figueira,PPM,0,0,070610
Foros de Vale de Figueira,PPV,0,0,070610
Foros de Vale de Figueira,PTP,0,0,070610
