freguesia,acronym,validVotesPercentage,votes,dicofre
Gançaria,PPD/PSD.CDS-PP,57.98,109,141628
Gançaria,PS,27.66,52,141628
Gançaria,MPT,6.38,12,141628
Gançaria,L,1.6,3,141628
Gançaria,PCP-PEV,1.6,3,141628
Gançaria,B.E.,1.06,2,141628
Gançaria,MAS,1.06,2,141628
Gançaria,PPM,1.06,2,141628
Gançaria,PCTP/MRPP,0.53,1,141628
Gançaria,PND,0.53,1,141628
Gançaria,PNR,0.53,1,141628
Gançaria,PAN,0,0,141628
Gançaria,PDA,0,0,141628
Gançaria,POUS,0,0,141628
Gançaria,PPV,0,0,141628
Gançaria,PTP,0,0,141628
