freguesia,acronym,validVotesPercentage,votes,dicofre
Gouveia (São Simão),PS,38.79,83,130134
Gouveia (São Simão),PPD/PSD.CDS-PP,34.11,73,130134
Gouveia (São Simão),MPT,17.29,37,130134
Gouveia (São Simão),PCP-PEV,3.27,7,130134
Gouveia (São Simão),PCTP/MRPP,1.4,3,130134
Gouveia (São Simão),L,0.93,2,130134
Gouveia (São Simão),PAN,0.93,2,130134
Gouveia (São Simão),PPM,0.93,2,130134
Gouveia (São Simão),PTP,0.93,2,130134
Gouveia (São Simão),B.E.,0.47,1,130134
Gouveia (São Simão),PND,0.47,1,130134
Gouveia (São Simão),PPV,0.47,1,130134
Gouveia (São Simão),MAS,0,0,130134
Gouveia (São Simão),PDA,0,0,130134
Gouveia (São Simão),PNR,0,0,130134
Gouveia (São Simão),POUS,0,0,130134
