freguesia,acronym,validVotesPercentage,votes,dicofre
Lardosa,PS,53.13,170,050211
Lardosa,PPD/PSD.CDS-PP,21.56,69,050211
Lardosa,PCP-PEV,9.38,30,050211
Lardosa,MPT,4.38,14,050211
Lardosa,PND,2.81,9,050211
Lardosa,PCTP/MRPP,2.5,8,050211
Lardosa,B.E.,1.25,4,050211
Lardosa,L,0.94,3,050211
Lardosa,PAN,0.94,3,050211
Lardosa,PPV,0.94,3,050211
Lardosa,MAS,0.63,2,050211
Lardosa,PNR,0.63,2,050211
Lardosa,PDA,0.31,1,050211
Lardosa,PPM,0.31,1,050211
Lardosa,PTP,0.31,1,050211
Lardosa,POUS,0,0,050211
