freguesia,acronym,validVotesPercentage,votes,dicofre
Loulé (São Sebastião),PPD/PSD.CDS-PP,37.11,567,080809
Loulé (São Sebastião),PS,30.37,464,080809
Loulé (São Sebastião),PCP-PEV,9.29,142,080809
Loulé (São Sebastião),MPT,7.53,115,080809
Loulé (São Sebastião),B.E.,6.09,93,080809
Loulé (São Sebastião),L,2.03,31,080809
Loulé (São Sebastião),PCTP/MRPP,1.83,28,080809
Loulé (São Sebastião),PAN,1.64,25,080809
Loulé (São Sebastião),PND,0.92,14,080809
Loulé (São Sebastião),PPM,0.65,10,080809
Loulé (São Sebastião),PTP,0.65,10,080809
Loulé (São Sebastião),MAS,0.59,9,080809
Loulé (São Sebastião),PNR,0.52,8,080809
Loulé (São Sebastião),PDA,0.39,6,080809
Loulé (São Sebastião),PPV,0.33,5,080809
Loulé (São Sebastião),POUS,0.07,1,080809
