freguesia,acronym,validVotesPercentage,votes,dicofre
Lourosa,PPD/PSD.CDS-PP,46.84,74,061109
Lourosa,PS,35.44,56,061109
Lourosa,MPT,4.43,7,061109
Lourosa,PCP-PEV,3.16,5,061109
Lourosa,B.E.,2.53,4,061109
Lourosa,PCTP/MRPP,1.27,2,061109
Lourosa,PDA,1.27,2,061109
Lourosa,PNR,1.27,2,061109
Lourosa,PPM,1.27,2,061109
Lourosa,L,0.63,1,061109
Lourosa,MAS,0.63,1,061109
Lourosa,PAN,0.63,1,061109
Lourosa,PND,0.63,1,061109
Lourosa,POUS,0,0,061109
Lourosa,PPV,0,0,061109
Lourosa,PTP,0,0,061109
