freguesia,acronym,validVotesPercentage,votes,dicofre
Malhadas,PS,44.57,41,040607
Malhadas,PPD/PSD.CDS-PP,42.39,39,040607
Malhadas,PAN,3.26,3,040607
Malhadas,B.E.,2.17,2,040607
Malhadas,PCP-PEV,2.17,2,040607
Malhadas,PPM,2.17,2,040607
Malhadas,MPT,1.09,1,040607
Malhadas,PCTP/MRPP,1.09,1,040607
Malhadas,PND,1.09,1,040607
Malhadas,L,0,0,040607
Malhadas,MAS,0,0,040607
Malhadas,PDA,0,0,040607
Malhadas,PNR,0,0,040607
Malhadas,POUS,0,0,040607
Malhadas,PPV,0,0,040607
Malhadas,PTP,0,0,040607
