freguesia,acronym,validVotesPercentage,votes,dicofre
Manteigas (Santa Maria),PS,46.73,186,090802
Manteigas (Santa Maria),PPD/PSD.CDS-PP,28.64,114,090802
Manteigas (Santa Maria),PCP-PEV,8.79,35,090802
Manteigas (Santa Maria),MPT,5.28,21,090802
Manteigas (Santa Maria),B.E.,4.27,17,090802
Manteigas (Santa Maria),PCTP/MRPP,2.26,9,090802
Manteigas (Santa Maria),L,1.76,7,090802
Manteigas (Santa Maria),PPM,0.75,3,090802
Manteigas (Santa Maria),PAN,0.5,2,090802
Manteigas (Santa Maria),MAS,0.25,1,090802
Manteigas (Santa Maria),PND,0.25,1,090802
Manteigas (Santa Maria),POUS,0.25,1,090802
Manteigas (Santa Maria),PTP,0.25,1,090802
Manteigas (Santa Maria),PDA,0,0,090802
Manteigas (Santa Maria),PNR,0,0,090802
Manteigas (Santa Maria),PPV,0,0,090802
