freguesia,acronym,validVotesPercentage,votes,dicofre
Marmelete,PPD/PSD.CDS-PP,37.17,100,080902
Marmelete,PS,34.57,93,080902
Marmelete,PCP-PEV,8.92,24,080902
Marmelete,MPT,4.09,11,080902
Marmelete,PCTP/MRPP,3.72,10,080902
Marmelete,B.E.,2.6,7,080902
Marmelete,L,2.6,7,080902
Marmelete,PAN,1.86,5,080902
Marmelete,PTP,1.12,3,080902
Marmelete,MAS,0.74,2,080902
Marmelete,PND,0.74,2,080902
Marmelete,POUS,0.74,2,080902
Marmelete,PDA,0.37,1,080902
Marmelete,PNR,0.37,1,080902
Marmelete,PPM,0.37,1,080902
Marmelete,PPV,0,0,080902
