freguesia,acronym,validVotesPercentage,votes,dicofre
Maçãs de Dona Maria,PPD/PSD.CDS-PP,68.03,383,100204
Maçãs de Dona Maria,PS,17.94,101,100204
Maçãs de Dona Maria,MPT,4.26,24,100204
Maçãs de Dona Maria,PCP-PEV,2.84,16,100204
Maçãs de Dona Maria,B.E.,1.78,10,100204
Maçãs de Dona Maria,PND,1.24,7,100204
Maçãs de Dona Maria,PCTP/MRPP,0.89,5,100204
Maçãs de Dona Maria,PTP,0.89,5,100204
Maçãs de Dona Maria,L,0.71,4,100204
Maçãs de Dona Maria,PNR,0.53,3,100204
Maçãs de Dona Maria,MAS,0.36,2,100204
Maçãs de Dona Maria,PAN,0.18,1,100204
Maçãs de Dona Maria,PDA,0.18,1,100204
Maçãs de Dona Maria,PPV,0.18,1,100204
Maçãs de Dona Maria,POUS,0,0,100204
Maçãs de Dona Maria,PPM,0,0,100204
