freguesia,acronym,validVotesPercentage,votes,dicofre
Medelim,PS,55.46,66,050506
Medelim,PPD/PSD.CDS-PP,29.41,35,050506
Medelim,PCP-PEV,5.88,7,050506
Medelim,MPT,2.52,3,050506
Medelim,B.E.,1.68,2,050506
Medelim,L,1.68,2,050506
Medelim,PND,1.68,2,050506
Medelim,PCTP/MRPP,0.84,1,050506
Medelim,PDA,0.84,1,050506
Medelim,MAS,0,0,050506
Medelim,PAN,0,0,050506
Medelim,PNR,0,0,050506
Medelim,POUS,0,0,050506
Medelim,PPM,0,0,050506
Medelim,PPV,0,0,050506
Medelim,PTP,0,0,050506
