freguesia,acronym,validVotesPercentage,votes,dicofre
Minhocal,PS,54.29,38,090311
Minhocal,PPD/PSD.CDS-PP,34.29,24,090311
Minhocal,MPT,4.29,3,090311
Minhocal,PCP-PEV,4.29,3,090311
Minhocal,L,2.86,2,090311
Minhocal,B.E.,0,0,090311
Minhocal,MAS,0,0,090311
Minhocal,PAN,0,0,090311
Minhocal,PCTP/MRPP,0,0,090311
Minhocal,PDA,0,0,090311
Minhocal,PND,0,0,090311
Minhocal,PNR,0,0,090311
Minhocal,POUS,0,0,090311
Minhocal,PPM,0,0,090311
Minhocal,PPV,0,0,090311
Minhocal,PTP,0,0,090311
