freguesia,acronym,validVotesPercentage,votes,dicofre
Monteiras,PPD/PSD.CDS-PP,68.22,88,180314
Monteiras,PS,16.28,21,180314
Monteiras,MPT,7.75,10,180314
Monteiras,B.E.,2.33,3,180314
Monteiras,L,1.55,2,180314
Monteiras,PCTP/MRPP,1.55,2,180314
Monteiras,MAS,0.78,1,180314
Monteiras,PAN,0.78,1,180314
Monteiras,PTP,0.78,1,180314
Monteiras,PCP-PEV,0,0,180314
Monteiras,PDA,0,0,180314
Monteiras,PND,0,0,180314
Monteiras,PNR,0,0,180314
Monteiras,POUS,0,0,180314
Monteiras,PPM,0,0,180314
Monteiras,PPV,0,0,180314
