freguesia,acronym,validVotesPercentage,votes,dicofre
Moçarria,PS,45.25,143,141613
Moçarria,PPD/PSD.CDS-PP,17.09,54,141613
Moçarria,PCP-PEV,14.56,46,141613
Moçarria,MPT,8.86,28,141613
Moçarria,B.E.,7.59,24,141613
Moçarria,PAN,2.85,9,141613
Moçarria,PCTP/MRPP,1.27,4,141613
Moçarria,PND,0.63,2,141613
Moçarria,PNR,0.63,2,141613
Moçarria,L,0.32,1,141613
Moçarria,PPM,0.32,1,141613
Moçarria,PPV,0.32,1,141613
Moçarria,PTP,0.32,1,141613
Moçarria,MAS,0,0,141613
Moçarria,PDA,0,0,141613
Moçarria,POUS,0,0,141613
