freguesia,acronym,validVotesPercentage,votes,dicofre
Nogueira do Cravo,PPD/PSD.CDS-PP,42.11,248,061111
Nogueira do Cravo,PS,35.65,210,061111
Nogueira do Cravo,MPT,9.51,56,061111
Nogueira do Cravo,PCP-PEV,5.43,32,061111
Nogueira do Cravo,B.E.,1.7,10,061111
Nogueira do Cravo,PND,1.02,6,061111
Nogueira do Cravo,L,0.85,5,061111
Nogueira do Cravo,PPM,0.85,5,061111
Nogueira do Cravo,PTP,0.85,5,061111
Nogueira do Cravo,PAN,0.68,4,061111
Nogueira do Cravo,MAS,0.34,2,061111
Nogueira do Cravo,PCTP/MRPP,0.34,2,061111
Nogueira do Cravo,PNR,0.34,2,061111
Nogueira do Cravo,PPV,0.34,2,061111
Nogueira do Cravo,PDA,0,0,061111
Nogueira do Cravo,POUS,0,0,061111
