freguesia,acronym,validVotesPercentage,votes,dicofre
Nossa Senhora de Fátima,PS,32.87,998,141002
Nossa Senhora de Fátima,PPD/PSD.CDS-PP,20.78,631,141002
Nossa Senhora de Fátima,PCP-PEV,14.43,438,141002
Nossa Senhora de Fátima,MPT,11.07,336,141002
Nossa Senhora de Fátima,B.E.,10.05,305,141002
Nossa Senhora de Fátima,L,2.4,73,141002
Nossa Senhora de Fátima,PAN,2.4,73,141002
Nossa Senhora de Fátima,PCTP/MRPP,1.94,59,141002
Nossa Senhora de Fátima,PPM,0.92,28,141002
Nossa Senhora de Fátima,PNR,0.79,24,141002
Nossa Senhora de Fátima,MAS,0.53,16,141002
Nossa Senhora de Fátima,PTP,0.53,16,141002
Nossa Senhora de Fátima,PND,0.46,14,141002
Nossa Senhora de Fátima,PPV,0.4,12,141002
Nossa Senhora de Fátima,POUS,0.26,8,141002
Nossa Senhora de Fátima,PDA,0.16,5,141002
