freguesia,acronym,validVotesPercentage,votes,dicofre
Nossa Senhora de Machede,PCP-PEV,41.8,158,070503
Nossa Senhora de Machede,PS,37.57,142,070503
Nossa Senhora de Machede,PPD/PSD.CDS-PP,9.79,37,070503
Nossa Senhora de Machede,B.E.,3.44,13,070503
Nossa Senhora de Machede,PCTP/MRPP,3.17,12,070503
Nossa Senhora de Machede,MPT,1.59,6,070503
Nossa Senhora de Machede,PAN,0.79,3,070503
Nossa Senhora de Machede,PND,0.53,2,070503
Nossa Senhora de Machede,PTP,0.53,2,070503
Nossa Senhora de Machede,L,0.26,1,070503
Nossa Senhora de Machede,PDA,0.26,1,070503
Nossa Senhora de Machede,PPV,0.26,1,070503
Nossa Senhora de Machede,MAS,0,0,070503
Nossa Senhora de Machede,PNR,0,0,070503
Nossa Senhora de Machede,POUS,0,0,070503
Nossa Senhora de Machede,PPM,0,0,070503
