freguesia,acronym,validVotesPercentage,votes,dicofre
Oliveira do Bairro,PPD/PSD.CDS-PP,55.94,744,011404
Oliveira do Bairro,PS,18.12,241,011404
Oliveira do Bairro,MPT,7.82,104,011404
Oliveira do Bairro,PCP-PEV,5.71,76,011404
Oliveira do Bairro,B.E.,3.31,44,011404
Oliveira do Bairro,L,2.03,27,011404
Oliveira do Bairro,PAN,1.5,20,011404
Oliveira do Bairro,PCTP/MRPP,1.2,16,011404
Oliveira do Bairro,PND,1.05,14,011404
Oliveira do Bairro,PPM,0.9,12,011404
Oliveira do Bairro,PPV,0.83,11,011404
Oliveira do Bairro,PNR,0.6,8,011404
Oliveira do Bairro,PTP,0.6,8,011404
Oliveira do Bairro,MAS,0.23,3,011404
Oliveira do Bairro,POUS,0.15,2,011404
Oliveira do Bairro,PDA,0,0,011404
