freguesia,acronym,validVotesPercentage,votes,dicofre
Parada de Todeia,PCP-PEV,38.93,262,131017
Parada de Todeia,PS,34.47,232,131017
Parada de Todeia,PPD/PSD.CDS-PP,9.66,65,131017
Parada de Todeia,MPT,6.69,45,131017
Parada de Todeia,PCTP/MRPP,3.57,24,131017
Parada de Todeia,B.E.,2.08,14,131017
Parada de Todeia,L,1.19,8,131017
Parada de Todeia,PPM,1.19,8,131017
Parada de Todeia,PAN,0.74,5,131017
Parada de Todeia,PND,0.74,5,131017
Parada de Todeia,MAS,0.45,3,131017
Parada de Todeia,PNR,0.3,2,131017
Parada de Todeia,PDA,0,0,131017
Parada de Todeia,POUS,0,0,131017
Parada de Todeia,PPV,0,0,131017
Parada de Todeia,PTP,0,0,131017
