freguesia,acronym,validVotesPercentage,votes,dicofre
Paul,PS,35.99,131,050314
Paul,PPD/PSD.CDS-PP,26.65,97,050314
Paul,PCP-PEV,15.93,58,050314
Paul,MPT,6.32,23,050314
Paul,B.E.,4.67,17,050314
Paul,PCTP/MRPP,2.75,10,050314
Paul,PAN,1.92,7,050314
Paul,L,1.37,5,050314
Paul,PPM,1.37,5,050314
Paul,PND,0.82,3,050314
Paul,PNR,0.55,2,050314
Paul,PTP,0.55,2,050314
Paul,MAS,0.27,1,050314
Paul,PDA,0.27,1,050314
Paul,POUS,0.27,1,050314
Paul,PPV,0.27,1,050314
