freguesia,acronym,validVotesPercentage,votes,dicofre
Paçó,PPD/PSD.CDS-PP,60.66,37,041215
Paçó,PS,19.67,12,041215
Paçó,MPT,6.56,4,041215
Paçó,B.E.,4.92,3,041215
Paçó,PCP-PEV,4.92,3,041215
Paçó,PND,1.64,1,041215
Paçó,PTP,1.64,1,041215
Paçó,L,0,0,041215
Paçó,MAS,0,0,041215
Paçó,PAN,0,0,041215
Paçó,PCTP/MRPP,0,0,041215
Paçó,PDA,0,0,041215
Paçó,PNR,0,0,041215
Paçó,POUS,0,0,041215
Paçó,PPM,0,0,041215
Paçó,PPV,0,0,041215
