freguesia,acronym,validVotesPercentage,votes,dicofre
Pedrógão,PS,38.9,254,141909
Pedrógão,PPD/PSD.CDS-PP,23.43,153,141909
Pedrógão,PCP-PEV,16.54,108,141909
Pedrógão,MPT,6.28,41,141909
Pedrógão,B.E.,5.82,38,141909
Pedrógão,PCTP/MRPP,2.3,15,141909
Pedrógão,L,2.14,14,141909
Pedrógão,PAN,1.68,11,141909
Pedrógão,PND,0.92,6,141909
Pedrógão,MAS,0.77,5,141909
Pedrógão,PPV,0.46,3,141909
Pedrógão,PTP,0.46,3,141909
Pedrógão,POUS,0.15,1,141909
Pedrógão,PPM,0.15,1,141909
Pedrógão,PDA,0,0,141909
Pedrógão,PNR,0,0,141909
