freguesia,acronym,validVotesPercentage,votes,dicofre
Ponte do Rol,PS,37.01,218,111310
Ponte do Rol,PPD/PSD.CDS-PP,32.94,194,111310
Ponte do Rol,PCP-PEV,9.17,54,111310
Ponte do Rol,MPT,6.79,40,111310
Ponte do Rol,B.E.,5.6,33,111310
Ponte do Rol,L,2.55,15,111310
Ponte do Rol,PCTP/MRPP,1.87,11,111310
Ponte do Rol,PAN,1.19,7,111310
Ponte do Rol,MAS,1.02,6,111310
Ponte do Rol,PND,0.68,4,111310
Ponte do Rol,PPM,0.51,3,111310
Ponte do Rol,PPV,0.34,2,111310
Ponte do Rol,PTP,0.34,2,111310
Ponte do Rol,PDA,0,0,111310
Ponte do Rol,PNR,0,0,111310
Ponte do Rol,POUS,0,0,111310
