freguesia,acronym,validVotesPercentage,votes,dicofre
Pousa,PPD/PSD.CDS-PP,44.14,294,030261
Pousa,PS,32.28,215,030261
Pousa,MPT,7.66,51,030261
Pousa,PCP-PEV,4.65,31,030261
Pousa,B.E.,3,20,030261
Pousa,PAN,2.55,17,030261
Pousa,PCTP/MRPP,1.8,12,030261
Pousa,PND,1.05,7,030261
Pousa,L,0.6,4,030261
Pousa,MAS,0.45,3,030261
Pousa,PPM,0.45,3,030261
Pousa,PPV,0.45,3,030261
Pousa,PTP,0.45,3,030261
Pousa,POUS,0.3,2,030261
Pousa,PDA,0.15,1,030261
Pousa,PNR,0,0,030261
