freguesia,acronym,validVotesPercentage,votes,dicofre
Povolide,PPD/PSD.CDS-PP,47.81,207,182320
Povolide,PS,35.57,154,182320
Povolide,PCP-PEV,5.08,22,182320
Povolide,MPT,3.93,17,182320
Povolide,B.E.,1.62,7,182320
Povolide,L,1.39,6,182320
Povolide,PCTP/MRPP,1.15,5,182320
Povolide,PTP,0.92,4,182320
Povolide,PND,0.69,3,182320
Povolide,MAS,0.46,2,182320
Povolide,PAN,0.23,1,182320
Povolide,PDA,0.23,1,182320
Povolide,PNR,0.23,1,182320
Povolide,POUS,0.23,1,182320
Povolide,PPM,0.23,1,182320
Povolide,PPV,0.23,1,182320
