freguesia,acronym,validVotesPercentage,votes,dicofre
Prados,PPD/PSD.CDS-PP,50,39,090312
Prados,PS,39.74,31,090312
Prados,B.E.,1.28,1,090312
Prados,MAS,1.28,1,090312
Prados,MPT,1.28,1,090312
Prados,PCP-PEV,1.28,1,090312
Prados,PCTP/MRPP,1.28,1,090312
Prados,PDA,1.28,1,090312
Prados,PND,1.28,1,090312
Prados,POUS,1.28,1,090312
Prados,L,0,0,090312
Prados,PAN,0,0,090312
Prados,PNR,0,0,090312
Prados,PPM,0,0,090312
Prados,PPV,0,0,090312
Prados,PTP,0,0,090312
