freguesia,acronym,validVotesPercentage,votes,dicofre
Quelfes,PS,29.08,922,081005
Quelfes,PPD/PSD.CDS-PP,20.5,650,081005
Quelfes,PCP-PEV,17.57,557,081005
Quelfes,B.E.,10.47,332,081005
Quelfes,MPT,8.74,277,081005
Quelfes,PCTP/MRPP,3.31,105,081005
Quelfes,PAN,2.9,92,081005
Quelfes,L,2.3,73,081005
Quelfes,PND,1.01,32,081005
Quelfes,PTP,0.98,31,081005
Quelfes,PPM,0.88,28,081005
Quelfes,PNR,0.82,26,081005
Quelfes,MAS,0.79,25,081005
Quelfes,PPV,0.44,14,081005
Quelfes,PDA,0.16,5,081005
Quelfes,POUS,0.06,2,081005
