freguesia,acronym,validVotesPercentage,votes,dicofre
Ramalhal,PS,36.47,364,111311
Ramalhal,PPD/PSD.CDS-PP,25.85,258,111311
Ramalhal,PCP-PEV,12.02,120,111311
Ramalhal,MPT,8.82,88,111311
Ramalhal,B.E.,4.61,46,111311
Ramalhal,L,3.21,32,111311
Ramalhal,PCTP/MRPP,2.71,27,111311
Ramalhal,PAN,1.8,18,111311
Ramalhal,PPM,1.1,11,111311
Ramalhal,PTP,0.9,9,111311
Ramalhal,MAS,0.8,8,111311
Ramalhal,PNR,0.7,7,111311
Ramalhal,PND,0.4,4,111311
Ramalhal,PPV,0.4,4,111311
Ramalhal,PDA,0.1,1,111311
Ramalhal,POUS,0.1,1,111311
