freguesia,acronym,validVotesPercentage,votes,dicofre
Relva,PPD/PSD.CDS-PP,36.88,142,420315
Relva,PS,32.21,124,420315
Relva,MPT,9.09,35,420315
Relva,PCP-PEV,6.49,25,420315
Relva,B.E.,5.97,23,420315
Relva,PCTP/MRPP,2.08,8,420315
Relva,PDA,2.08,8,420315
Relva,L,1.56,6,420315
Relva,PAN,1.3,5,420315
Relva,PNR,0.78,3,420315
Relva,PTP,0.52,2,420315
Relva,MAS,0.26,1,420315
Relva,PND,0.26,1,420315
Relva,POUS,0.26,1,420315
Relva,PPM,0.26,1,420315
Relva,PPV,0,0,420315
