freguesia,acronym,validVotesPercentage,votes,dicofre
Ribas,PPD/PSD.CDS-PP,58.84,183,030518
Ribas,PS,27.33,85,030518
Ribas,MPT,2.89,9,030518
Ribas,PCP-PEV,2.57,8,030518
Ribas,PND,1.93,6,030518
Ribas,PCTP/MRPP,1.29,4,030518
Ribas,PTP,1.29,4,030518
Ribas,MAS,0.96,3,030518
Ribas,B.E.,0.64,2,030518
Ribas,L,0.64,2,030518
Ribas,PPM,0.64,2,030518
Ribas,PAN,0.32,1,030518
Ribas,POUS,0.32,1,030518
Ribas,PPV,0.32,1,030518
Ribas,PDA,0,0,030518
Ribas,PNR,0,0,030518
