freguesia,acronym,validVotesPercentage,votes,dicofre
Ribeira Brava,PPD/PSD.CDS-PP,45.56,975,310702
Ribeira Brava,PS,18.79,402,310702
Ribeira Brava,PTP,8.41,180,310702
Ribeira Brava,MPT,7.85,168,310702
Ribeira Brava,B.E.,3.97,85,310702
Ribeira Brava,PCP-PEV,3.18,68,310702
Ribeira Brava,PAN,2.76,59,310702
Ribeira Brava,L,2.2,47,310702
Ribeira Brava,PND,2.1,45,310702
Ribeira Brava,PCTP/MRPP,1.78,38,310702
Ribeira Brava,PPM,1.36,29,310702
Ribeira Brava,MAS,0.51,11,310702
Ribeira Brava,PPV,0.51,11,310702
Ribeira Brava,PDA,0.47,10,310702
Ribeira Brava,PNR,0.42,9,310702
Ribeira Brava,POUS,0.14,3,310702
