freguesia,acronym,validVotesPercentage,votes,dicofre
Rossas,PPD/PSD.CDS-PP,48.86,258,031113
Rossas,PS,38.83,205,031113
Rossas,B.E.,2.27,12,031113
Rossas,MPT,2.27,12,031113
Rossas,PCP-PEV,2.27,12,031113
Rossas,PCTP/MRPP,1.7,9,031113
Rossas,PAN,1.33,7,031113
Rossas,L,0.57,3,031113
Rossas,PND,0.57,3,031113
Rossas,MAS,0.38,2,031113
Rossas,PTP,0.38,2,031113
Rossas,PDA,0.19,1,031113
Rossas,PNR,0.19,1,031113
Rossas,PPM,0.19,1,031113
Rossas,POUS,0,0,031113
Rossas,PPV,0,0,031113
