freguesia,acronym,validVotesPercentage,votes,dicofre
Salga,PS,62.75,64,420206
Salga,PPD/PSD.CDS-PP,17.65,18,420206
Salga,B.E.,7.84,8,420206
Salga,PCP-PEV,4.9,5,420206
Salga,MPT,2.94,3,420206
Salga,PCTP/MRPP,1.96,2,420206
Salga,PAN,0.98,1,420206
Salga,PTP,0.98,1,420206
Salga,L,0,0,420206
Salga,MAS,0,0,420206
Salga,PDA,0,0,420206
Salga,PND,0,0,420206
Salga,PNR,0,0,420206
Salga,POUS,0,0,420206
Salga,PPM,0,0,420206
Salga,PPV,0,0,420206
