freguesia,acronym,validVotesPercentage,votes,dicofre
Salto,PS,53.14,338,170626
Salto,PPD/PSD.CDS-PP,35.22,224,170626
Salto,PCP-PEV,2.67,17,170626
Salto,MPT,2.36,15,170626
Salto,B.E.,2.2,14,170626
Salto,PND,1.42,9,170626
Salto,PCTP/MRPP,0.79,5,170626
Salto,PAN,0.47,3,170626
Salto,PDA,0.47,3,170626
Salto,L,0.31,2,170626
Salto,PNR,0.31,2,170626
Salto,PPM,0.31,2,170626
Salto,POUS,0.16,1,170626
Salto,PPV,0.16,1,170626
Salto,MAS,0,0,170626
Salto,PTP,0,0,170626
