freguesia,acronym,validVotesPercentage,votes,dicofre
Salzedas,PPD/PSD.CDS-PP,43.52,84,182005
Salzedas,PS,29.53,57,182005
Salzedas,B.E.,9.84,19,182005
Salzedas,PCP-PEV,5.7,11,182005
Salzedas,MPT,5.18,10,182005
Salzedas,PCTP/MRPP,2.59,5,182005
Salzedas,PND,1.55,3,182005
Salzedas,L,1.04,2,182005
Salzedas,PAN,0.52,1,182005
Salzedas,PPM,0.52,1,182005
Salzedas,MAS,0,0,182005
Salzedas,PDA,0,0,182005
Salzedas,PNR,0,0,182005
Salzedas,POUS,0,0,182005
Salzedas,PPV,0,0,182005
Salzedas,PTP,0,0,182005
