freguesia,acronym,validVotesPercentage,votes,dicofre
Salão,PPD/PSD.CDS-PP,59.43,63,470113
Salão,PS,27.36,29,470113
Salão,MPT,3.77,4,470113
Salão,PND,2.83,3,470113
Salão,B.E.,1.89,2,470113
Salão,L,0.94,1,470113
Salão,PAN,0.94,1,470113
Salão,PCP-PEV,0.94,1,470113
Salão,PDA,0.94,1,470113
Salão,PTP,0.94,1,470113
Salão,MAS,0,0,470113
Salão,PCTP/MRPP,0,0,470113
Salão,PNR,0,0,470113
Salão,POUS,0,0,470113
Salão,PPM,0,0,470113
Salão,PPV,0,0,470113
