freguesia,acronym,validVotesPercentage,votes,dicofre
Sande,PS,57.14,144,180520
Sande,PPD/PSD.CDS-PP,26.59,67,180520
Sande,MPT,4.37,11,180520
Sande,PCP-PEV,3.57,9,180520
Sande,B.E.,1.59,4,180520
Sande,PCTP/MRPP,1.59,4,180520
Sande,PTP,1.59,4,180520
Sande,MAS,0.79,2,180520
Sande,PAN,0.79,2,180520
Sande,PND,0.79,2,180520
Sande,PPM,0.79,2,180520
Sande,POUS,0.4,1,180520
Sande,L,0,0,180520
Sande,PDA,0,0,180520
Sande,PNR,0,0,180520
Sande,PPV,0,0,180520
