freguesia,acronym,validVotesPercentage,votes,dicofre
Santa Cruz,PS,25.26,477,310805
Santa Cruz,PPD/PSD.CDS-PP,21.88,413,310805
Santa Cruz,PTP,19.86,375,310805
Santa Cruz,MPT,10.17,192,310805
Santa Cruz,PCP-PEV,4.45,84,310805
Santa Cruz,PAN,4.13,78,310805
Santa Cruz,B.E.,3.07,58,310805
Santa Cruz,PND,2.75,52,310805
Santa Cruz,PCTP/MRPP,2.33,44,310805
Santa Cruz,L,1.75,33,310805
Santa Cruz,PPM,1.38,26,310805
Santa Cruz,PPV,0.79,15,310805
Santa Cruz,PNR,0.64,12,310805
Santa Cruz,PDA,0.58,11,310805
Santa Cruz,MAS,0.53,10,310805
Santa Cruz,POUS,0.42,8,310805
