freguesia,acronym,validVotesPercentage,votes,dicofre
Santo António da Serra,PPD/PSD.CDS-PP,29.01,76,310806
Santo António da Serra,PTP,20.61,54,310806
Santo António da Serra,PS,14.89,39,310806
Santo António da Serra,MPT,10.31,27,310806
Santo António da Serra,PND,5.73,15,310806
Santo António da Serra,PAN,5.34,14,310806
Santo António da Serra,B.E.,3.44,9,310806
Santo António da Serra,PCP-PEV,3.05,8,310806
Santo António da Serra,L,2.29,6,310806
Santo António da Serra,PDA,1.53,4,310806
Santo António da Serra,PNR,1.53,4,310806
Santo António da Serra,MAS,0.76,2,310806
Santo António da Serra,PCTP/MRPP,0.76,2,310806
Santo António da Serra,PPM,0.38,1,310806
Santo António da Serra,PPV,0.38,1,310806
Santo António da Serra,POUS,0,0,310806
