freguesia,acronym,validVotesPercentage,votes,dicofre
Santa Comba,PS,35.83,86,160742
Santa Comba,PPD/PSD.CDS-PP,32.92,79,160742
Santa Comba,MPT,12.08,29,160742
Santa Comba,PCP-PEV,5.83,14,160742
Santa Comba,B.E.,2.5,6,160742
Santa Comba,PAN,2.5,6,160742
Santa Comba,PTP,2.5,6,160742
Santa Comba,PCTP/MRPP,1.67,4,160742
Santa Comba,L,1.25,3,160742
Santa Comba,PND,0.83,2,160742
Santa Comba,PNR,0.83,2,160742
Santa Comba,MAS,0.42,1,160742
Santa Comba,POUS,0.42,1,160742
Santa Comba,PPV,0.42,1,160742
Santa Comba,PDA,0,0,160742
Santa Comba,PPM,0,0,160742
