freguesia,acronym,validVotesPercentage,votes,dicofre
Seda,PCP-PEV,48.68,92,120103
Seda,PS,29.63,56,120103
Seda,PPD/PSD.CDS-PP,12.17,23,120103
Seda,B.E.,4.23,8,120103
Seda,PCTP/MRPP,2.12,4,120103
Seda,MPT,1.59,3,120103
Seda,MAS,0.53,1,120103
Seda,PPV,0.53,1,120103
Seda,PTP,0.53,1,120103
Seda,L,0,0,120103
Seda,PAN,0,0,120103
Seda,PDA,0,0,120103
Seda,PND,0,0,120103
Seda,PNR,0,0,120103
Seda,POUS,0,0,120103
Seda,PPM,0,0,120103
