freguesia,acronym,validVotesPercentage,votes,dicofre
Senhorim,PPD/PSD.CDS-PP,45.75,113,180905
Senhorim,PS,25.91,64,180905
Senhorim,MPT,10.12,25,180905
Senhorim,B.E.,6.07,15,180905
Senhorim,PCP-PEV,4.05,10,180905
Senhorim,PCTP/MRPP,2.02,5,180905
Senhorim,PAN,1.21,3,180905
Senhorim,L,0.81,2,180905
Senhorim,PND,0.81,2,180905
Senhorim,PPV,0.81,2,180905
Senhorim,PTP,0.81,2,180905
Senhorim,MAS,0.4,1,180905
Senhorim,PDA,0.4,1,180905
Senhorim,POUS,0.4,1,180905
Senhorim,PPM,0.4,1,180905
Senhorim,PNR,0,0,180905
