freguesia,acronym,validVotesPercentage,votes,dicofre
Sobrosa,PPD/PSD.CDS-PP,54.86,446,131021
Sobrosa,PS,25.58,208,131021
Sobrosa,MPT,7.87,64,131021
Sobrosa,PCP-PEV,2.95,24,131021
Sobrosa,B.E.,1.6,13,131021
Sobrosa,L,1.48,12,131021
Sobrosa,PAN,1.23,10,131021
Sobrosa,PND,1.23,10,131021
Sobrosa,PTP,1.23,10,131021
Sobrosa,MAS,0.62,5,131021
Sobrosa,PCTP/MRPP,0.62,5,131021
Sobrosa,PNR,0.25,2,131021
Sobrosa,PPM,0.25,2,131021
Sobrosa,PDA,0.12,1,131021
Sobrosa,PPV,0.12,1,131021
Sobrosa,POUS,0,0,131021
