freguesia,acronym,validVotesPercentage,votes,dicofre
Sousela,PS,36.86,129,130524
Sousela,PPD/PSD.CDS-PP,36.57,128,130524
Sousela,MPT,8.57,30,130524
Sousela,B.E.,3.43,12,130524
Sousela,PCP-PEV,3.43,12,130524
Sousela,PND,3.14,11,130524
Sousela,L,2.86,10,130524
Sousela,PTP,1.43,5,130524
Sousela,PCTP/MRPP,1.14,4,130524
Sousela,PNR,0.86,3,130524
Sousela,PPM,0.86,3,130524
Sousela,MAS,0.57,2,130524
Sousela,PAN,0.29,1,130524
Sousela,PDA,0,0,130524
Sousela,POUS,0,0,130524
Sousela,PPV,0,0,130524
