freguesia,acronym,validVotesPercentage,votes,dicofre
São Gonçalo,PS,29.06,532,310306
São Gonçalo,PPD/PSD.CDS-PP,27.36,501,310306
São Gonçalo,MPT,10.32,189,310306
São Gonçalo,PTP,6.99,128,310306
São Gonçalo,PCP-PEV,6.06,111,310306
São Gonçalo,B.E.,5.57,102,310306
São Gonçalo,PAN,3.88,71,310306
São Gonçalo,PND,2.89,53,310306
São Gonçalo,PCTP/MRPP,2.4,44,310306
São Gonçalo,L,2.13,39,310306
São Gonçalo,PPM,0.98,18,310306
São Gonçalo,PDA,0.71,13,310306
São Gonçalo,PNR,0.66,12,310306
São Gonçalo,PPV,0.49,9,310306
São Gonçalo,MAS,0.38,7,310306
São Gonçalo,POUS,0.11,2,310306
