freguesia,acronym,validVotesPercentage,votes,dicofre
São Vicente da Beira,PS,42.41,176,050222
São Vicente da Beira,PPD/PSD.CDS-PP,33.98,141,050222
São Vicente da Beira,MPT,8.67,36,050222
São Vicente da Beira,B.E.,4.1,17,050222
São Vicente da Beira,PCP-PEV,3.13,13,050222
São Vicente da Beira,PND,2.17,9,050222
São Vicente da Beira,PCTP/MRPP,1.69,7,050222
São Vicente da Beira,MAS,0.96,4,050222
São Vicente da Beira,PAN,0.96,4,050222
São Vicente da Beira,L,0.48,2,050222
São Vicente da Beira,PNR,0.48,2,050222
São Vicente da Beira,PTP,0.48,2,050222
São Vicente da Beira,PDA,0.24,1,050222
São Vicente da Beira,PPM,0.24,1,050222
São Vicente da Beira,POUS,0,0,050222
São Vicente da Beira,PPV,0,0,050222
