freguesia,acronym,validVotesPercentage,votes,dicofre
São Mamede,PPD/PSD.CDS-PP,67.87,864,100403
São Mamede,PS,12.25,156,100403
São Mamede,MPT,6.76,86,100403
São Mamede,B.E.,2.2,28,100403
São Mamede,PAN,1.73,22,100403
São Mamede,PND,1.65,21,100403
São Mamede,PCP-PEV,1.57,20,100403
São Mamede,PCTP/MRPP,1.26,16,100403
São Mamede,L,1.18,15,100403
São Mamede,PTP,0.94,12,100403
São Mamede,MAS,0.86,11,100403
São Mamede,PPM,0.63,8,100403
São Mamede,PPV,0.47,6,100403
São Mamede,PNR,0.39,5,100403
São Mamede,POUS,0.16,2,100403
São Mamede,PDA,0.08,1,100403
