freguesia,acronym,validVotesPercentage,votes,dicofre
São Miguel de Machede,PCP-PEV,39.16,121,070509
São Miguel de Machede,PS,34.3,106,070509
São Miguel de Machede,PPD/PSD.CDS-PP,10.03,31,070509
São Miguel de Machede,B.E.,6.15,19,070509
São Miguel de Machede,MPT,3.56,11,070509
São Miguel de Machede,PAN,1.94,6,070509
São Miguel de Machede,PCTP/MRPP,1.62,5,070509
São Miguel de Machede,L,0.97,3,070509
São Miguel de Machede,PPV,0.97,3,070509
São Miguel de Machede,PNR,0.65,2,070509
São Miguel de Machede,PND,0.32,1,070509
São Miguel de Machede,POUS,0.32,1,070509
São Miguel de Machede,MAS,0,0,070509
São Miguel de Machede,PDA,0,0,070509
São Miguel de Machede,PPM,0,0,070509
São Miguel de Machede,PTP,0,0,070509
