freguesia,acronym,validVotesPercentage,votes,dicofre
São Caetano,PPD/PSD.CDS-PP,55.07,76,460205
São Caetano,PS,29.71,41,460205
São Caetano,MPT,4.35,6,460205
São Caetano,B.E.,1.45,2,460205
São Caetano,L,1.45,2,460205
São Caetano,MAS,1.45,2,460205
São Caetano,PCP-PEV,1.45,2,460205
São Caetano,PNR,1.45,2,460205
São Caetano,PAN,0.72,1,460205
São Caetano,PCTP/MRPP,0.72,1,460205
São Caetano,PDA,0.72,1,460205
São Caetano,PND,0.72,1,460205
São Caetano,PPM,0.72,1,460205
São Caetano,POUS,0,0,460205
São Caetano,PPV,0,0,460205
São Caetano,PTP,0,0,460205
