freguesia,acronym,validVotesPercentage,votes,dicofre
São Martinho de Mouros,PPD/PSD.CDS-PP,47.76,149,181314
São Martinho de Mouros,PS,38.46,120,181314
São Martinho de Mouros,MPT,5.45,17,181314
São Martinho de Mouros,PCP-PEV,2.24,7,181314
São Martinho de Mouros,L,1.28,4,181314
São Martinho de Mouros,B.E.,0.96,3,181314
São Martinho de Mouros,PCTP/MRPP,0.96,3,181314
São Martinho de Mouros,PTP,0.96,3,181314
São Martinho de Mouros,MAS,0.64,2,181314
São Martinho de Mouros,PPM,0.64,2,181314
São Martinho de Mouros,PDA,0.32,1,181314
São Martinho de Mouros,PND,0.32,1,181314
São Martinho de Mouros,PAN,0,0,181314
São Martinho de Mouros,PNR,0,0,181314
São Martinho de Mouros,POUS,0,0,181314
São Martinho de Mouros,PPV,0,0,181314
