freguesia,acronym,validVotesPercentage,votes,dicofre
São Domingos de Rana,PS,32.27,4751,110506
São Domingos de Rana,PPD/PSD.CDS-PP,24.19,3562,110506
São Domingos de Rana,PCP-PEV,17.66,2600,110506
São Domingos de Rana,MPT,8.08,1190,110506
São Domingos de Rana,B.E.,5.65,832,110506
São Domingos de Rana,L,3.38,498,110506
São Domingos de Rana,PAN,3.23,475,110506
São Domingos de Rana,PCTP/MRPP,2.01,296,110506
São Domingos de Rana,PNR,0.64,94,110506
São Domingos de Rana,PPM,0.63,93,110506
São Domingos de Rana,PPV,0.54,79,110506
São Domingos de Rana,PND,0.53,78,110506
São Domingos de Rana,MAS,0.49,72,110506
São Domingos de Rana,PTP,0.46,68,110506
São Domingos de Rana,POUS,0.14,20,110506
São Domingos de Rana,PDA,0.1,15,110506
