freguesia,acronym,validVotesPercentage,votes,dicofre
Tangil,PPD/PSD.CDS-PP,55.41,128,160428
Tangil,PS,29.87,69,160428
Tangil,MPT,3.9,9,160428
Tangil,PCP-PEV,3.46,8,160428
Tangil,B.E.,2.6,6,160428
Tangil,PND,1.73,4,160428
Tangil,PTP,1.3,3,160428
Tangil,L,0.43,1,160428
Tangil,PAN,0.43,1,160428
Tangil,PCTP/MRPP,0.43,1,160428
Tangil,PNR,0.43,1,160428
Tangil,MAS,0,0,160428
Tangil,PDA,0,0,160428
Tangil,POUS,0,0,160428
Tangil,PPM,0,0,160428
Tangil,PPV,0,0,160428
