freguesia,acronym,validVotesPercentage,votes,dicofre
Terras de Massueime,PPD/PSD.CDS-PP,43,43,091030
Terras de Massueime,PS,43,43,091030
Terras de Massueime,B.E.,6,6,091030
Terras de Massueime,PCP-PEV,2,2,091030
Terras de Massueime,PND,2,2,091030
Terras de Massueime,L,1,1,091030
Terras de Massueime,MAS,1,1,091030
Terras de Massueime,PPM,1,1,091030
Terras de Massueime,PPV,1,1,091030
Terras de Massueime,MPT,0,0,091030
Terras de Massueime,PAN,0,0,091030
Terras de Massueime,PCTP/MRPP,0,0,091030
Terras de Massueime,PDA,0,0,091030
Terras de Massueime,PNR,0,0,091030
Terras de Massueime,POUS,0,0,091030
Terras de Massueime,PTP,0,0,091030
