freguesia,acronym,validVotesPercentage,votes,dicofre
Tinalhas,PS,48.26,97,050225
Tinalhas,PPD/PSD.CDS-PP,26.37,53,050225
Tinalhas,PCP-PEV,4.98,10,050225
Tinalhas,PND,3.98,8,050225
Tinalhas,PCTP/MRPP,3.48,7,050225
Tinalhas,PAN,2.99,6,050225
Tinalhas,L,2.49,5,050225
Tinalhas,B.E.,1.99,4,050225
Tinalhas,MPT,1.99,4,050225
Tinalhas,PNR,1,2,050225
Tinalhas,PPM,1,2,050225
Tinalhas,MAS,0.5,1,050225
Tinalhas,PPV,0.5,1,050225
Tinalhas,PTP,0.5,1,050225
Tinalhas,PDA,0,0,050225
Tinalhas,POUS,0,0,050225
