freguesia,acronym,validVotesPercentage,votes,dicofre
Touça,PS,46.27,31,091416
Touça,PPD/PSD.CDS-PP,31.34,21,091416
Touça,PCP-PEV,7.46,5,091416
Touça,B.E.,4.48,3,091416
Touça,MPT,2.99,2,091416
Touça,PAN,2.99,2,091416
Touça,L,1.49,1,091416
Touça,MAS,1.49,1,091416
Touça,PPM,1.49,1,091416
Touça,PCTP/MRPP,0,0,091416
Touça,PDA,0,0,091416
Touça,PND,0,0,091416
Touça,PNR,0,0,091416
Touça,POUS,0,0,091416
Touça,PPV,0,0,091416
Touça,PTP,0,0,091416
