freguesia,acronym,validVotesPercentage,votes,dicofre
Trute,PPD/PSD.CDS-PP,48.33,29,160431
Trute,PS,31.67,19,160431
Trute,MPT,6.67,4,160431
Trute,L,5,3,160431
Trute,B.E.,1.67,1,160431
Trute,MAS,1.67,1,160431
Trute,PCP-PEV,1.67,1,160431
Trute,PND,1.67,1,160431
Trute,PNR,1.67,1,160431
Trute,PAN,0,0,160431
Trute,PCTP/MRPP,0,0,160431
Trute,PDA,0,0,160431
Trute,POUS,0,0,160431
Trute,PPM,0,0,160431
Trute,PPV,0,0,160431
Trute,PTP,0,0,160431
