freguesia,acronym,validVotesPercentage,votes,dicofre
Turcifal,PS,40.35,345,111317
Turcifal,PPD/PSD.CDS-PP,20.82,178,111317
Turcifal,PCP-PEV,15.09,129,111317
Turcifal,MPT,8.07,69,111317
Turcifal,B.E.,5.5,47,111317
Turcifal,PAN,1.99,17,111317
Turcifal,PCTP/MRPP,1.99,17,111317
Turcifal,L,1.75,15,111317
Turcifal,PNR,1.05,9,111317
Turcifal,PTP,0.82,7,111317
Turcifal,PND,0.58,5,111317
Turcifal,PPV,0.58,5,111317
Turcifal,PDA,0.47,4,111317
Turcifal,PPM,0.47,4,111317
Turcifal,MAS,0.23,2,111317
Turcifal,POUS,0.23,2,111317
