freguesia,acronym,validVotesPercentage,votes,dicofre
União das freguesias de Vilamar e Corticeiro de Cima,PPD/PSD.CDS-PP,59.09,273,060224
União das freguesias de Vilamar e Corticeiro de Cima,PS,21.43,99,060224
União das freguesias de Vilamar e Corticeiro de Cima,MPT,7.79,36,060224
União das freguesias de Vilamar e Corticeiro de Cima,B.E.,2.6,12,060224
União das freguesias de Vilamar e Corticeiro de Cima,PCP-PEV,2.38,11,060224
União das freguesias de Vilamar e Corticeiro de Cima,PAN,1.73,8,060224
União das freguesias de Vilamar e Corticeiro de Cima,L,0.87,4,060224
União das freguesias de Vilamar e Corticeiro de Cima,PND,0.87,4,060224
União das freguesias de Vilamar e Corticeiro de Cima,PCTP/MRPP,0.65,3,060224
União das freguesias de Vilamar e Corticeiro de Cima,PDA,0.43,2,060224
União das freguesias de Vilamar e Corticeiro de Cima,PNR,0.43,2,060224
União das freguesias de Vilamar e Corticeiro de Cima,POUS,0.43,2,060224
União das freguesias de Vilamar e Corticeiro de Cima,PPM,0.43,2,060224
União das freguesias de Vilamar e Corticeiro de Cima,PTP,0.43,2,060224
União das freguesias de Vilamar e Corticeiro de Cima,MAS,0.22,1,060224
União das freguesias de Vilamar e Corticeiro de Cima,PPV,0.22,1,060224
