freguesia,acronym,validVotesPercentage,votes,dicofre
União das freguesias de Aricera e Goujoim,PPD/PSD.CDS-PP,61.29,57,180121
União das freguesias de Aricera e Goujoim,PS,26.88,25,180121
União das freguesias de Aricera e Goujoim,PCP-PEV,3.23,3,180121
União das freguesias de Aricera e Goujoim,PAN,2.15,2,180121
União das freguesias de Aricera e Goujoim,PCTP/MRPP,2.15,2,180121
União das freguesias de Aricera e Goujoim,B.E.,1.08,1,180121
União das freguesias de Aricera e Goujoim,MPT,1.08,1,180121
União das freguesias de Aricera e Goujoim,POUS,1.08,1,180121
União das freguesias de Aricera e Goujoim,PTP,1.08,1,180121
União das freguesias de Aricera e Goujoim,L,0,0,180121
União das freguesias de Aricera e Goujoim,MAS,0,0,180121
União das freguesias de Aricera e Goujoim,PDA,0,0,180121
União das freguesias de Aricera e Goujoim,PND,0,0,180121
União das freguesias de Aricera e Goujoim,PNR,0,0,180121
União das freguesias de Aricera e Goujoim,PPM,0,0,180121
União das freguesias de Aricera e Goujoim,PPV,0,0,180121
