freguesia,acronym,validVotesPercentage,votes,dicofre
União das freguesias de Palmeira de Faro e Curvos,PPD/PSD.CDS-PP,43.89,377,030620
União das freguesias de Palmeira de Faro e Curvos,PS,24.68,212,030620
União das freguesias de Palmeira de Faro e Curvos,MPT,13.39,115,030620
União das freguesias de Palmeira de Faro e Curvos,PCP-PEV,5.94,51,030620
União das freguesias de Palmeira de Faro e Curvos,B.E.,3.61,31,030620
União das freguesias de Palmeira de Faro e Curvos,L,2.1,18,030620
União das freguesias de Palmeira de Faro e Curvos,PAN,1.51,13,030620
União das freguesias de Palmeira de Faro e Curvos,PPM,1.28,11,030620
União das freguesias de Palmeira de Faro e Curvos,PCTP/MRPP,0.93,8,030620
União das freguesias de Palmeira de Faro e Curvos,PTP,0.93,8,030620
União das freguesias de Palmeira de Faro e Curvos,PND,0.81,7,030620
União das freguesias de Palmeira de Faro e Curvos,MAS,0.35,3,030620
União das freguesias de Palmeira de Faro e Curvos,PNR,0.35,3,030620
União das freguesias de Palmeira de Faro e Curvos,PDA,0.12,1,030620
União das freguesias de Palmeira de Faro e Curvos,POUS,0.12,1,030620
União das freguesias de Palmeira de Faro e Curvos,PPV,0,0,030620
