freguesia,acronym,validVotesPercentage,votes,dicofre
União das freguesias de Viana do Castelo (Santa Maria Maior e Monserrate) e Meadela,PS,29.11,2283,160948
União das freguesias de Viana do Castelo (Santa Maria Maior e Monserrate) e Meadela,PCP-PEV,21.31,1671,160948
União das freguesias de Viana do Castelo (Santa Maria Maior e Monserrate) e Meadela,PPD/PSD.CDS-PP,20.53,1610,160948
União das freguesias de Viana do Castelo (Santa Maria Maior e Monserrate) e Meadela,MPT,11.41,895,160948
União das freguesias de Viana do Castelo (Santa Maria Maior e Monserrate) e Meadela,B.E.,7.35,576,160948
União das freguesias de Viana do Castelo (Santa Maria Maior e Monserrate) e Meadela,L,2.92,229,160948
União das freguesias de Viana do Castelo (Santa Maria Maior e Monserrate) e Meadela,PCTP/MRPP,2.32,182,160948
União das freguesias de Viana do Castelo (Santa Maria Maior e Monserrate) e Meadela,PAN,1.98,155,160948
União das freguesias de Viana do Castelo (Santa Maria Maior e Monserrate) e Meadela,PND,0.62,49,160948
União das freguesias de Viana do Castelo (Santa Maria Maior e Monserrate) e Meadela,PPM,0.57,45,160948
União das freguesias de Viana do Castelo (Santa Maria Maior e Monserrate) e Meadela,PTP,0.54,42,160948
União das freguesias de Viana do Castelo (Santa Maria Maior e Monserrate) e Meadela,PNR,0.46,36,160948
União das freguesias de Viana do Castelo (Santa Maria Maior e Monserrate) e Meadela,PPV,0.32,25,160948
União das freguesias de Viana do Castelo (Santa Maria Maior e Monserrate) e Meadela,MAS,0.29,23,160948
União das freguesias de Viana do Castelo (Santa Maria Maior e Monserrate) e Meadela,POUS,0.14,11,160948
União das freguesias de Viana do Castelo (Santa Maria Maior e Monserrate) e Meadela,PDA,0.13,10,160948
