freguesia,acronym,validVotesPercentage,votes,dicofre
União das freguesias de Retorta e Tougues,PS,39.58,262,131634
União das freguesias de Retorta e Tougues,PPD/PSD.CDS-PP,31.12,206,131634
União das freguesias de Retorta e Tougues,MPT,9.21,61,131634
União das freguesias de Retorta e Tougues,PCP-PEV,7.1,47,131634
União das freguesias de Retorta e Tougues,B.E.,4.08,27,131634
União das freguesias de Retorta e Tougues,L,2.57,17,131634
União das freguesias de Retorta e Tougues,PCTP/MRPP,1.36,9,131634
União das freguesias de Retorta e Tougues,PND,1.36,9,131634
União das freguesias de Retorta e Tougues,MAS,0.76,5,131634
União das freguesias de Retorta e Tougues,PAN,0.6,4,131634
União das freguesias de Retorta e Tougues,PNR,0.6,4,131634
União das freguesias de Retorta e Tougues,PTP,0.6,4,131634
União das freguesias de Retorta e Tougues,PDA,0.3,2,131634
União das freguesias de Retorta e Tougues,PPM,0.3,2,131634
União das freguesias de Retorta e Tougues,PPV,0.3,2,131634
União das freguesias de Retorta e Tougues,POUS,0.15,1,131634
