freguesia,acronym,validVotesPercentage,votes,dicofre
União das freguesias de Nunes e Ousilhão,PS,50,42,041238
União das freguesias de Nunes e Ousilhão,PPD/PSD.CDS-PP,27.38,23,041238
União das freguesias de Nunes e Ousilhão,PCP-PEV,4.76,4,041238
União das freguesias de Nunes e Ousilhão,B.E.,2.38,2,041238
União das freguesias de Nunes e Ousilhão,L,2.38,2,041238
União das freguesias de Nunes e Ousilhão,MPT,2.38,2,041238
União das freguesias de Nunes e Ousilhão,PND,2.38,2,041238
União das freguesias de Nunes e Ousilhão,PTP,2.38,2,041238
União das freguesias de Nunes e Ousilhão,MAS,1.19,1,041238
União das freguesias de Nunes e Ousilhão,PAN,1.19,1,041238
União das freguesias de Nunes e Ousilhão,PCTP/MRPP,1.19,1,041238
União das freguesias de Nunes e Ousilhão,PNR,1.19,1,041238
União das freguesias de Nunes e Ousilhão,PPM,1.19,1,041238
União das freguesias de Nunes e Ousilhão,PDA,0,0,041238
União das freguesias de Nunes e Ousilhão,POUS,0,0,041238
União das freguesias de Nunes e Ousilhão,PPV,0,0,041238
