freguesia,acronym,validVotesPercentage,votes,dicofre
União das freguesias de Ponte de Vagos e Santa Catarina,PPD/PSD.CDS-PP,74.06,534,011813
União das freguesias de Ponte de Vagos e Santa Catarina,PS,10.68,77,011813
União das freguesias de Ponte de Vagos e Santa Catarina,MPT,4.72,34,011813
União das freguesias de Ponte de Vagos e Santa Catarina,PCP-PEV,2.91,21,011813
União das freguesias de Ponte de Vagos e Santa Catarina,B.E.,1.66,12,011813
União das freguesias de Ponte de Vagos e Santa Catarina,L,1.53,11,011813
União das freguesias de Ponte de Vagos e Santa Catarina,PAN,1.11,8,011813
União das freguesias de Ponte de Vagos e Santa Catarina,PDA,0.83,6,011813
União das freguesias de Ponte de Vagos e Santa Catarina,PPM,0.83,6,011813
União das freguesias de Ponte de Vagos e Santa Catarina,PND,0.55,4,011813
União das freguesias de Ponte de Vagos e Santa Catarina,PTP,0.55,4,011813
União das freguesias de Ponte de Vagos e Santa Catarina,PCTP/MRPP,0.42,3,011813
União das freguesias de Ponte de Vagos e Santa Catarina,POUS,0.14,1,011813
União das freguesias de Ponte de Vagos e Santa Catarina,MAS,0,0,011813
União das freguesias de Ponte de Vagos e Santa Catarina,PNR,0,0,011813
União das freguesias de Ponte de Vagos e Santa Catarina,PPV,0,0,011813
