freguesia,acronym,validVotesPercentage,votes,dicofre
União das freguesias de Urrós e Peredo dos Castelhanos,PS,53.8,85,040921
União das freguesias de Urrós e Peredo dos Castelhanos,PPD/PSD.CDS-PP,29.11,46,040921
União das freguesias de Urrós e Peredo dos Castelhanos,PCP-PEV,6.33,10,040921
União das freguesias de Urrós e Peredo dos Castelhanos,MPT,3.8,6,040921
União das freguesias de Urrós e Peredo dos Castelhanos,PPM,1.9,3,040921
União das freguesias de Urrós e Peredo dos Castelhanos,PTP,1.9,3,040921
União das freguesias de Urrós e Peredo dos Castelhanos,PND,1.27,2,040921
União das freguesias de Urrós e Peredo dos Castelhanos,L,0.63,1,040921
União das freguesias de Urrós e Peredo dos Castelhanos,PAN,0.63,1,040921
União das freguesias de Urrós e Peredo dos Castelhanos,PPV,0.63,1,040921
União das freguesias de Urrós e Peredo dos Castelhanos,B.E.,0,0,040921
União das freguesias de Urrós e Peredo dos Castelhanos,MAS,0,0,040921
União das freguesias de Urrós e Peredo dos Castelhanos,PCTP/MRPP,0,0,040921
União das freguesias de Urrós e Peredo dos Castelhanos,PDA,0,0,040921
União das freguesias de Urrós e Peredo dos Castelhanos,PNR,0,0,040921
União das freguesias de Urrós e Peredo dos Castelhanos,POUS,0,0,040921
