freguesia,acronym,validVotesPercentage,votes,dicofre
União das freguesias de Escariz (São Mamede) e Escariz (São Martinho),PPD/PSD.CDS-PP,65.33,211,031362
União das freguesias de Escariz (São Mamede) e Escariz (São Martinho),PS,17.03,55,031362
União das freguesias de Escariz (São Mamede) e Escariz (São Martinho),MPT,7.74,25,031362
União das freguesias de Escariz (São Mamede) e Escariz (São Martinho),L,2.48,8,031362
União das freguesias de Escariz (São Mamede) e Escariz (São Martinho),PCP-PEV,1.86,6,031362
União das freguesias de Escariz (São Mamede) e Escariz (São Martinho),B.E.,1.55,5,031362
União das freguesias de Escariz (São Mamede) e Escariz (São Martinho),MAS,1.24,4,031362
União das freguesias de Escariz (São Mamede) e Escariz (São Martinho),PAN,0.62,2,031362
União das freguesias de Escariz (São Mamede) e Escariz (São Martinho),PCTP/MRPP,0.62,2,031362
União das freguesias de Escariz (São Mamede) e Escariz (São Martinho),PPM,0.62,2,031362
União das freguesias de Escariz (São Mamede) e Escariz (São Martinho),PNR,0.31,1,031362
União das freguesias de Escariz (São Mamede) e Escariz (São Martinho),PPV,0.31,1,031362
União das freguesias de Escariz (São Mamede) e Escariz (São Martinho),PTP,0.31,1,031362
União das freguesias de Escariz (São Mamede) e Escariz (São Martinho),PDA,0,0,031362
União das freguesias de Escariz (São Mamede) e Escariz (São Martinho),PND,0,0,031362
União das freguesias de Escariz (São Mamede) e Escariz (São Martinho),POUS,0,0,031362
