freguesia,acronym,validVotesPercentage,votes,dicofre
União das freguesias de Póvoa de Santa Iria e Forte da Casa,PS,32.95,3678,111415
União das freguesias de Póvoa de Santa Iria e Forte da Casa,PCP-PEV,23.37,2608,111415
União das freguesias de Póvoa de Santa Iria e Forte da Casa,PPD/PSD.CDS-PP,16.78,1873,111415
União das freguesias de Póvoa de Santa Iria e Forte da Casa,MPT,8.53,952,111415
União das freguesias de Póvoa de Santa Iria e Forte da Casa,B.E.,6.83,762,111415
União das freguesias de Póvoa de Santa Iria e Forte da Casa,PAN,2.81,314,111415
União das freguesias de Póvoa de Santa Iria e Forte da Casa,L,2.67,298,111415
União das freguesias de Póvoa de Santa Iria e Forte da Casa,PCTP/MRPP,2.47,276,111415
União das freguesias de Póvoa de Santa Iria e Forte da Casa,PTP,0.78,87,111415
União das freguesias de Póvoa de Santa Iria e Forte da Casa,PND,0.65,73,111415
União das freguesias de Póvoa de Santa Iria e Forte da Casa,PPM,0.62,69,111415
União das freguesias de Póvoa de Santa Iria e Forte da Casa,PNR,0.59,66,111415
União das freguesias de Póvoa de Santa Iria e Forte da Casa,PPV,0.42,47,111415
União das freguesias de Póvoa de Santa Iria e Forte da Casa,MAS,0.3,33,111415
União das freguesias de Póvoa de Santa Iria e Forte da Casa,PDA,0.17,19,111415
União das freguesias de Póvoa de Santa Iria e Forte da Casa,POUS,0.05,6,111415
