freguesia,acronym,validVotesPercentage,votes,dicofre
União das freguesias de Castanheiro do Norte e Ribalonga,PPD/PSD.CDS-PP,53.3,97,040322
União das freguesias de Castanheiro do Norte e Ribalonga,PS,23.63,43,040322
União das freguesias de Castanheiro do Norte e Ribalonga,MPT,10.44,19,040322
União das freguesias de Castanheiro do Norte e Ribalonga,B.E.,4.4,8,040322
União das freguesias de Castanheiro do Norte e Ribalonga,PND,1.65,3,040322
União das freguesias de Castanheiro do Norte e Ribalonga,PAN,1.1,2,040322
União das freguesias de Castanheiro do Norte e Ribalonga,PCP-PEV,1.1,2,040322
União das freguesias de Castanheiro do Norte e Ribalonga,PCTP/MRPP,1.1,2,040322
União das freguesias de Castanheiro do Norte e Ribalonga,PPM,1.1,2,040322
União das freguesias de Castanheiro do Norte e Ribalonga,PTP,1.1,2,040322
União das freguesias de Castanheiro do Norte e Ribalonga,MAS,0.55,1,040322
União das freguesias de Castanheiro do Norte e Ribalonga,PPV,0.55,1,040322
União das freguesias de Castanheiro do Norte e Ribalonga,L,0,0,040322
União das freguesias de Castanheiro do Norte e Ribalonga,PDA,0,0,040322
União das freguesias de Castanheiro do Norte e Ribalonga,PNR,0,0,040322
União das freguesias de Castanheiro do Norte e Ribalonga,POUS,0,0,040322
