freguesia,acronym,validVotesPercentage,votes,dicofre
União das freguesias de Ferradosa e Sendim da Serra,PS,45.38,59,040123
União das freguesias de Ferradosa e Sendim da Serra,PPD/PSD.CDS-PP,40.77,53,040123
União das freguesias de Ferradosa e Sendim da Serra,MPT,6.15,8,040123
União das freguesias de Ferradosa e Sendim da Serra,PCP-PEV,3.85,5,040123
União das freguesias de Ferradosa e Sendim da Serra,B.E.,0.77,1,040123
União das freguesias de Ferradosa e Sendim da Serra,L,0.77,1,040123
União das freguesias de Ferradosa e Sendim da Serra,PND,0.77,1,040123
União das freguesias de Ferradosa e Sendim da Serra,PNR,0.77,1,040123
União das freguesias de Ferradosa e Sendim da Serra,PPV,0.77,1,040123
União das freguesias de Ferradosa e Sendim da Serra,MAS,0,0,040123
União das freguesias de Ferradosa e Sendim da Serra,PAN,0,0,040123
União das freguesias de Ferradosa e Sendim da Serra,PCTP/MRPP,0,0,040123
União das freguesias de Ferradosa e Sendim da Serra,PDA,0,0,040123
União das freguesias de Ferradosa e Sendim da Serra,POUS,0,0,040123
União das freguesias de Ferradosa e Sendim da Serra,PPM,0,0,040123
União das freguesias de Ferradosa e Sendim da Serra,PTP,0,0,040123
