freguesia,acronym,validVotesPercentage,votes,dicofre
União das freguesias de Aguiar da Beira e Coruche,PS,61.14,376,090114
União das freguesias de Aguiar da Beira e Coruche,PPD/PSD.CDS-PP,27.8,171,090114
União das freguesias de Aguiar da Beira e Coruche,MPT,4.39,27,090114
União das freguesias de Aguiar da Beira e Coruche,PCP-PEV,2.11,13,090114
União das freguesias de Aguiar da Beira e Coruche,B.E.,1.46,9,090114
União das freguesias de Aguiar da Beira e Coruche,PND,0.81,5,090114
União das freguesias de Aguiar da Beira e Coruche,L,0.49,3,090114
União das freguesias de Aguiar da Beira e Coruche,PPM,0.49,3,090114
União das freguesias de Aguiar da Beira e Coruche,PAN,0.33,2,090114
União das freguesias de Aguiar da Beira e Coruche,MAS,0.16,1,090114
União das freguesias de Aguiar da Beira e Coruche,PCTP/MRPP,0.16,1,090114
União das freguesias de Aguiar da Beira e Coruche,PDA,0.16,1,090114
União das freguesias de Aguiar da Beira e Coruche,PNR,0.16,1,090114
União das freguesias de Aguiar da Beira e Coruche,POUS,0.16,1,090114
União das freguesias de Aguiar da Beira e Coruche,PTP,0.16,1,090114
União das freguesias de Aguiar da Beira e Coruche,PPV,0,0,090114
