freguesia,acronym,validVotesPercentage,votes,dicofre
União das freguesias de Malagueira e Horta das Figueiras,PS,30.2,1797,070524
União das freguesias de Malagueira e Horta das Figueiras,PCP-PEV,28.42,1691,070524
União das freguesias de Malagueira e Horta das Figueiras,PPD/PSD.CDS-PP,20.72,1233,070524
União das freguesias de Malagueira e Horta das Figueiras,B.E.,6.59,392,070524
União das freguesias de Malagueira e Horta das Figueiras,MPT,5.85,348,070524
União das freguesias de Malagueira e Horta das Figueiras,L,2.47,147,070524
União das freguesias de Malagueira e Horta das Figueiras,PCTP/MRPP,2.3,137,070524
União das freguesias de Malagueira e Horta das Figueiras,PAN,1.29,77,070524
União das freguesias de Malagueira e Horta das Figueiras,PNR,0.45,27,070524
União das freguesias de Malagueira e Horta das Figueiras,MAS,0.34,20,070524
União das freguesias de Malagueira e Horta das Figueiras,PPM,0.32,19,070524
União das freguesias de Malagueira e Horta das Figueiras,PND,0.3,18,070524
União das freguesias de Malagueira e Horta das Figueiras,PPV,0.3,18,070524
União das freguesias de Malagueira e Horta das Figueiras,PTP,0.25,15,070524
União das freguesias de Malagueira e Horta das Figueiras,PDA,0.12,7,070524
União das freguesias de Malagueira e Horta das Figueiras,POUS,0.07,4,070524
