freguesia,acronym,validVotesPercentage,votes,dicofre
União das freguesias de Canedo de Basto e Corgo,PPD/PSD.CDS-PP,39.12,151,030525
União das freguesias de Canedo de Basto e Corgo,PS,34.72,134,030525
União das freguesias de Canedo de Basto e Corgo,MPT,6.74,26,030525
União das freguesias de Canedo de Basto e Corgo,PCP-PEV,6.48,25,030525
União das freguesias de Canedo de Basto e Corgo,B.E.,2.59,10,030525
União das freguesias de Canedo de Basto e Corgo,L,2.33,9,030525
União das freguesias de Canedo de Basto e Corgo,PCTP/MRPP,2.07,8,030525
União das freguesias de Canedo de Basto e Corgo,PND,1.55,6,030525
União das freguesias de Canedo de Basto e Corgo,PAN,1.04,4,030525
União das freguesias de Canedo de Basto e Corgo,PPV,0.78,3,030525
União das freguesias de Canedo de Basto e Corgo,PTP,0.78,3,030525
União das freguesias de Canedo de Basto e Corgo,PNR,0.52,2,030525
União das freguesias de Canedo de Basto e Corgo,PPM,0.52,2,030525
União das freguesias de Canedo de Basto e Corgo,MAS,0.26,1,030525
União das freguesias de Canedo de Basto e Corgo,PDA,0.26,1,030525
União das freguesias de Canedo de Basto e Corgo,POUS,0.26,1,030525
