freguesia,acronym,validVotesPercentage,votes,dicofre
"União das freguesias de Espírito Santo, Nossa Senhora da Graça e São Simão",PS,44.34,454,121212
"União das freguesias de Espírito Santo, Nossa Senhora da Graça e São Simão",PPD/PSD.CDS-PP,21.19,217,121212
"União das freguesias de Espírito Santo, Nossa Senhora da Graça e São Simão",PCP-PEV,19.73,202,121212
"União das freguesias de Espírito Santo, Nossa Senhora da Graça e São Simão",MPT,4.79,49,121212
"União das freguesias de Espírito Santo, Nossa Senhora da Graça e São Simão",B.E.,2.73,28,121212
"União das freguesias de Espírito Santo, Nossa Senhora da Graça e São Simão",PCTP/MRPP,2.05,21,121212
"União das freguesias de Espírito Santo, Nossa Senhora da Graça e São Simão",L,1.27,13,121212
"União das freguesias de Espírito Santo, Nossa Senhora da Graça e São Simão",PAN,1.17,12,121212
"União das freguesias de Espírito Santo, Nossa Senhora da Graça e São Simão",PNR,0.59,6,121212
"União das freguesias de Espírito Santo, Nossa Senhora da Graça e São Simão",MAS,0.49,5,121212
"União das freguesias de Espírito Santo, Nossa Senhora da Graça e São Simão",PND,0.39,4,121212
"União das freguesias de Espírito Santo, Nossa Senhora da Graça e São Simão",PPV,0.39,4,121212
"União das freguesias de Espírito Santo, Nossa Senhora da Graça e São Simão",PTP,0.39,4,121212
"União das freguesias de Espírito Santo, Nossa Senhora da Graça e São Simão",PDA,0.29,3,121212
"União das freguesias de Espírito Santo, Nossa Senhora da Graça e São Simão",PPM,0.2,2,121212
"União das freguesias de Espírito Santo, Nossa Senhora da Graça e São Simão",POUS,0,0,121212
