freguesia,acronym,validVotesPercentage,votes,dicofre
União das freguesias de Vilar de Besteiros e Mosteiro de Fráguas,PPD/PSD.CDS-PP,50.73,243,182133
União das freguesias de Vilar de Besteiros e Mosteiro de Fráguas,PS,26.3,126,182133
União das freguesias de Vilar de Besteiros e Mosteiro de Fráguas,MPT,9.39,45,182133
União das freguesias de Vilar de Besteiros e Mosteiro de Fráguas,PCP-PEV,3.34,16,182133
União das freguesias de Vilar de Besteiros e Mosteiro de Fráguas,B.E.,2.09,10,182133
União das freguesias de Vilar de Besteiros e Mosteiro de Fráguas,L,1.88,9,182133
União das freguesias de Vilar de Besteiros e Mosteiro de Fráguas,PCTP/MRPP,1.46,7,182133
União das freguesias de Vilar de Besteiros e Mosteiro de Fráguas,PAN,1.04,5,182133
União das freguesias de Vilar de Besteiros e Mosteiro de Fráguas,PND,0.84,4,182133
União das freguesias de Vilar de Besteiros e Mosteiro de Fráguas,PNR,0.84,4,182133
União das freguesias de Vilar de Besteiros e Mosteiro de Fráguas,PPV,0.84,4,182133
União das freguesias de Vilar de Besteiros e Mosteiro de Fráguas,PPM,0.63,3,182133
União das freguesias de Vilar de Besteiros e Mosteiro de Fráguas,MAS,0.21,1,182133
União das freguesias de Vilar de Besteiros e Mosteiro de Fráguas,PDA,0.21,1,182133
União das freguesias de Vilar de Besteiros e Mosteiro de Fráguas,PTP,0.21,1,182133
União das freguesias de Vilar de Besteiros e Mosteiro de Fráguas,POUS,0,0,182133
