freguesia,acronym,validVotesPercentage,votes,dicofre
"União das freguesias de Braga (Maximinos, Sé e Cividade)",PS,32.31,1523,030364
"União das freguesias de Braga (Maximinos, Sé e Cividade)",PPD/PSD.CDS-PP,28.26,1332,030364
"União das freguesias de Braga (Maximinos, Sé e Cividade)",PCP-PEV,15.02,708,030364
"União das freguesias de Braga (Maximinos, Sé e Cividade)",MPT,9.48,447,030364
"União das freguesias de Braga (Maximinos, Sé e Cividade)",B.E.,5.05,238,030364
"União das freguesias de Braga (Maximinos, Sé e Cividade)",L,2.5,118,030364
"União das freguesias de Braga (Maximinos, Sé e Cividade)",PCTP/MRPP,2.4,113,030364
"União das freguesias de Braga (Maximinos, Sé e Cividade)",PAN,1.7,80,030364
"União das freguesias de Braga (Maximinos, Sé e Cividade)",PND,0.62,29,030364
"União das freguesias de Braga (Maximinos, Sé e Cividade)",PPV,0.62,29,030364
"União das freguesias de Braga (Maximinos, Sé e Cividade)",PTP,0.62,29,030364
"União das freguesias de Braga (Maximinos, Sé e Cividade)",PPM,0.45,21,030364
"União das freguesias de Braga (Maximinos, Sé e Cividade)",MAS,0.42,20,030364
"União das freguesias de Braga (Maximinos, Sé e Cividade)",PNR,0.38,18,030364
"União das freguesias de Braga (Maximinos, Sé e Cividade)",PDA,0.11,5,030364
"União das freguesias de Braga (Maximinos, Sé e Cividade)",POUS,0.08,4,030364
