freguesia,acronym,validVotesPercentage,votes,dicofre
União das freguesias de Serra e Junceira,PPD/PSD.CDS-PP,53.97,360,141820
União das freguesias de Serra e Junceira,PS,22.04,147,141820
União das freguesias de Serra e Junceira,MPT,8.55,57,141820
União das freguesias de Serra e Junceira,PCP-PEV,3.9,26,141820
União das freguesias de Serra e Junceira,B.E.,2.25,15,141820
União das freguesias de Serra e Junceira,PAN,2.1,14,141820
União das freguesias de Serra e Junceira,L,1.65,11,141820
União das freguesias de Serra e Junceira,PNR,1.2,8,141820
União das freguesias de Serra e Junceira,PND,1.05,7,141820
União das freguesias de Serra e Junceira,PCTP/MRPP,0.9,6,141820
União das freguesias de Serra e Junceira,PTP,0.9,6,141820
União das freguesias de Serra e Junceira,PPM,0.6,4,141820
União das freguesias de Serra e Junceira,MAS,0.3,2,141820
União das freguesias de Serra e Junceira,PPV,0.3,2,141820
União das freguesias de Serra e Junceira,PDA,0.15,1,141820
União das freguesias de Serra e Junceira,POUS,0.15,1,141820
