freguesia,acronym,validVotesPercentage,votes,dicofre
União das freguesias de Avantos e Romeu,PPD/PSD.CDS-PP,63.49,80,040738
União das freguesias de Avantos e Romeu,PS,20.63,26,040738
União das freguesias de Avantos e Romeu,B.E.,3.97,5,040738
União das freguesias de Avantos e Romeu,MPT,3.17,4,040738
União das freguesias de Avantos e Romeu,PCP-PEV,3.17,4,040738
União das freguesias de Avantos e Romeu,PPV,3.17,4,040738
União das freguesias de Avantos e Romeu,L,0.79,1,040738
União das freguesias de Avantos e Romeu,PAN,0.79,1,040738
União das freguesias de Avantos e Romeu,PCTP/MRPP,0.79,1,040738
União das freguesias de Avantos e Romeu,MAS,0,0,040738
União das freguesias de Avantos e Romeu,PDA,0,0,040738
União das freguesias de Avantos e Romeu,PND,0,0,040738
União das freguesias de Avantos e Romeu,PNR,0,0,040738
União das freguesias de Avantos e Romeu,POUS,0,0,040738
União das freguesias de Avantos e Romeu,PPM,0,0,040738
União das freguesias de Avantos e Romeu,PTP,0,0,040738
