freguesia,acronym,validVotesPercentage,votes,dicofre
União das freguesias de Reriz e Gafanhão,PS,58.8,127,180327
União das freguesias de Reriz e Gafanhão,PPD/PSD.CDS-PP,26.39,57,180327
União das freguesias de Reriz e Gafanhão,PCP-PEV,5.09,11,180327
União das freguesias de Reriz e Gafanhão,MPT,3.24,7,180327
União das freguesias de Reriz e Gafanhão,B.E.,1.85,4,180327
União das freguesias de Reriz e Gafanhão,PAN,0.93,2,180327
União das freguesias de Reriz e Gafanhão,PND,0.93,2,180327
União das freguesias de Reriz e Gafanhão,PNR,0.93,2,180327
União das freguesias de Reriz e Gafanhão,PCTP/MRPP,0.46,1,180327
União das freguesias de Reriz e Gafanhão,PDA,0.46,1,180327
União das freguesias de Reriz e Gafanhão,PPM,0.46,1,180327
União das freguesias de Reriz e Gafanhão,PPV,0.46,1,180327
União das freguesias de Reriz e Gafanhão,L,0,0,180327
União das freguesias de Reriz e Gafanhão,MAS,0,0,180327
União das freguesias de Reriz e Gafanhão,POUS,0,0,180327
União das freguesias de Reriz e Gafanhão,PTP,0,0,180327
