freguesia,acronym,validVotesPercentage,votes,dicofre
União das freguesias de Santo Estêvão e Moita,PS,51.16,66,091146
União das freguesias de Santo Estêvão e Moita,PPD/PSD.CDS-PP,24.81,32,091146
União das freguesias de Santo Estêvão e Moita,PCP-PEV,7.75,10,091146
União das freguesias de Santo Estêvão e Moita,PCTP/MRPP,5.43,7,091146
União das freguesias de Santo Estêvão e Moita,PND,4.65,6,091146
União das freguesias de Santo Estêvão e Moita,MPT,3.88,5,091146
União das freguesias de Santo Estêvão e Moita,L,0.78,1,091146
União das freguesias de Santo Estêvão e Moita,PAN,0.78,1,091146
União das freguesias de Santo Estêvão e Moita,PNR,0.78,1,091146
União das freguesias de Santo Estêvão e Moita,B.E.,0,0,091146
União das freguesias de Santo Estêvão e Moita,MAS,0,0,091146
União das freguesias de Santo Estêvão e Moita,PDA,0,0,091146
União das freguesias de Santo Estêvão e Moita,POUS,0,0,091146
União das freguesias de Santo Estêvão e Moita,PPM,0,0,091146
União das freguesias de Santo Estêvão e Moita,PPV,0,0,091146
União das freguesias de Santo Estêvão e Moita,PTP,0,0,091146
