freguesia,acronym,validVotesPercentage,votes,dicofre
União das freguesias de Póvoa de Santo Adrião e Olival de Basto,PS,38.33,2184,111609
União das freguesias de Póvoa de Santo Adrião e Olival de Basto,PPD/PSD.CDS-PP,22.18,1264,111609
União das freguesias de Póvoa de Santo Adrião e Olival de Basto,PCP-PEV,17.39,991,111609
União das freguesias de Póvoa de Santo Adrião e Olival de Basto,MPT,6.37,363,111609
União das freguesias de Póvoa de Santo Adrião e Olival de Basto,B.E.,5.76,328,111609
União das freguesias de Póvoa de Santo Adrião e Olival de Basto,L,2.19,125,111609
União das freguesias de Póvoa de Santo Adrião e Olival de Basto,PAN,2.07,118,111609
União das freguesias de Póvoa de Santo Adrião e Olival de Basto,PCTP/MRPP,2.02,115,111609
União das freguesias de Póvoa de Santo Adrião e Olival de Basto,PNR,0.82,47,111609
União das freguesias de Póvoa de Santo Adrião e Olival de Basto,PTP,0.7,40,111609
União das freguesias de Póvoa de Santo Adrião e Olival de Basto,PND,0.67,38,111609
União das freguesias de Póvoa de Santo Adrião e Olival de Basto,PPM,0.51,29,111609
União das freguesias de Póvoa de Santo Adrião e Olival de Basto,MAS,0.42,24,111609
União das freguesias de Póvoa de Santo Adrião e Olival de Basto,PPV,0.32,18,111609
União das freguesias de Póvoa de Santo Adrião e Olival de Basto,PDA,0.14,8,111609
União das freguesias de Póvoa de Santo Adrião e Olival de Basto,POUS,0.11,6,111609
