freguesia,acronym,validVotesPercentage,votes,dicofre
"União das freguesias de Vale de Mendiz, Casal de Loivos e Vilarinho de Cotas",PS,42.99,92,170123
"União das freguesias de Vale de Mendiz, Casal de Loivos e Vilarinho de Cotas",PPD/PSD.CDS-PP,37.38,80,170123
"União das freguesias de Vale de Mendiz, Casal de Loivos e Vilarinho de Cotas",PCP-PEV,7.01,15,170123
"União das freguesias de Vale de Mendiz, Casal de Loivos e Vilarinho de Cotas",MPT,4.21,9,170123
"União das freguesias de Vale de Mendiz, Casal de Loivos e Vilarinho de Cotas",PCTP/MRPP,2.8,6,170123
"União das freguesias de Vale de Mendiz, Casal de Loivos e Vilarinho de Cotas",B.E.,2.34,5,170123
"União das freguesias de Vale de Mendiz, Casal de Loivos e Vilarinho de Cotas",PTP,1.4,3,170123
"União das freguesias de Vale de Mendiz, Casal de Loivos e Vilarinho de Cotas",PAN,0.93,2,170123
"União das freguesias de Vale de Mendiz, Casal de Loivos e Vilarinho de Cotas",L,0.47,1,170123
"União das freguesias de Vale de Mendiz, Casal de Loivos e Vilarinho de Cotas",MAS,0.47,1,170123
"União das freguesias de Vale de Mendiz, Casal de Loivos e Vilarinho de Cotas",PDA,0,0,170123
"União das freguesias de Vale de Mendiz, Casal de Loivos e Vilarinho de Cotas",PND,0,0,170123
"União das freguesias de Vale de Mendiz, Casal de Loivos e Vilarinho de Cotas",PNR,0,0,170123
"União das freguesias de Vale de Mendiz, Casal de Loivos e Vilarinho de Cotas",POUS,0,0,170123
"União das freguesias de Vale de Mendiz, Casal de Loivos e Vilarinho de Cotas",PPM,0,0,170123
"União das freguesias de Vale de Mendiz, Casal de Loivos e Vilarinho de Cotas",PPV,0,0,170123
