freguesia,acronym,validVotesPercentage,votes,dicofre
União das freguesias de Colmeias e Memória,PPD/PSD.CDS-PP,63.46,672,100932
União das freguesias de Colmeias e Memória,PS,18.13,192,100932
União das freguesias de Colmeias e Memória,MPT,7.18,76,100932
União das freguesias de Colmeias e Memória,PCP-PEV,2.55,27,100932
União das freguesias de Colmeias e Memória,B.E.,2.36,25,100932
União das freguesias de Colmeias e Memória,L,1.13,12,100932
União das freguesias de Colmeias e Memória,PAN,1.04,11,100932
União das freguesias de Colmeias e Memória,PND,0.94,10,100932
União das freguesias de Colmeias e Memória,PCTP/MRPP,0.85,9,100932
União das freguesias de Colmeias e Memória,PPV,0.66,7,100932
União das freguesias de Colmeias e Memória,MAS,0.47,5,100932
União das freguesias de Colmeias e Memória,PTP,0.47,5,100932
União das freguesias de Colmeias e Memória,PPM,0.38,4,100932
União das freguesias de Colmeias e Memória,PNR,0.28,3,100932
União das freguesias de Colmeias e Memória,PDA,0.09,1,100932
União das freguesias de Colmeias e Memória,POUS,0,0,100932
