freguesia,acronym,validVotesPercentage,votes,dicofre
União das freguesias de Travancas e Roriz,PS,44,88,170360
União das freguesias de Travancas e Roriz,PPD/PSD.CDS-PP,39.5,79,170360
União das freguesias de Travancas e Roriz,PCP-PEV,5,10,170360
União das freguesias de Travancas e Roriz,B.E.,2.5,5,170360
União das freguesias de Travancas e Roriz,MAS,2,4,170360
União das freguesias de Travancas e Roriz,PCTP/MRPP,2,4,170360
União das freguesias de Travancas e Roriz,L,1,2,170360
União das freguesias de Travancas e Roriz,MPT,1,2,170360
União das freguesias de Travancas e Roriz,PAN,1,2,170360
União das freguesias de Travancas e Roriz,PTP,1,2,170360
União das freguesias de Travancas e Roriz,PND,0.5,1,170360
União das freguesias de Travancas e Roriz,PPM,0.5,1,170360
União das freguesias de Travancas e Roriz,PDA,0,0,170360
União das freguesias de Travancas e Roriz,PNR,0,0,170360
União das freguesias de Travancas e Roriz,POUS,0,0,170360
União das freguesias de Travancas e Roriz,PPV,0,0,170360
