freguesia,acronym,validVotesPercentage,votes,dicofre
União das freguesias de Monte e Queimadela,PPD/PSD.CDS-PP,42.2,230,030743
União das freguesias de Monte e Queimadela,PS,32.84,179,030743
União das freguesias de Monte e Queimadela,B.E.,5.32,29,030743
União das freguesias de Monte e Queimadela,MPT,4.22,23,030743
União das freguesias de Monte e Queimadela,PPM,3.3,18,030743
União das freguesias de Monte e Queimadela,PCP-PEV,2.57,14,030743
União das freguesias de Monte e Queimadela,PAN,2.2,12,030743
União das freguesias de Monte e Queimadela,PTP,1.65,9,030743
União das freguesias de Monte e Queimadela,PCTP/MRPP,1.47,8,030743
União das freguesias de Monte e Queimadela,PND,1.28,7,030743
União das freguesias de Monte e Queimadela,L,1.1,6,030743
União das freguesias de Monte e Queimadela,MAS,0.73,4,030743
União das freguesias de Monte e Queimadela,PPV,0.55,3,030743
União das freguesias de Monte e Queimadela,PNR,0.37,2,030743
União das freguesias de Monte e Queimadela,PDA,0.18,1,030743
União das freguesias de Monte e Queimadela,POUS,0,0,030743
