freguesia,acronym,validVotesPercentage,votes,dicofre
União das freguesias de Monsanto e Idanha-a-Velha,PS,68.95,191,050520
União das freguesias de Monsanto e Idanha-a-Velha,PPD/PSD.CDS-PP,16.25,45,050520
União das freguesias de Monsanto e Idanha-a-Velha,PCP-PEV,3.97,11,050520
União das freguesias de Monsanto e Idanha-a-Velha,B.E.,2.17,6,050520
União das freguesias de Monsanto e Idanha-a-Velha,MAS,1.44,4,050520
União das freguesias de Monsanto e Idanha-a-Velha,PCTP/MRPP,1.44,4,050520
União das freguesias de Monsanto e Idanha-a-Velha,PTP,1.44,4,050520
União das freguesias de Monsanto e Idanha-a-Velha,MPT,1.08,3,050520
União das freguesias de Monsanto e Idanha-a-Velha,PND,1.08,3,050520
União das freguesias de Monsanto e Idanha-a-Velha,L,0.72,2,050520
União das freguesias de Monsanto e Idanha-a-Velha,PPM,0.72,2,050520
União das freguesias de Monsanto e Idanha-a-Velha,PNR,0.36,1,050520
União das freguesias de Monsanto e Idanha-a-Velha,PPV,0.36,1,050520
União das freguesias de Monsanto e Idanha-a-Velha,PAN,0,0,050520
União das freguesias de Monsanto e Idanha-a-Velha,PDA,0,0,050520
União das freguesias de Monsanto e Idanha-a-Velha,POUS,0,0,050520
