freguesia,acronym,validVotesPercentage,votes,dicofre
"União das freguesias de Ruvina, Ruivós e Vale das Éguas",PPD/PSD.CDS-PP,58.54,72,091144
"União das freguesias de Ruvina, Ruivós e Vale das Éguas",PS,24.39,30,091144
"União das freguesias de Ruvina, Ruivós e Vale das Éguas",B.E.,4.88,6,091144
"União das freguesias de Ruvina, Ruivós e Vale das Éguas",MPT,4.07,5,091144
"União das freguesias de Ruvina, Ruivós e Vale das Éguas",PTP,2.44,3,091144
"União das freguesias de Ruvina, Ruivós e Vale das Éguas",L,1.63,2,091144
"União das freguesias de Ruvina, Ruivós e Vale das Éguas",MAS,1.63,2,091144
"União das freguesias de Ruvina, Ruivós e Vale das Éguas",PCP-PEV,1.63,2,091144
"União das freguesias de Ruvina, Ruivós e Vale das Éguas",PAN,0.81,1,091144
"União das freguesias de Ruvina, Ruivós e Vale das Éguas",PCTP/MRPP,0,0,091144
"União das freguesias de Ruvina, Ruivós e Vale das Éguas",PDA,0,0,091144
"União das freguesias de Ruvina, Ruivós e Vale das Éguas",PND,0,0,091144
"União das freguesias de Ruvina, Ruivós e Vale das Éguas",PNR,0,0,091144
"União das freguesias de Ruvina, Ruivós e Vale das Éguas",POUS,0,0,091144
"União das freguesias de Ruvina, Ruivós e Vale das Éguas",PPM,0,0,091144
"União das freguesias de Ruvina, Ruivós e Vale das Éguas",PPV,0,0,091144
