freguesia,acronym,validVotesPercentage,votes,dicofre
União das freguesias de Sequeade e Bastuço (São João e Santo Estevão),PS,39.38,228,0302FD
União das freguesias de Sequeade e Bastuço (São João e Santo Estevão),PPD/PSD.CDS-PP,36.44,211,0302FD
União das freguesias de Sequeade e Bastuço (São João e Santo Estevão),MPT,8.81,51,0302FD
União das freguesias de Sequeade e Bastuço (São João e Santo Estevão),PCP-PEV,4.84,28,0302FD
União das freguesias de Sequeade e Bastuço (São João e Santo Estevão),B.E.,2.59,15,0302FD
União das freguesias de Sequeade e Bastuço (São João e Santo Estevão),PAN,1.73,10,0302FD
União das freguesias de Sequeade e Bastuço (São João e Santo Estevão),PCTP/MRPP,1.55,9,0302FD
União das freguesias de Sequeade e Bastuço (São João e Santo Estevão),PND,1.04,6,0302FD
União das freguesias de Sequeade e Bastuço (São João e Santo Estevão),L,0.86,5,0302FD
União das freguesias de Sequeade e Bastuço (São João e Santo Estevão),PPM,0.86,5,0302FD
União das freguesias de Sequeade e Bastuço (São João e Santo Estevão),MAS,0.52,3,0302FD
União das freguesias de Sequeade e Bastuço (São João e Santo Estevão),PNR,0.52,3,0302FD
União das freguesias de Sequeade e Bastuço (São João e Santo Estevão),PTP,0.52,3,0302FD
União das freguesias de Sequeade e Bastuço (São João e Santo Estevão),POUS,0.35,2,0302FD
União das freguesias de Sequeade e Bastuço (São João e Santo Estevão),PDA,0,0,0302FD
União das freguesias de Sequeade e Bastuço (São João e Santo Estevão),PPV,0,0,0302FD
