freguesia,acronym,validVotesPercentage,votes,dicofre
União das freguesias de Loivos e Póvoa de Agrações,PPD/PSD.CDS-PP,60.49,124,170357
União das freguesias de Loivos e Póvoa de Agrações,PS,29.76,61,170357
União das freguesias de Loivos e Póvoa de Agrações,PCP-PEV,2.44,5,170357
União das freguesias de Loivos e Póvoa de Agrações,PND,1.95,4,170357
União das freguesias de Loivos e Póvoa de Agrações,PPM,1.95,4,170357
União das freguesias de Loivos e Póvoa de Agrações,B.E.,0.98,2,170357
União das freguesias de Loivos e Póvoa de Agrações,MAS,0.49,1,170357
União das freguesias de Loivos e Póvoa de Agrações,MPT,0.49,1,170357
União das freguesias de Loivos e Póvoa de Agrações,PAN,0.49,1,170357
União das freguesias de Loivos e Póvoa de Agrações,PCTP/MRPP,0.49,1,170357
União das freguesias de Loivos e Póvoa de Agrações,PTP,0.49,1,170357
União das freguesias de Loivos e Póvoa de Agrações,L,0,0,170357
União das freguesias de Loivos e Póvoa de Agrações,PDA,0,0,170357
União das freguesias de Loivos e Póvoa de Agrações,PNR,0,0,170357
União das freguesias de Loivos e Póvoa de Agrações,POUS,0,0,170357
União das freguesias de Loivos e Póvoa de Agrações,PPV,0,0,170357
