freguesia,acronym,validVotesPercentage,votes,dicofre
União das freguesias de Tagilde e Vizela (São Paio),PS,46.2,322,031409
União das freguesias de Tagilde e Vizela (São Paio),PPD/PSD.CDS-PP,26.11,182,031409
União das freguesias de Tagilde e Vizela (São Paio),PCP-PEV,8.03,56,031409
União das freguesias de Tagilde e Vizela (São Paio),MPT,7.89,55,031409
União das freguesias de Tagilde e Vizela (São Paio),B.E.,5.88,41,031409
União das freguesias de Tagilde e Vizela (São Paio),L,1,7,031409
União das freguesias de Tagilde e Vizela (São Paio),PPV,1,7,031409
União das freguesias de Tagilde e Vizela (São Paio),PCTP/MRPP,0.86,6,031409
União das freguesias de Tagilde e Vizela (São Paio),PND,0.72,5,031409
União das freguesias de Tagilde e Vizela (São Paio),PPM,0.72,5,031409
União das freguesias de Tagilde e Vizela (São Paio),PAN,0.57,4,031409
União das freguesias de Tagilde e Vizela (São Paio),PTP,0.57,4,031409
União das freguesias de Tagilde e Vizela (São Paio),MAS,0.14,1,031409
União das freguesias de Tagilde e Vizela (São Paio),PDA,0.14,1,031409
União das freguesias de Tagilde e Vizela (São Paio),PNR,0.14,1,031409
União das freguesias de Tagilde e Vizela (São Paio),POUS,0,0,031409
