freguesia,acronym,validVotesPercentage,votes,dicofre
União das freguesias de Aldeias e Mangualde da Serra,PS,40.57,71,090623
União das freguesias de Aldeias e Mangualde da Serra,PPD/PSD.CDS-PP,38.86,68,090623
União das freguesias de Aldeias e Mangualde da Serra,PCP-PEV,9.71,17,090623
União das freguesias de Aldeias e Mangualde da Serra,MPT,2.86,5,090623
União das freguesias de Aldeias e Mangualde da Serra,B.E.,2.29,4,090623
União das freguesias de Aldeias e Mangualde da Serra,PCTP/MRPP,1.14,2,090623
União das freguesias de Aldeias e Mangualde da Serra,PND,1.14,2,090623
União das freguesias de Aldeias e Mangualde da Serra,L,0.57,1,090623
União das freguesias de Aldeias e Mangualde da Serra,PAN,0.57,1,090623
União das freguesias de Aldeias e Mangualde da Serra,PDA,0.57,1,090623
União das freguesias de Aldeias e Mangualde da Serra,PNR,0.57,1,090623
União das freguesias de Aldeias e Mangualde da Serra,PPM,0.57,1,090623
União das freguesias de Aldeias e Mangualde da Serra,PPV,0.57,1,090623
União das freguesias de Aldeias e Mangualde da Serra,MAS,0,0,090623
União das freguesias de Aldeias e Mangualde da Serra,POUS,0,0,090623
União das freguesias de Aldeias e Mangualde da Serra,PTP,0,0,090623
