freguesia,acronym,validVotesPercentage,votes,dicofre
União das freguesias de Cepos e Teixeira,PS,48.57,51,060119
União das freguesias de Cepos e Teixeira,PPD/PSD.CDS-PP,36.19,38,060119
União das freguesias de Cepos e Teixeira,MPT,4.76,5,060119
União das freguesias de Cepos e Teixeira,PCTP/MRPP,2.86,3,060119
União das freguesias de Cepos e Teixeira,PND,2.86,3,060119
União das freguesias de Cepos e Teixeira,B.E.,1.9,2,060119
União das freguesias de Cepos e Teixeira,PCP-PEV,1.9,2,060119
União das freguesias de Cepos e Teixeira,PAN,0.95,1,060119
União das freguesias de Cepos e Teixeira,L,0,0,060119
União das freguesias de Cepos e Teixeira,MAS,0,0,060119
União das freguesias de Cepos e Teixeira,PDA,0,0,060119
União das freguesias de Cepos e Teixeira,PNR,0,0,060119
União das freguesias de Cepos e Teixeira,POUS,0,0,060119
União das freguesias de Cepos e Teixeira,PPM,0,0,060119
União das freguesias de Cepos e Teixeira,PPV,0,0,060119
União das freguesias de Cepos e Teixeira,PTP,0,0,060119
