freguesia,acronym,validVotesPercentage,votes,dicofre
"União das freguesias de Esqueiros, Nevogilde e Travassós",PPD/PSD.CDS-PP,60.36,204,031363
"União das freguesias de Esqueiros, Nevogilde e Travassós",PS,23.67,80,031363
"União das freguesias de Esqueiros, Nevogilde e Travassós",MPT,4.14,14,031363
"União das freguesias de Esqueiros, Nevogilde e Travassós",PCP-PEV,3.25,11,031363
"União das freguesias de Esqueiros, Nevogilde e Travassós",PCTP/MRPP,1.48,5,031363
"União das freguesias de Esqueiros, Nevogilde e Travassós",B.E.,1.18,4,031363
"União das freguesias de Esqueiros, Nevogilde e Travassós",PAN,1.18,4,031363
"União das freguesias de Esqueiros, Nevogilde e Travassós",PND,1.18,4,031363
"União das freguesias de Esqueiros, Nevogilde e Travassós",PPM,1.18,4,031363
"União das freguesias de Esqueiros, Nevogilde e Travassós",L,0.89,3,031363
"União das freguesias de Esqueiros, Nevogilde e Travassós",PTP,0.89,3,031363
"União das freguesias de Esqueiros, Nevogilde e Travassós",MAS,0.3,1,031363
"União das freguesias de Esqueiros, Nevogilde e Travassós",PNR,0.3,1,031363
"União das freguesias de Esqueiros, Nevogilde e Travassós",PDA,0,0,031363
"União das freguesias de Esqueiros, Nevogilde e Travassós",POUS,0,0,031363
"União das freguesias de Esqueiros, Nevogilde e Travassós",PPV,0,0,031363
