freguesia,acronym,validVotesPercentage,votes,dicofre
"União das freguesias de Entre Ambos-os-Rios, Ermida e Germil",PS,47.53,106,160627
"União das freguesias de Entre Ambos-os-Rios, Ermida e Germil",PPD/PSD.CDS-PP,35.87,80,160627
"União das freguesias de Entre Ambos-os-Rios, Ermida e Germil",MPT,6.73,15,160627
"União das freguesias de Entre Ambos-os-Rios, Ermida e Germil",PCP-PEV,4.48,10,160627
"União das freguesias de Entre Ambos-os-Rios, Ermida e Germil",B.E.,1.79,4,160627
"União das freguesias de Entre Ambos-os-Rios, Ermida e Germil",PCTP/MRPP,1.35,3,160627
"União das freguesias de Entre Ambos-os-Rios, Ermida e Germil",PPM,1.35,3,160627
"União das freguesias de Entre Ambos-os-Rios, Ermida e Germil",L,0.45,1,160627
"União das freguesias de Entre Ambos-os-Rios, Ermida e Germil",PDA,0.45,1,160627
"União das freguesias de Entre Ambos-os-Rios, Ermida e Germil",MAS,0,0,160627
"União das freguesias de Entre Ambos-os-Rios, Ermida e Germil",PAN,0,0,160627
"União das freguesias de Entre Ambos-os-Rios, Ermida e Germil",PND,0,0,160627
"União das freguesias de Entre Ambos-os-Rios, Ermida e Germil",PNR,0,0,160627
"União das freguesias de Entre Ambos-os-Rios, Ermida e Germil",POUS,0,0,160627
"União das freguesias de Entre Ambos-os-Rios, Ermida e Germil",PPV,0,0,160627
"União das freguesias de Entre Ambos-os-Rios, Ermida e Germil",PTP,0,0,160627
