freguesia,acronym,validVotesPercentage,votes,dicofre
União das freguesias de Ribeira de Pena (Salvador) e Santo Aleixo de Além-Tâmega,PS,46.11,379,170909
União das freguesias de Ribeira de Pena (Salvador) e Santo Aleixo de Além-Tâmega,PPD/PSD.CDS-PP,37.96,312,170909
União das freguesias de Ribeira de Pena (Salvador) e Santo Aleixo de Além-Tâmega,MPT,7.42,61,170909
União das freguesias de Ribeira de Pena (Salvador) e Santo Aleixo de Além-Tâmega,PCP-PEV,2.55,21,170909
União das freguesias de Ribeira de Pena (Salvador) e Santo Aleixo de Além-Tâmega,PND,1.22,10,170909
União das freguesias de Ribeira de Pena (Salvador) e Santo Aleixo de Além-Tâmega,L,0.85,7,170909
União das freguesias de Ribeira de Pena (Salvador) e Santo Aleixo de Além-Tâmega,B.E.,0.73,6,170909
União das freguesias de Ribeira de Pena (Salvador) e Santo Aleixo de Além-Tâmega,PCTP/MRPP,0.73,6,170909
União das freguesias de Ribeira de Pena (Salvador) e Santo Aleixo de Além-Tâmega,PTP,0.61,5,170909
União das freguesias de Ribeira de Pena (Salvador) e Santo Aleixo de Além-Tâmega,MAS,0.49,4,170909
União das freguesias de Ribeira de Pena (Salvador) e Santo Aleixo de Além-Tâmega,PAN,0.36,3,170909
União das freguesias de Ribeira de Pena (Salvador) e Santo Aleixo de Além-Tâmega,PPM,0.36,3,170909
União das freguesias de Ribeira de Pena (Salvador) e Santo Aleixo de Além-Tâmega,POUS,0.24,2,170909
União das freguesias de Ribeira de Pena (Salvador) e Santo Aleixo de Além-Tâmega,PPV,0.24,2,170909
União das freguesias de Ribeira de Pena (Salvador) e Santo Aleixo de Além-Tâmega,PNR,0.12,1,170909
União das freguesias de Ribeira de Pena (Salvador) e Santo Aleixo de Além-Tâmega,PDA,0,0,170909
