freguesia,acronym,validVotesPercentage,votes,dicofre
"União das freguesias de Évora (São Mamede, Sé, São Pedro e Santo Antão)",PPD/PSD.CDS-PP,30.36,561,070523
"União das freguesias de Évora (São Mamede, Sé, São Pedro e Santo Antão)",PS,28.63,529,070523
"União das freguesias de Évora (São Mamede, Sé, São Pedro e Santo Antão)",PCP-PEV,22.46,415,070523
"União das freguesias de Évora (São Mamede, Sé, São Pedro e Santo Antão)",B.E.,5.47,101,070523
"União das freguesias de Évora (São Mamede, Sé, São Pedro e Santo Antão)",MPT,4.49,83,070523
"União das freguesias de Évora (São Mamede, Sé, São Pedro e Santo Antão)",L,2.54,47,070523
"União das freguesias de Évora (São Mamede, Sé, São Pedro e Santo Antão)",PCTP/MRPP,2.27,42,070523
"União das freguesias de Évora (São Mamede, Sé, São Pedro e Santo Antão)",PAN,1.41,26,070523
"União das freguesias de Évora (São Mamede, Sé, São Pedro e Santo Antão)",PNR,0.6,11,070523
"União das freguesias de Évora (São Mamede, Sé, São Pedro e Santo Antão)",PPM,0.6,11,070523
"União das freguesias de Évora (São Mamede, Sé, São Pedro e Santo Antão)",PND,0.38,7,070523
"União das freguesias de Évora (São Mamede, Sé, São Pedro e Santo Antão)",PPV,0.38,7,070523
"União das freguesias de Évora (São Mamede, Sé, São Pedro e Santo Antão)",PTP,0.16,3,070523
"União das freguesias de Évora (São Mamede, Sé, São Pedro e Santo Antão)",PDA,0.11,2,070523
"União das freguesias de Évora (São Mamede, Sé, São Pedro e Santo Antão)",POUS,0.11,2,070523
"União das freguesias de Évora (São Mamede, Sé, São Pedro e Santo Antão)",MAS,0.05,1,070523
