freguesia,acronym,validVotesPercentage,votes,dicofre
União das freguesias de Baião (Santa Leocádia) e Mesquinhata,PS,68.16,182,130222
União das freguesias de Baião (Santa Leocádia) e Mesquinhata,PPD/PSD.CDS-PP,21.72,58,130222
União das freguesias de Baião (Santa Leocádia) e Mesquinhata,MPT,3.37,9,130222
União das freguesias de Baião (Santa Leocádia) e Mesquinhata,B.E.,1.12,3,130222
União das freguesias de Baião (Santa Leocádia) e Mesquinhata,PND,1.12,3,130222
União das freguesias de Baião (Santa Leocádia) e Mesquinhata,PTP,1.12,3,130222
União das freguesias de Baião (Santa Leocádia) e Mesquinhata,MAS,0.75,2,130222
União das freguesias de Baião (Santa Leocádia) e Mesquinhata,PCTP/MRPP,0.75,2,130222
União das freguesias de Baião (Santa Leocádia) e Mesquinhata,PDA,0.75,2,130222
União das freguesias de Baião (Santa Leocádia) e Mesquinhata,L,0.37,1,130222
União das freguesias de Baião (Santa Leocádia) e Mesquinhata,PAN,0.37,1,130222
União das freguesias de Baião (Santa Leocádia) e Mesquinhata,PCP-PEV,0.37,1,130222
União das freguesias de Baião (Santa Leocádia) e Mesquinhata,PNR,0,0,130222
União das freguesias de Baião (Santa Leocádia) e Mesquinhata,POUS,0,0,130222
União das freguesias de Baião (Santa Leocádia) e Mesquinhata,PPM,0,0,130222
União das freguesias de Baião (Santa Leocádia) e Mesquinhata,PPV,0,0,130222
