freguesia,acronym,validVotesPercentage,votes,dicofre
"União das freguesias de Pico de Regalados, Gondiães e Mós",PPD/PSD.CDS-PP,48.66,273,031366
"União das freguesias de Pico de Regalados, Gondiães e Mós",PS,26.92,151,031366
"União das freguesias de Pico de Regalados, Gondiães e Mós",MPT,11.05,62,031366
"União das freguesias de Pico de Regalados, Gondiães e Mós",PCP-PEV,3.92,22,031366
"União das freguesias de Pico de Regalados, Gondiães e Mós",B.E.,2.67,15,031366
"União das freguesias de Pico de Regalados, Gondiães e Mós",L,1.43,8,031366
"União das freguesias de Pico de Regalados, Gondiães e Mós",PND,1.43,8,031366
"União das freguesias de Pico de Regalados, Gondiães e Mós",PCTP/MRPP,1.07,6,031366
"União das freguesias de Pico de Regalados, Gondiães e Mós",PTP,0.89,5,031366
"União das freguesias de Pico de Regalados, Gondiães e Mós",PAN,0.71,4,031366
"União das freguesias de Pico de Regalados, Gondiães e Mós",PPM,0.53,3,031366
"União das freguesias de Pico de Regalados, Gondiães e Mós",MAS,0.36,2,031366
"União das freguesias de Pico de Regalados, Gondiães e Mós",PNR,0.18,1,031366
"União das freguesias de Pico de Regalados, Gondiães e Mós",PPV,0.18,1,031366
"União das freguesias de Pico de Regalados, Gondiães e Mós",PDA,0,0,031366
"União das freguesias de Pico de Regalados, Gondiães e Mós",POUS,0,0,031366
