freguesia,acronym,validVotesPercentage,votes,dicofre
União das freguesias de Santa Clara e Castelo Viegas,PS,30.6,1088,060336
União das freguesias de Santa Clara e Castelo Viegas,PPD/PSD.CDS-PP,25.87,920,060336
União das freguesias de Santa Clara e Castelo Viegas,PCP-PEV,14.48,515,060336
União das freguesias de Santa Clara e Castelo Viegas,MPT,11.9,423,060336
União das freguesias de Santa Clara e Castelo Viegas,B.E.,8.04,286,060336
União das freguesias de Santa Clara e Castelo Viegas,L,3.63,129,060336
União das freguesias de Santa Clara e Castelo Viegas,PAN,1.63,58,060336
União das freguesias de Santa Clara e Castelo Viegas,PCTP/MRPP,1.24,44,060336
União das freguesias de Santa Clara e Castelo Viegas,PNR,0.59,21,060336
União das freguesias de Santa Clara e Castelo Viegas,PND,0.45,16,060336
União das freguesias de Santa Clara e Castelo Viegas,MAS,0.42,15,060336
União das freguesias de Santa Clara e Castelo Viegas,PPM,0.39,14,060336
União das freguesias de Santa Clara e Castelo Viegas,PPV,0.28,10,060336
União das freguesias de Santa Clara e Castelo Viegas,PTP,0.25,9,060336
União das freguesias de Santa Clara e Castelo Viegas,PDA,0.17,6,060336
União das freguesias de Santa Clara e Castelo Viegas,POUS,0.06,2,060336
