freguesia,acronym,validVotesPercentage,votes,dicofre
União das freguesias de Lomar e Arcos,PS,34.74,666,030373
União das freguesias de Lomar e Arcos,PPD/PSD.CDS-PP,31.4,602,030373
União das freguesias de Lomar e Arcos,PCP-PEV,12.62,242,030373
União das freguesias de Lomar e Arcos,MPT,8.71,167,030373
União das freguesias de Lomar e Arcos,B.E.,4.69,90,030373
União das freguesias de Lomar e Arcos,PCTP/MRPP,1.98,38,030373
União das freguesias de Lomar e Arcos,L,1.62,31,030373
União das freguesias de Lomar e Arcos,PAN,1.04,20,030373
União das freguesias de Lomar e Arcos,PND,0.89,17,030373
União das freguesias de Lomar e Arcos,PNR,0.68,13,030373
União das freguesias de Lomar e Arcos,PPM,0.42,8,030373
União das freguesias de Lomar e Arcos,PTP,0.42,8,030373
União das freguesias de Lomar e Arcos,MAS,0.31,6,030373
União das freguesias de Lomar e Arcos,PDA,0.26,5,030373
União das freguesias de Lomar e Arcos,PPV,0.16,3,030373
União das freguesias de Lomar e Arcos,POUS,0.05,1,030373
