freguesia,acronym,validVotesPercentage,votes,dicofre
União das freguesias de Mafamude e Vilar do Paraíso,PS,33.27,5378,131727
União das freguesias de Mafamude e Vilar do Paraíso,PPD/PSD.CDS-PP,27.7,4478,131727
União das freguesias de Mafamude e Vilar do Paraíso,PCP-PEV,12.94,2092,131727
União das freguesias de Mafamude e Vilar do Paraíso,MPT,9.96,1611,131727
União das freguesias de Mafamude e Vilar do Paraíso,B.E.,6.85,1108,131727
União das freguesias de Mafamude e Vilar do Paraíso,L,2.64,427,131727
União das freguesias de Mafamude e Vilar do Paraíso,PAN,2.12,342,131727
União das freguesias de Mafamude e Vilar do Paraíso,PCTP/MRPP,1.66,268,131727
União das freguesias de Mafamude e Vilar do Paraíso,PNR,0.55,89,131727
União das freguesias de Mafamude e Vilar do Paraíso,PND,0.51,82,131727
União das freguesias de Mafamude e Vilar do Paraíso,PTP,0.49,80,131727
União das freguesias de Mafamude e Vilar do Paraíso,PPM,0.49,79,131727
União das freguesias de Mafamude e Vilar do Paraíso,MAS,0.34,55,131727
União das freguesias de Mafamude e Vilar do Paraíso,PPV,0.31,50,131727
União das freguesias de Mafamude e Vilar do Paraíso,PDA,0.11,18,131727
União das freguesias de Mafamude e Vilar do Paraíso,POUS,0.06,10,131727
