freguesia,acronym,validVotesPercentage,votes,dicofre
"União das freguesias de Aboadela, Sanche e Várzea",PPD/PSD.CDS-PP,43.13,229,130141
"União das freguesias de Aboadela, Sanche e Várzea",PS,33.71,179,130141
"União das freguesias de Aboadela, Sanche e Várzea",MPT,11.86,63,130141
"União das freguesias de Aboadela, Sanche e Várzea",B.E.,3.01,16,130141
"União das freguesias de Aboadela, Sanche e Várzea",PCP-PEV,2.64,14,130141
"União das freguesias de Aboadela, Sanche e Várzea",PND,1.51,8,130141
"União das freguesias de Aboadela, Sanche e Várzea",PPM,1.13,6,130141
"União das freguesias de Aboadela, Sanche e Várzea",L,0.75,4,130141
"União das freguesias de Aboadela, Sanche e Várzea",PAN,0.56,3,130141
"União das freguesias de Aboadela, Sanche e Várzea",PCTP/MRPP,0.56,3,130141
"União das freguesias de Aboadela, Sanche e Várzea",PTP,0.56,3,130141
"União das freguesias de Aboadela, Sanche e Várzea",MAS,0.38,2,130141
"União das freguesias de Aboadela, Sanche e Várzea",PNR,0.19,1,130141
"União das freguesias de Aboadela, Sanche e Várzea",PDA,0,0,130141
"União das freguesias de Aboadela, Sanche e Várzea",POUS,0,0,130141
"União das freguesias de Aboadela, Sanche e Várzea",PPV,0,0,130141
