freguesia,acronym,validVotesPercentage,votes,dicofre
União das freguesias de Areias de Vilar e Encourados,PPD/PSD.CDS-PP,47.34,285,030292
União das freguesias de Areias de Vilar e Encourados,PS,24.09,145,030292
União das freguesias de Areias de Vilar e Encourados,MPT,7.97,48,030292
União das freguesias de Areias de Vilar e Encourados,PCP-PEV,6.81,41,030292
União das freguesias de Areias de Vilar e Encourados,B.E.,3.82,23,030292
União das freguesias de Areias de Vilar e Encourados,PND,2.49,15,030292
União das freguesias de Areias de Vilar e Encourados,L,1.5,9,030292
União das freguesias de Areias de Vilar e Encourados,PAN,1.33,8,030292
União das freguesias de Areias de Vilar e Encourados,PCTP/MRPP,1.33,8,030292
União das freguesias de Areias de Vilar e Encourados,MAS,1,6,030292
União das freguesias de Areias de Vilar e Encourados,PTP,0.83,5,030292
União das freguesias de Areias de Vilar e Encourados,PDA,0.5,3,030292
União das freguesias de Areias de Vilar e Encourados,PNR,0.5,3,030292
União das freguesias de Areias de Vilar e Encourados,PPM,0.33,2,030292
União das freguesias de Areias de Vilar e Encourados,PPV,0.17,1,030292
União das freguesias de Areias de Vilar e Encourados,POUS,0,0,030292
