freguesia,acronym,validVotesPercentage,votes,dicofre
"União das freguesias de Soeira, Fresulfe e Mofreita",PS,50.65,39,041241
"União das freguesias de Soeira, Fresulfe e Mofreita",PPD/PSD.CDS-PP,31.17,24,041241
"União das freguesias de Soeira, Fresulfe e Mofreita",MPT,6.49,5,041241
"União das freguesias de Soeira, Fresulfe e Mofreita",PCP-PEV,3.9,3,041241
"União das freguesias de Soeira, Fresulfe e Mofreita",PCTP/MRPP,3.9,3,041241
"União das freguesias de Soeira, Fresulfe e Mofreita",B.E.,1.3,1,041241
"União das freguesias de Soeira, Fresulfe e Mofreita",PNR,1.3,1,041241
"União das freguesias de Soeira, Fresulfe e Mofreita",PTP,1.3,1,041241
"União das freguesias de Soeira, Fresulfe e Mofreita",L,0,0,041241
"União das freguesias de Soeira, Fresulfe e Mofreita",MAS,0,0,041241
"União das freguesias de Soeira, Fresulfe e Mofreita",PAN,0,0,041241
"União das freguesias de Soeira, Fresulfe e Mofreita",PDA,0,0,041241
"União das freguesias de Soeira, Fresulfe e Mofreita",PND,0,0,041241
"União das freguesias de Soeira, Fresulfe e Mofreita",POUS,0,0,041241
"União das freguesias de Soeira, Fresulfe e Mofreita",PPM,0,0,041241
"União das freguesias de Soeira, Fresulfe e Mofreita",PPV,0,0,041241
