freguesia,acronym,validVotesPercentage,votes,dicofre
União das freguesias de Ervedal e Vila Franca da Beira,PS,44.65,217,061122
União das freguesias de Ervedal e Vila Franca da Beira,PPD/PSD.CDS-PP,30.86,150,061122
União das freguesias de Ervedal e Vila Franca da Beira,PCP-PEV,14.61,71,061122
União das freguesias de Ervedal e Vila Franca da Beira,MPT,3.91,19,061122
União das freguesias de Ervedal e Vila Franca da Beira,B.E.,1.44,7,061122
União das freguesias de Ervedal e Vila Franca da Beira,PAN,1.44,7,061122
União das freguesias de Ervedal e Vila Franca da Beira,PCTP/MRPP,1.23,6,061122
União das freguesias de Ervedal e Vila Franca da Beira,PPV,0.62,3,061122
União das freguesias de Ervedal e Vila Franca da Beira,L,0.41,2,061122
União das freguesias de Ervedal e Vila Franca da Beira,PPM,0.41,2,061122
União das freguesias de Ervedal e Vila Franca da Beira,PDA,0.21,1,061122
União das freguesias de Ervedal e Vila Franca da Beira,PNR,0.21,1,061122
União das freguesias de Ervedal e Vila Franca da Beira,MAS,0,0,061122
União das freguesias de Ervedal e Vila Franca da Beira,PND,0,0,061122
União das freguesias de Ervedal e Vila Franca da Beira,POUS,0,0,061122
União das freguesias de Ervedal e Vila Franca da Beira,PTP,0,0,061122
