freguesia,acronym,validVotesPercentage,votes,dicofre
Vale de Santarém,PS,39.53,351,141625
Vale de Santarém,PCP-PEV,21.73,193,141625
Vale de Santarém,PPD/PSD.CDS-PP,16.33,145,141625
Vale de Santarém,MPT,7.66,68,141625
Vale de Santarém,B.E.,5.74,51,141625
Vale de Santarém,PCTP/MRPP,2.59,23,141625
Vale de Santarém,PAN,1.8,16,141625
Vale de Santarém,L,1.69,15,141625
Vale de Santarém,PND,0.68,6,141625
Vale de Santarém,MAS,0.45,4,141625
Vale de Santarém,PNR,0.45,4,141625
Vale de Santarém,PPV,0.45,4,141625
Vale de Santarém,PPM,0.34,3,141625
Vale de Santarém,PTP,0.34,3,141625
Vale de Santarém,PDA,0.11,1,141625
Vale de Santarém,POUS,0.11,1,141625
