freguesia,acronym,validVotesPercentage,votes,dicofre
Vale das Fontes,PS,48.62,53,041227
Vale das Fontes,PPD/PSD.CDS-PP,33.94,37,041227
Vale das Fontes,MPT,7.34,8,041227
Vale das Fontes,PCP-PEV,3.67,4,041227
Vale das Fontes,B.E.,0.92,1,041227
Vale das Fontes,MAS,0.92,1,041227
Vale das Fontes,PAN,0.92,1,041227
Vale das Fontes,PND,0.92,1,041227
Vale das Fontes,PNR,0.92,1,041227
Vale das Fontes,PPV,0.92,1,041227
Vale das Fontes,PTP,0.92,1,041227
Vale das Fontes,L,0,0,041227
Vale das Fontes,PCTP/MRPP,0,0,041227
Vale das Fontes,PDA,0,0,041227
Vale das Fontes,POUS,0,0,041227
Vale das Fontes,PPM,0,0,041227
