freguesia,acronym,validVotesPercentage,votes,dicofre
Valença do Douro,PS,52,52,181917
Valença do Douro,PPD/PSD.CDS-PP,24,24,181917
Valença do Douro,PCP-PEV,8,8,181917
Valença do Douro,B.E.,6,6,181917
Valença do Douro,MPT,4,4,181917
Valença do Douro,MAS,2,2,181917
Valença do Douro,PAN,2,2,181917
Valença do Douro,L,1,1,181917
Valença do Douro,PTP,1,1,181917
Valença do Douro,PCTP/MRPP,0,0,181917
Valença do Douro,PDA,0,0,181917
Valença do Douro,PND,0,0,181917
Valença do Douro,PNR,0,0,181917
Valença do Douro,POUS,0,0,181917
Valença do Douro,PPM,0,0,181917
Valença do Douro,PPV,0,0,181917
