freguesia,acronym,validVotesPercentage,votes,dicofre
Vassal,PPD/PSD.CDS-PP,68.13,124,171229
Vassal,PS,14.84,27,171229
Vassal,MPT,4.95,9,171229
Vassal,PCP-PEV,3.3,6,171229
Vassal,PAN,1.65,3,171229
Vassal,PCTP/MRPP,1.65,3,171229
Vassal,B.E.,1.1,2,171229
Vassal,PND,1.1,2,171229
Vassal,PPM,1.1,2,171229
Vassal,PPV,1.1,2,171229
Vassal,L,0.55,1,171229
Vassal,MAS,0.55,1,171229
Vassal,PDA,0,0,171229
Vassal,PNR,0,0,171229
Vassal,POUS,0,0,171229
Vassal,PTP,0,0,171229
