freguesia,acronym,validVotesPercentage,votes,dicofre
Vieira do Minho,PS,39.41,281,031120
Vieira do Minho,PPD/PSD.CDS-PP,38.29,273,031120
Vieira do Minho,PCP-PEV,7.85,56,031120
Vieira do Minho,B.E.,4.21,30,031120
Vieira do Minho,MPT,3.93,28,031120
Vieira do Minho,PCTP/MRPP,2.24,16,031120
Vieira do Minho,L,1.26,9,031120
Vieira do Minho,PAN,1.26,9,031120
Vieira do Minho,PND,0.56,4,031120
Vieira do Minho,PPM,0.42,3,031120
Vieira do Minho,PTP,0.28,2,031120
Vieira do Minho,PNR,0.14,1,031120
Vieira do Minho,POUS,0.14,1,031120
Vieira do Minho,MAS,0,0,031120
Vieira do Minho,PDA,0,0,031120
Vieira do Minho,PPV,0,0,031120
