freguesia,acronym,validVotesPercentage,votes,dicofre
Vila Chã de Braciosa,PPD/PSD.CDS-PP,54.05,60,040616
Vila Chã de Braciosa,PS,30.63,34,040616
Vila Chã de Braciosa,PCP-PEV,8.11,9,040616
Vila Chã de Braciosa,MPT,3.6,4,040616
Vila Chã de Braciosa,L,1.8,2,040616
Vila Chã de Braciosa,PAN,0.9,1,040616
Vila Chã de Braciosa,PPM,0.9,1,040616
Vila Chã de Braciosa,B.E.,0,0,040616
Vila Chã de Braciosa,MAS,0,0,040616
Vila Chã de Braciosa,PCTP/MRPP,0,0,040616
Vila Chã de Braciosa,PDA,0,0,040616
Vila Chã de Braciosa,PND,0,0,040616
Vila Chã de Braciosa,PNR,0,0,040616
Vila Chã de Braciosa,POUS,0,0,040616
Vila Chã de Braciosa,PPV,0,0,040616
Vila Chã de Braciosa,PTP,0,0,040616
