freguesia,acronym,validVotesPercentage,votes,dicofre
Évora de Alcobaça,PPD/PSD.CDS-PP,50.64,669,100108
Évora de Alcobaça,PS,29.14,385,100108
Évora de Alcobaça,MPT,5.75,76,100108
Évora de Alcobaça,PCP-PEV,4.77,63,100108
Évora de Alcobaça,B.E.,2.73,36,100108
Évora de Alcobaça,L,1.59,21,100108
Évora de Alcobaça,PAN,1.29,17,100108
Évora de Alcobaça,PND,1.06,14,100108
Évora de Alcobaça,PCTP/MRPP,0.98,13,100108
Évora de Alcobaça,PTP,0.45,6,100108
Évora de Alcobaça,MAS,0.38,5,100108
Évora de Alcobaça,PDA,0.38,5,100108
Évora de Alcobaça,PPM,0.3,4,100108
Évora de Alcobaça,PPV,0.23,3,100108
Évora de Alcobaça,PNR,0.15,2,100108
Évora de Alcobaça,POUS,0.15,2,100108
