freguesia,acronym,validVotesPercentage,votes,dicofre
Alagoa,PS,47.58,59,121401
Alagoa,PPD/PSD,24.19,30,121401
Alagoa,CDS-PP,13.71,17,121401
Alagoa,B.E.,7.26,9,121401
Alagoa,PCP-PEV,2.42,3,121401
Alagoa,PAN,1.61,2,121401
Alagoa,L,0.81,1,121401
Alagoa,PCTP/MRPP,0.81,1,121401
Alagoa,PPM.PPV/CDC,0.81,1,121401
Alagoa,PTP,0.81,1,121401
Alagoa,A,0,0,121401
Alagoa,IL,0,0,121401
Alagoa,MAS,0,0,121401
Alagoa,NC,0,0,121401
Alagoa,PDR,0,0,121401
Alagoa,PNR,0,0,121401
Alagoa,PURP,0,0,121401
