freguesia,acronym,validVotesPercentage,votes,dicofre
Alcaide,PS,48.42,92,050401
Alcaide,PPD/PSD,12.11,23,050401
Alcaide,B.E.,11.58,22,050401
Alcaide,PCP-PEV,11.58,22,050401
Alcaide,PAN,3.68,7,050401
Alcaide,L,2.63,5,050401
Alcaide,PPM.PPV/CDC,2.63,5,050401
Alcaide,CDS-PP,1.58,3,050401
Alcaide,PCTP/MRPP,1.58,3,050401
Alcaide,NC,1.05,2,050401
Alcaide,PURP,1.05,2,050401
Alcaide,A,0.53,1,050401
Alcaide,IL,0.53,1,050401
Alcaide,PDR,0.53,1,050401
Alcaide,PTP,0.53,1,050401
Alcaide,MAS,0,0,050401
Alcaide,PNR,0,0,050401
