freguesia,acronym,validVotesPercentage,votes,dicofre
Alcáçovas,PS,40.69,94,071301
Alcáçovas,PCP-PEV,31.17,72,071301
Alcáçovas,PPD/PSD,12.12,28,071301
Alcáçovas,B.E.,3.9,9,071301
Alcáçovas,CDS-PP,3.03,7,071301
Alcáçovas,PCTP/MRPP,2.16,5,071301
Alcáçovas,PAN,1.73,4,071301
Alcáçovas,PURP,1.73,4,071301
Alcáçovas,PDR,1.3,3,071301
Alcáçovas,PPM.PPV/CDC,0.87,2,071301
Alcáçovas,A,0.43,1,071301
Alcáçovas,L,0.43,1,071301
Alcáçovas,PNR,0.43,1,071301
Alcáçovas,IL,0,0,071301
Alcáçovas,MAS,0,0,071301
Alcáçovas,NC,0,0,071301
Alcáçovas,PTP,0,0,071301
