freguesia,acronym,validVotesPercentage,votes,dicofre
Alfaião,PPD/PSD,62.5,45,040201
Alfaião,PS,29.17,21,040201
Alfaião,CDS-PP,2.78,2,040201
Alfaião,PPM.PPV/CDC,2.78,2,040201
Alfaião,B.E.,1.39,1,040201
Alfaião,L,1.39,1,040201
Alfaião,A,0,0,040201
Alfaião,IL,0,0,040201
Alfaião,MAS,0,0,040201
Alfaião,NC,0,0,040201
Alfaião,PAN,0,0,040201
Alfaião,PCP-PEV,0,0,040201
Alfaião,PCTP/MRPP,0,0,040201
Alfaião,PDR,0,0,040201
Alfaião,PNR,0,0,040201
Alfaião,PTP,0,0,040201
Alfaião,PURP,0,0,040201
