freguesia,acronym,validVotesPercentage,votes,dicofre
Algodres,PS,48.91,45,090501
Algodres,PPD/PSD,32.61,30,090501
Algodres,B.E.,8.7,8,090501
Algodres,PDR,3.26,3,090501
Algodres,CDS-PP,2.17,2,090501
Algodres,PAN,2.17,2,090501
Algodres,PCP-PEV,2.17,2,090501
Algodres,A,0,0,090501
Algodres,IL,0,0,090501
Algodres,L,0,0,090501
Algodres,MAS,0,0,090501
Algodres,NC,0,0,090501
Algodres,PCTP/MRPP,0,0,090501
Algodres,PNR,0,0,090501
Algodres,PPM.PPV/CDC,0,0,090501
Algodres,PTP,0,0,090501
Algodres,PURP,0,0,090501
