freguesia,acronym,validVotesPercentage,votes,dicofre
Almancil,PS,40.83,661,080801
Almancil,PPD/PSD,23.53,381,080801
Almancil,B.E.,9.08,147,080801
Almancil,PAN,6.73,109,080801
Almancil,CDS-PP,5.56,90,080801
Almancil,PCP-PEV,4.32,70,080801
Almancil,PPM.PPV/CDC,2.04,33,080801
Almancil,A,1.54,25,080801
Almancil,L,1.11,18,080801
Almancil,NC,1.05,17,080801
Almancil,PCTP/MRPP,0.99,16,080801
Almancil,IL,0.8,13,080801
Almancil,PURP,0.68,11,080801
Almancil,PDR,0.62,10,080801
Almancil,PNR,0.49,8,080801
Almancil,PTP,0.49,8,080801
Almancil,MAS,0.12,2,080801
