freguesia,acronym,validVotesPercentage,votes,dicofre
Alvaiázere,PPD/PSD,40.93,219,100208
Alvaiázere,PS,23.36,125,100208
Alvaiázere,CDS-PP,14.58,78,100208
Alvaiázere,B.E.,6.73,36,100208
Alvaiázere,PPM.PPV/CDC,3.74,20,100208
Alvaiázere,PAN,3.55,19,100208
Alvaiázere,A,1.68,9,100208
Alvaiázere,L,1.31,7,100208
Alvaiázere,PCP-PEV,1.31,7,100208
Alvaiázere,NC,0.75,4,100208
Alvaiázere,PNR,0.56,3,100208
Alvaiázere,IL,0.37,2,100208
Alvaiázere,PCTP/MRPP,0.37,2,100208
Alvaiázere,PDR,0.37,2,100208
Alvaiázere,PTP,0.19,1,100208
Alvaiázere,PURP,0.19,1,100208
Alvaiázere,MAS,0,0,100208
