freguesia,acronym,validVotesPercentage,votes,dicofre
Alvalade,PCP-PEV,41.87,193,150902
Alvalade,PS,31.67,146,150902
Alvalade,PPD/PSD,7.38,34,150902
Alvalade,B.E.,6.51,30,150902
Alvalade,CDS-PP,3.25,15,150902
Alvalade,PAN,2.39,11,150902
Alvalade,PCTP/MRPP,2.39,11,150902
Alvalade,NC,1.3,6,150902
Alvalade,IL,0.87,4,150902
Alvalade,L,0.87,4,150902
Alvalade,PPM.PPV/CDC,0.65,3,150902
Alvalade,A,0.43,2,150902
Alvalade,PNR,0.22,1,150902
Alvalade,PTP,0.22,1,150902
Alvalade,MAS,0,0,150902
Alvalade,PDR,0,0,150902
Alvalade,PURP,0,0,150902
