freguesia,acronym,validVotesPercentage,votes,dicofre
Arazede,PS,42.28,501,061002
Arazede,PPD/PSD,26.75,317,061002
Arazede,B.E.,10.13,120,061002
Arazede,CDS-PP,4.81,57,061002
Arazede,PAN,3.8,45,061002
Arazede,PCP-PEV,3.38,40,061002
Arazede,A,1.77,21,061002
Arazede,PPM.PPV/CDC,1.6,19,061002
Arazede,L,1.01,12,061002
Arazede,PCTP/MRPP,0.84,10,061002
Arazede,PDR,0.76,9,061002
Arazede,PNR,0.68,8,061002
Arazede,IL,0.51,6,061002
Arazede,NC,0.51,6,061002
Arazede,PTP,0.51,6,061002
Arazede,PURP,0.42,5,061002
Arazede,MAS,0.25,3,061002
