freguesia,acronym,validVotesPercentage,votes,dicofre
Arco da Calheta,PPD/PSD,59.85,790,310101
Arco da Calheta,PS,13.94,184,310101
Arco da Calheta,CDS-PP,10,132,310101
Arco da Calheta,B.E.,4.02,53,310101
Arco da Calheta,PAN,3.26,43,310101
Arco da Calheta,PTP,1.59,21,310101
Arco da Calheta,PPM.PPV/CDC,1.29,17,310101
Arco da Calheta,PCTP/MRPP,0.98,13,310101
Arco da Calheta,PCP-PEV,0.91,12,310101
Arco da Calheta,PURP,0.91,12,310101
Arco da Calheta,NC,0.68,9,310101
Arco da Calheta,A,0.61,8,310101
Arco da Calheta,L,0.53,7,310101
Arco da Calheta,IL,0.45,6,310101
Arco da Calheta,PDR,0.45,6,310101
Arco da Calheta,PNR,0.38,5,310101
Arco da Calheta,MAS,0.15,2,310101
