freguesia,acronym,validVotesPercentage,votes,dicofre
Armil,PS,50,146,030705
Armil,PPD/PSD,20.89,61,030705
Armil,B.E.,7.53,22,030705
Armil,PCP-PEV,5.14,15,030705
Armil,PAN,4.11,12,030705
Armil,CDS-PP,3.08,9,030705
Armil,L,2.05,6,030705
Armil,PCTP/MRPP,2.05,6,030705
Armil,MAS,1.03,3,030705
Armil,PDR,1.03,3,030705
Armil,A,0.68,2,030705
Armil,PPM.PPV/CDC,0.68,2,030705
Armil,PURP,0.68,2,030705
Armil,IL,0.34,1,030705
Armil,NC,0.34,1,030705
Armil,PNR,0.34,1,030705
Armil,PTP,0,0,030705
