freguesia,acronym,validVotesPercentage,votes,dicofre
Arnas,PPD/PSD,57.14,52,181801
Arnas,PS,16.48,15,181801
Arnas,B.E.,10.99,10,181801
Arnas,CDS-PP,4.4,4,181801
Arnas,PAN,4.4,4,181801
Arnas,PURP,2.2,2,181801
Arnas,A,1.1,1,181801
Arnas,L,1.1,1,181801
Arnas,PCTP/MRPP,1.1,1,181801
Arnas,PPM.PPV/CDC,1.1,1,181801
Arnas,IL,0,0,181801
Arnas,MAS,0,0,181801
Arnas,NC,0,0,181801
Arnas,PCP-PEV,0,0,181801
Arnas,PDR,0,0,181801
Arnas,PNR,0,0,181801
Arnas,PTP,0,0,181801
