freguesia,acronym,validVotesPercentage,votes,dicofre
Arrabal,PPD/PSD,39.55,348,100902
Arrabal,PS,21.48,189,100902
Arrabal,CDS-PP,12.27,108,100902
Arrabal,B.E.,10.45,92,100902
Arrabal,PAN,4.55,40,100902
Arrabal,A,2.39,21,100902
Arrabal,PCP-PEV,2.16,19,100902
Arrabal,L,1.93,17,100902
Arrabal,PPM.PPV/CDC,1.82,16,100902
Arrabal,NC,0.8,7,100902
Arrabal,PCTP/MRPP,0.8,7,100902
Arrabal,PDR,0.68,6,100902
Arrabal,IL,0.57,5,100902
Arrabal,PNR,0.34,3,100902
Arrabal,MAS,0.11,1,100902
Arrabal,PTP,0.11,1,100902
Arrabal,PURP,0,0,100902
