freguesia,acronym,validVotesPercentage,votes,dicofre
Arões (Santa Cristina),PS,60.82,236,030726
Arões (Santa Cristina),PPD/PSD,19.85,77,030726
Arões (Santa Cristina),B.E.,6.44,25,030726
Arões (Santa Cristina),CDS-PP,3.35,13,030726
Arões (Santa Cristina),PCP-PEV,2.06,8,030726
Arões (Santa Cristina),A,1.8,7,030726
Arões (Santa Cristina),PAN,1.8,7,030726
Arões (Santa Cristina),PDR,1.29,5,030726
Arões (Santa Cristina),PCTP/MRPP,0.77,3,030726
Arões (Santa Cristina),PPM.PPV/CDC,0.52,2,030726
Arões (Santa Cristina),PURP,0.52,2,030726
Arões (Santa Cristina),IL,0.26,1,030726
Arões (Santa Cristina),L,0.26,1,030726
Arões (Santa Cristina),NC,0.26,1,030726
Arões (Santa Cristina),MAS,0,0,030726
Arões (Santa Cristina),PNR,0,0,030726
Arões (Santa Cristina),PTP,0,0,030726
