freguesia,acronym,validVotesPercentage,votes,dicofre
Azinhaga,PS,45.26,186,141201
Azinhaga,PCP-PEV,23.6,97,141201
Azinhaga,B.E.,8.76,36,141201
Azinhaga,PPD/PSD,8.27,34,141201
Azinhaga,CDS-PP,6.57,27,141201
Azinhaga,PCTP/MRPP,2.43,10,141201
Azinhaga,PAN,1.7,7,141201
Azinhaga,A,0.73,3,141201
Azinhaga,NC,0.73,3,141201
Azinhaga,L,0.49,2,141201
Azinhaga,PNR,0.49,2,141201
Azinhaga,PPM.PPV/CDC,0.49,2,141201
Azinhaga,IL,0.24,1,141201
Azinhaga,PURP,0.24,1,141201
Azinhaga,MAS,0,0,141201
Azinhaga,PDR,0,0,141201
Azinhaga,PTP,0,0,141201
