freguesia,acronym,validVotesPercentage,votes,dicofre
Balugães,PPD/PSD,42.09,125,030212
Balugães,PS,29.29,87,030212
Balugães,B.E.,8.42,25,030212
Balugães,CDS-PP,7.41,22,030212
Balugães,PAN,5.05,15,030212
Balugães,PCP-PEV,2.02,6,030212
Balugães,IL,1.35,4,030212
Balugães,A,1.01,3,030212
Balugães,PDR,1.01,3,030212
Balugães,L,0.34,1,030212
Balugães,MAS,0.34,1,030212
Balugães,NC,0.34,1,030212
Balugães,PCTP/MRPP,0.34,1,030212
Balugães,PNR,0.34,1,030212
Balugães,PPM.PPV/CDC,0.34,1,030212
Balugães,PTP,0.34,1,030212
Balugães,PURP,0,0,030212
