freguesia,acronym,validVotesPercentage,votes,dicofre
Banho e Carvalhosa,PS,51.38,168,130704
Banho e Carvalhosa,PPD/PSD,18.35,60,130704
Banho e Carvalhosa,PCP-PEV,8.87,29,130704
Banho e Carvalhosa,CDS-PP,6.12,20,130704
Banho e Carvalhosa,B.E.,3.67,12,130704
Banho e Carvalhosa,PAN,2.45,8,130704
Banho e Carvalhosa,PDR,2.14,7,130704
Banho e Carvalhosa,PCTP/MRPP,1.83,6,130704
Banho e Carvalhosa,A,1.53,5,130704
Banho e Carvalhosa,PNR,1.22,4,130704
Banho e Carvalhosa,IL,0.61,2,130704
Banho e Carvalhosa,L,0.61,2,130704
Banho e Carvalhosa,PTP,0.61,2,130704
Banho e Carvalhosa,PPM.PPV/CDC,0.31,1,130704
Banho e Carvalhosa,PURP,0.31,1,130704
Banho e Carvalhosa,MAS,0,0,130704
Banho e Carvalhosa,NC,0,0,130704
