freguesia,acronym,validVotesPercentage,votes,dicofre
Barcouço,PS,47.07,233,011102
Barcouço,PPD/PSD,16.36,81,011102
Barcouço,B.E.,14.75,73,011102
Barcouço,PCP-PEV,6.87,34,011102
Barcouço,PAN,4.65,23,011102
Barcouço,CDS-PP,3.23,16,011102
Barcouço,PPM.PPV/CDC,2.02,10,011102
Barcouço,PDR,1.62,8,011102
Barcouço,A,0.81,4,011102
Barcouço,L,0.81,4,011102
Barcouço,NC,0.81,4,011102
Barcouço,PCTP/MRPP,0.61,3,011102
Barcouço,IL,0.2,1,011102
Barcouço,PURP,0.2,1,011102
Barcouço,MAS,0,0,011102
Barcouço,PNR,0,0,011102
Barcouço,PTP,0,0,011102
