freguesia,acronym,validVotesPercentage,votes,dicofre
Beirã,PS,57.01,61,121001
Beirã,PPD/PSD,19.63,21,121001
Beirã,B.E.,5.61,6,121001
Beirã,L,3.74,4,121001
Beirã,PCP-PEV,3.74,4,121001
Beirã,CDS-PP,1.87,2,121001
Beirã,PAN,1.87,2,121001
Beirã,PPM.PPV/CDC,1.87,2,121001
Beirã,A,0.93,1,121001
Beirã,NC,0.93,1,121001
Beirã,PDR,0.93,1,121001
Beirã,PTP,0.93,1,121001
Beirã,PURP,0.93,1,121001
Beirã,IL,0,0,121001
Beirã,MAS,0,0,121001
Beirã,PCTP/MRPP,0,0,121001
Beirã,PNR,0,0,121001
