freguesia,acronym,validVotesPercentage,votes,dicofre
Belém,PS,23.72,1712,110658
Belém,PPD/PSD,22.79,1645,110658
Belém,CDS-PP,17.21,1242,110658
Belém,B.E.,8.48,612,110658
Belém,PAN,5.5,397,110658
Belém,A,5.43,392,110658
Belém,PCP-PEV,5.27,380,110658
Belém,L,4.77,344,110658
Belém,IL,2.79,201,110658
Belém,PPM.PPV/CDC,1.61,116,110658
Belém,NC,1.14,82,110658
Belém,PNR,0.36,26,110658
Belém,PCTP/MRPP,0.3,22,110658
Belém,PDR,0.25,18,110658
Belém,PURP,0.22,16,110658
Belém,MAS,0.15,11,110658
Belém,PTP,0.01,1,110658
