freguesia,acronym,validVotesPercentage,votes,dicofre
Bem Viver,PS,35.74,287,130734
Bem Viver,PPD/PSD,34.5,277,130734
Bem Viver,PAN,7.35,59,130734
Bem Viver,B.E.,6.72,54,130734
Bem Viver,CDS-PP,6.35,51,130734
Bem Viver,PCP-PEV,1.87,15,130734
Bem Viver,PPM.PPV/CDC,1.74,14,130734
Bem Viver,PDR,1.25,10,130734
Bem Viver,L,1,8,130734
Bem Viver,A,0.87,7,130734
Bem Viver,IL,0.87,7,130734
Bem Viver,NC,0.5,4,130734
Bem Viver,PURP,0.5,4,130734
Bem Viver,PCTP/MRPP,0.37,3,130734
Bem Viver,PNR,0.25,2,130734
Bem Viver,PTP,0.12,1,130734
Bem Viver,MAS,0,0,130734
