freguesia,acronym,validVotesPercentage,votes,dicofre
Beça,PPD/PSD,82.21,439,170203
Beça,PS,12.36,66,170203
Beça,CDS-PP,1.87,10,170203
Beça,B.E.,0.75,4,170203
Beça,PAN,0.75,4,170203
Beça,A,0.56,3,170203
Beça,PDR,0.56,3,170203
Beça,PCP-PEV,0.37,2,170203
Beça,L,0.19,1,170203
Beça,NC,0.19,1,170203
Beça,PPM.PPV/CDC,0.19,1,170203
Beça,IL,0,0,170203
Beça,MAS,0,0,170203
Beça,PCTP/MRPP,0,0,170203
Beça,PNR,0,0,170203
Beça,PTP,0,0,170203
Beça,PURP,0,0,170203
