freguesia,acronym,validVotesPercentage,votes,dicofre
Bouçoães,PPD/PSD,64.08,91,171205
Bouçoães,PS,20.42,29,171205
Bouçoães,PAN,7.04,10,171205
Bouçoães,CDS-PP,2.82,4,171205
Bouçoães,A,1.41,2,171205
Bouçoães,PURP,1.41,2,171205
Bouçoães,B.E.,0.7,1,171205
Bouçoães,IL,0.7,1,171205
Bouçoães,L,0.7,1,171205
Bouçoães,PTP,0.7,1,171205
Bouçoães,MAS,0,0,171205
Bouçoães,NC,0,0,171205
Bouçoães,PCP-PEV,0,0,171205
Bouçoães,PCTP/MRPP,0,0,171205
Bouçoães,PDR,0,0,171205
Bouçoães,PNR,0,0,171205
Bouçoães,PPM.PPV/CDC,0,0,171205
