freguesia,acronym,validVotesPercentage,votes,dicofre
Britiande,PPD/PSD,40.66,98,180504
Britiande,PS,30.71,74,180504
Britiande,B.E.,7.88,19,180504
Britiande,CDS-PP,4.98,12,180504
Britiande,PAN,3.73,9,180504
Britiande,PCP-PEV,2.9,7,180504
Britiande,L,2.07,5,180504
Britiande,NC,1.66,4,180504
Britiande,PPM.PPV/CDC,1.66,4,180504
Britiande,PURP,1.24,3,180504
Britiande,PTP,0.83,2,180504
Britiande,A,0.41,1,180504
Britiande,IL,0.41,1,180504
Britiande,PCTP/MRPP,0.41,1,180504
Britiande,PDR,0.41,1,180504
Britiande,MAS,0,0,180504
Britiande,PNR,0,0,180504
