freguesia,acronym,validVotesPercentage,votes,dicofre
Calvelo,PPD/PSD,38.14,90,160714
Calvelo,PS,30.93,73,160714
Calvelo,CDS-PP,13.56,32,160714
Calvelo,PAN,3.81,9,160714
Calvelo,B.E.,2.97,7,160714
Calvelo,PCP-PEV,2.54,6,160714
Calvelo,A,1.27,3,160714
Calvelo,IL,1.27,3,160714
Calvelo,PDR,1.27,3,160714
Calvelo,PNR,1.27,3,160714
Calvelo,L,0.85,2,160714
Calvelo,NC,0.85,2,160714
Calvelo,PPM.PPV/CDC,0.85,2,160714
Calvelo,PCTP/MRPP,0.42,1,160714
Calvelo,MAS,0,0,160714
Calvelo,PTP,0,0,160714
Calvelo,PURP,0,0,160714
