freguesia,acronym,validVotesPercentage,votes,dicofre
Campo de Ourique,PS,27.83,2567,110659
Campo de Ourique,PPD/PSD,19.58,1806,110659
Campo de Ourique,CDS-PP,12.15,1121,110659
Campo de Ourique,B.E.,10.15,936,110659
Campo de Ourique,PAN,7.16,660,110659
Campo de Ourique,PCP-PEV,6.47,597,110659
Campo de Ourique,L,5.13,473,110659
Campo de Ourique,A,4.81,444,110659
Campo de Ourique,IL,2.61,241,110659
Campo de Ourique,PPM.PPV/CDC,1.36,125,110659
Campo de Ourique,NC,0.89,82,110659
Campo de Ourique,PCTP/MRPP,0.49,45,110659
Campo de Ourique,PURP,0.46,42,110659
Campo de Ourique,PNR,0.4,37,110659
Campo de Ourique,PDR,0.26,24,110659
Campo de Ourique,MAS,0.14,13,110659
Campo de Ourique,PTP,0.12,11,110659
