freguesia,acronym,validVotesPercentage,votes,dicofre
Campanário,PPD/PSD,54.14,895,310701
Campanário,PS,17.85,295,310701
Campanário,CDS-PP,6.84,113,310701
Campanário,B.E.,3.75,62,310701
Campanário,PAN,3.21,53,310701
Campanário,PURP,2.06,34,310701
Campanário,PCP-PEV,1.81,30,310701
Campanário,PPM.PPV/CDC,1.75,29,310701
Campanário,NC,1.51,25,310701
Campanário,A,1.33,22,310701
Campanário,L,1.33,22,310701
Campanário,PTP,1.03,17,310701
Campanário,PCTP/MRPP,0.97,16,310701
Campanário,IL,0.85,14,310701
Campanário,PDR,0.73,12,310701
Campanário,MAS,0.42,7,310701
Campanário,PNR,0.42,7,310701
