freguesia,acronym,validVotesPercentage,votes,dicofre
Canas de Santa Maria,PS,36.38,175,182103
Canas de Santa Maria,PPD/PSD,32.43,156,182103
Canas de Santa Maria,B.E.,9.98,48,182103
Canas de Santa Maria,CDS-PP,5.2,25,182103
Canas de Santa Maria,PAN,4.78,23,182103
Canas de Santa Maria,PCP-PEV,2.91,14,182103
Canas de Santa Maria,PPM.PPV/CDC,2.49,12,182103
Canas de Santa Maria,A,2.29,11,182103
Canas de Santa Maria,L,1.46,7,182103
Canas de Santa Maria,PURP,0.62,3,182103
Canas de Santa Maria,PCTP/MRPP,0.42,2,182103
Canas de Santa Maria,PDR,0.42,2,182103
Canas de Santa Maria,PTP,0.42,2,182103
Canas de Santa Maria,NC,0.21,1,182103
Canas de Santa Maria,IL,0,0,182103
Canas de Santa Maria,MAS,0,0,182103
Canas de Santa Maria,PNR,0,0,182103
