freguesia,acronym,validVotesPercentage,votes,dicofre
Canhas,PPD/PSD,52.12,702,310501
Canhas,PS,25.76,347,310501
Canhas,CDS-PP,7.5,101,310501
Canhas,PAN,2.75,37,310501
Canhas,B.E.,1.93,26,310501
Canhas,PURP,1.71,23,310501
Canhas,NC,0.97,13,310501
Canhas,PTP,0.97,13,310501
Canhas,A,0.89,12,310501
Canhas,L,0.89,12,310501
Canhas,PPM.PPV/CDC,0.89,12,310501
Canhas,PCP-PEV,0.82,11,310501
Canhas,PDR,0.82,11,310501
Canhas,PCTP/MRPP,0.74,10,310501
Canhas,MAS,0.45,6,310501
Canhas,PNR,0.45,6,310501
Canhas,IL,0.37,5,310501
