freguesia,acronym,validVotesPercentage,votes,dicofre
Canha,PS,49.22,158,150701
Canha,PPD/PSD,16.82,54,150701
Canha,PCP-PEV,12.15,39,150701
Canha,CDS-PP,8.1,26,150701
Canha,B.E.,6.23,20,150701
Canha,PAN,1.25,4,150701
Canha,PCTP/MRPP,1.25,4,150701
Canha,A,0.93,3,150701
Canha,L,0.93,3,150701
Canha,PNR,0.93,3,150701
Canha,IL,0.62,2,150701
Canha,NC,0.62,2,150701
Canha,PPM.PPV/CDC,0.31,1,150701
Canha,PTP,0.31,1,150701
Canha,PURP,0.31,1,150701
Canha,MAS,0,0,150701
Canha,PDR,0,0,150701
