freguesia,acronym,validVotesPercentage,votes,dicofre
Carapinha,PPD/PSD,38.94,44,061603
Carapinha,PS,26.55,30,061603
Carapinha,CDS-PP,13.27,15,061603
Carapinha,B.E.,7.96,9,061603
Carapinha,A,1.77,2,061603
Carapinha,IL,1.77,2,061603
Carapinha,L,1.77,2,061603
Carapinha,PAN,1.77,2,061603
Carapinha,PCP-PEV,1.77,2,061603
Carapinha,PTP,1.77,2,061603
Carapinha,PURP,1.77,2,061603
Carapinha,PNR,0.88,1,061603
Carapinha,MAS,0,0,061603
Carapinha,NC,0,0,061603
Carapinha,PCTP/MRPP,0,0,061603
Carapinha,PDR,0,0,061603
Carapinha,PPM.PPV/CDC,0,0,061603
