freguesia,acronym,validVotesPercentage,votes,dicofre
Carnota,PS,44.01,213,110106
Carnota,PPD/PSD,17.15,83,110106
Carnota,PCP-PEV,12.6,61,110106
Carnota,B.E.,7.23,35,110106
Carnota,CDS-PP,4.34,21,110106
Carnota,PAN,3.93,19,110106
Carnota,PCTP/MRPP,1.86,9,110106
Carnota,PPM.PPV/CDC,1.86,9,110106
Carnota,A,1.24,6,110106
Carnota,PDR,1.24,6,110106
Carnota,NC,1.03,5,110106
Carnota,PNR,1.03,5,110106
Carnota,IL,0.83,4,110106
Carnota,L,0.62,3,110106
Carnota,PTP,0.62,3,110106
Carnota,PURP,0.41,2,110106
Carnota,MAS,0,0,110106
