freguesia,acronym,validVotesPercentage,votes,dicofre
Castanheiro do Sul,PPD/PSD,39.72,56,181501
Castanheiro do Sul,PS,39.01,55,181501
Castanheiro do Sul,B.E.,7.8,11,181501
Castanheiro do Sul,CDS-PP,5.67,8,181501
Castanheiro do Sul,PCP-PEV,2.84,4,181501
Castanheiro do Sul,PPM.PPV/CDC,1.42,2,181501
Castanheiro do Sul,A,0.71,1,181501
Castanheiro do Sul,L,0.71,1,181501
Castanheiro do Sul,MAS,0.71,1,181501
Castanheiro do Sul,NC,0.71,1,181501
Castanheiro do Sul,PAN,0.71,1,181501
Castanheiro do Sul,IL,0,0,181501
Castanheiro do Sul,PCTP/MRPP,0,0,181501
Castanheiro do Sul,PDR,0,0,181501
Castanheiro do Sul,PNR,0,0,181501
Castanheiro do Sul,PTP,0,0,181501
Castanheiro do Sul,PURP,0,0,181501
