freguesia,acronym,validVotesPercentage,votes,dicofre
Cavadoude,PS,50.63,40,090713
Cavadoude,PPD/PSD,29.11,23,090713
Cavadoude,PAN,7.59,6,090713
Cavadoude,B.E.,5.06,4,090713
Cavadoude,PCP-PEV,2.53,2,090713
Cavadoude,A,1.27,1,090713
Cavadoude,CDS-PP,1.27,1,090713
Cavadoude,NC,1.27,1,090713
Cavadoude,PPM.PPV/CDC,1.27,1,090713
Cavadoude,IL,0,0,090713
Cavadoude,L,0,0,090713
Cavadoude,MAS,0,0,090713
Cavadoude,PCTP/MRPP,0,0,090713
Cavadoude,PDR,0,0,090713
Cavadoude,PNR,0,0,090713
Cavadoude,PTP,0,0,090713
Cavadoude,PURP,0,0,090713
