freguesia,acronym,validVotesPercentage,votes,dicofre
Chãos,PPD/PSD,42.86,66,141104
Chãos,PS,31.82,49,141104
Chãos,CDS-PP,11.69,18,141104
Chãos,B.E.,5.84,9,141104
Chãos,PAN,2.6,4,141104
Chãos,A,1.95,3,141104
Chãos,PCP-PEV,1.3,2,141104
Chãos,IL,0.65,1,141104
Chãos,NC,0.65,1,141104
Chãos,PURP,0.65,1,141104
Chãos,L,0,0,141104
Chãos,MAS,0,0,141104
Chãos,PCTP/MRPP,0,0,141104
Chãos,PDR,0,0,141104
Chãos,PNR,0,0,141104
Chãos,PPM.PPV/CDC,0,0,141104
Chãos,PTP,0,0,141104
