freguesia,acronym,validVotesPercentage,votes,dicofre
Codesseiro,PPD/PSD,41.3,38,090714
Codesseiro,PS,27.17,25,090714
Codesseiro,B.E.,13.04,12,090714
Codesseiro,A,6.52,6,090714
Codesseiro,CDS-PP,5.43,5,090714
Codesseiro,PTP,2.17,2,090714
Codesseiro,L,1.09,1,090714
Codesseiro,PCP-PEV,1.09,1,090714
Codesseiro,PCTP/MRPP,1.09,1,090714
Codesseiro,PPM.PPV/CDC,1.09,1,090714
Codesseiro,IL,0,0,090714
Codesseiro,MAS,0,0,090714
Codesseiro,NC,0,0,090714
Codesseiro,PAN,0,0,090714
Codesseiro,PDR,0,0,090714
Codesseiro,PNR,0,0,090714
Codesseiro,PURP,0,0,090714
