freguesia,acronym,validVotesPercentage,votes,dicofre
Costa,PPD/PSD,27.79,475,030812
Costa,PS,25.92,443,030812
Costa,B.E.,12.76,218,030812
Costa,CDS-PP,11.88,203,030812
Costa,PAN,5.27,90,030812
Costa,PCP-PEV,3.69,63,030812
Costa,A,2.98,51,030812
Costa,IL,2.52,43,030812
Costa,L,2.11,36,030812
Costa,NC,1.87,32,030812
Costa,PPM.PPV/CDC,1.05,18,030812
Costa,PCTP/MRPP,0.64,11,030812
Costa,PDR,0.59,10,030812
Costa,MAS,0.41,7,030812
Costa,PNR,0.23,4,030812
Costa,PURP,0.18,3,030812
Costa,PTP,0.12,2,030812
