freguesia,acronym,validVotesPercentage,votes,dicofre
Encosta do Sol,PS,42.82,3397,111514
Encosta do Sol,PPD/PSD,12.66,1004,111514
Encosta do Sol,B.E.,11.19,888,111514
Encosta do Sol,PCP-PEV,10.46,830,111514
Encosta do Sol,PAN,6.14,487,111514
Encosta do Sol,CDS-PP,4.41,350,111514
Encosta do Sol,L,2.63,209,111514
Encosta do Sol,PPM.PPV/CDC,2.4,190,111514
Encosta do Sol,A,2.22,176,111514
Encosta do Sol,NC,1.21,96,111514
Encosta do Sol,PCTP/MRPP,1.15,91,111514
Encosta do Sol,PNR,0.68,54,111514
Encosta do Sol,IL,0.53,42,111514
Encosta do Sol,PURP,0.52,41,111514
Encosta do Sol,PDR,0.39,31,111514
Encosta do Sol,MAS,0.32,25,111514
Encosta do Sol,PTP,0.28,22,111514
