freguesia,acronym,validVotesPercentage,votes,dicofre
Entradas,PCP-PEV,47.34,98,020603
Entradas,PS,31.4,65,020603
Entradas,PPD/PSD,6.28,13,020603
Entradas,B.E.,3.86,8,020603
Entradas,CDS-PP,3.38,7,020603
Entradas,PCTP/MRPP,3.38,7,020603
Entradas,PPM.PPV/CDC,1.93,4,020603
Entradas,PAN,0.97,2,020603
Entradas,IL,0.48,1,020603
Entradas,L,0.48,1,020603
Entradas,PDR,0.48,1,020603
Entradas,A,0,0,020603
Entradas,MAS,0,0,020603
Entradas,NC,0,0,020603
Entradas,PNR,0,0,020603
Entradas,PTP,0,0,020603
Entradas,PURP,0,0,020603
