freguesia,acronym,validVotesPercentage,votes,dicofre
Erada,PS,55.07,125,050310
Erada,PPD/PSD,14.1,32,050310
Erada,B.E.,12.33,28,050310
Erada,CDS-PP,6.61,15,050310
Erada,PCP-PEV,2.2,5,050310
Erada,PURP,2.2,5,050310
Erada,A,1.32,3,050310
Erada,PCTP/MRPP,1.32,3,050310
Erada,PDR,1.32,3,050310
Erada,MAS,0.88,2,050310
Erada,PAN,0.88,2,050310
Erada,PNR,0.88,2,050310
Erada,L,0.44,1,050310
Erada,PPM.PPV/CDC,0.44,1,050310
Erada,IL,0,0,050310
Erada,NC,0,0,050310
Erada,PTP,0,0,050310
