freguesia,acronym,validVotesPercentage,votes,dicofre
Ermidas-Sado,PS,36.62,197,150904
Ermidas-Sado,PCP-PEV,26.39,142,150904
Ermidas-Sado,B.E.,14.31,77,150904
Ermidas-Sado,PPD/PSD,13.75,74,150904
Ermidas-Sado,CDS-PP,2.6,14,150904
Ermidas-Sado,PCTP/MRPP,1.86,10,150904
Ermidas-Sado,PAN,1.67,9,150904
Ermidas-Sado,L,0.56,3,150904
Ermidas-Sado,NC,0.56,3,150904
Ermidas-Sado,A,0.37,2,150904
Ermidas-Sado,PNR,0.37,2,150904
Ermidas-Sado,PPM.PPV/CDC,0.37,2,150904
Ermidas-Sado,MAS,0.19,1,150904
Ermidas-Sado,PTP,0.19,1,150904
Ermidas-Sado,PURP,0.19,1,150904
Ermidas-Sado,IL,0,0,150904
Ermidas-Sado,PDR,0,0,150904
