freguesia,acronym,validVotesPercentage,votes,dicofre
Fafe,PS,40.09,2035,030709
Fafe,PPD/PSD,25.3,1284,030709
Fafe,B.E.,11.37,577,030709
Fafe,CDS-PP,5.44,276,030709
Fafe,PCP-PEV,4.85,246,030709
Fafe,PAN,4.47,227,030709
Fafe,A,1.58,80,030709
Fafe,L,1.5,76,030709
Fafe,PPM.PPV/CDC,1.3,66,030709
Fafe,NC,1.06,54,030709
Fafe,PCTP/MRPP,0.75,38,030709
Fafe,IL,0.63,32,030709
Fafe,PDR,0.55,28,030709
Fafe,PNR,0.39,20,030709
Fafe,PURP,0.37,19,030709
Fafe,MAS,0.18,9,030709
Fafe,PTP,0.18,9,030709
