freguesia,acronym,validVotesPercentage,votes,dicofre
Faial da Terra,PS,51.02,25,420402
Faial da Terra,PPD/PSD,34.69,17,420402
Faial da Terra,CDS-PP,6.12,3,420402
Faial da Terra,A,2.04,1,420402
Faial da Terra,B.E.,2.04,1,420402
Faial da Terra,PCP-PEV,2.04,1,420402
Faial da Terra,PDR,2.04,1,420402
Faial da Terra,IL,0,0,420402
Faial da Terra,L,0,0,420402
Faial da Terra,MAS,0,0,420402
Faial da Terra,NC,0,0,420402
Faial da Terra,PAN,0,0,420402
Faial da Terra,PCTP/MRPP,0,0,420402
Faial da Terra,PNR,0,0,420402
Faial da Terra,PPM.PPV/CDC,0,0,420402
Faial da Terra,PTP,0,0,420402
Faial da Terra,PURP,0,0,420402
