freguesia,acronym,validVotesPercentage,votes,dicofre
Fajãzinha,PS,38.71,12,480102
Fajãzinha,PCP-PEV,22.58,7,480102
Fajãzinha,PPD/PSD,19.35,6,480102
Fajãzinha,L,9.68,3,480102
Fajãzinha,B.E.,3.23,1,480102
Fajãzinha,PAN,3.23,1,480102
Fajãzinha,PDR,3.23,1,480102
Fajãzinha,A,0,0,480102
Fajãzinha,CDS-PP,0,0,480102
Fajãzinha,IL,0,0,480102
Fajãzinha,MAS,0,0,480102
Fajãzinha,NC,0,0,480102
Fajãzinha,PCTP/MRPP,0,0,480102
Fajãzinha,PNR,0,0,480102
Fajãzinha,PPM.PPV/CDC,0,0,480102
Fajãzinha,PTP,0,0,480102
Fajãzinha,PURP,0,0,480102
