freguesia,acronym,validVotesPercentage,votes,dicofre
Faro do Alentejo,PCP-PEV,44.32,78,020702
Faro do Alentejo,PS,42.61,75,020702
Faro do Alentejo,PPM.PPV/CDC,3.41,6,020702
Faro do Alentejo,PCTP/MRPP,2.84,5,020702
Faro do Alentejo,CDS-PP,1.7,3,020702
Faro do Alentejo,PPD/PSD,1.7,3,020702
Faro do Alentejo,B.E.,1.14,2,020702
Faro do Alentejo,PNR,1.14,2,020702
Faro do Alentejo,PAN,0.57,1,020702
Faro do Alentejo,PDR,0.57,1,020702
Faro do Alentejo,A,0,0,020702
Faro do Alentejo,IL,0,0,020702
Faro do Alentejo,L,0,0,020702
Faro do Alentejo,MAS,0,0,020702
Faro do Alentejo,NC,0,0,020702
Faro do Alentejo,PTP,0,0,020702
Faro do Alentejo,PURP,0,0,020702
