freguesia,acronym,validVotesPercentage,votes,dicofre
Ferreiros,PS,55.65,69,030908
Ferreiros,PPD/PSD,30.65,38,030908
Ferreiros,B.E.,3.23,4,030908
Ferreiros,CDS-PP,3.23,4,030908
Ferreiros,PPM.PPV/CDC,2.42,3,030908
Ferreiros,PDR,1.61,2,030908
Ferreiros,L,0.81,1,030908
Ferreiros,MAS,0.81,1,030908
Ferreiros,PAN,0.81,1,030908
Ferreiros,PCP-PEV,0.81,1,030908
Ferreiros,A,0,0,030908
Ferreiros,IL,0,0,030908
Ferreiros,NC,0,0,030908
Ferreiros,PCTP/MRPP,0,0,030908
Ferreiros,PNR,0,0,030908
Ferreiros,PTP,0,0,030908
Ferreiros,PURP,0,0,030908
