freguesia,acronym,validVotesPercentage,votes,dicofre
Folgosinho,PS,53.68,51,090605
Folgosinho,PPD/PSD,27.37,26,090605
Folgosinho,B.E.,6.32,6,090605
Folgosinho,A,3.16,3,090605
Folgosinho,PAN,3.16,3,090605
Folgosinho,PCP-PEV,3.16,3,090605
Folgosinho,CDS-PP,1.05,1,090605
Folgosinho,L,1.05,1,090605
Folgosinho,PPM.PPV/CDC,1.05,1,090605
Folgosinho,IL,0,0,090605
Folgosinho,MAS,0,0,090605
Folgosinho,NC,0,0,090605
Folgosinho,PCTP/MRPP,0,0,090605
Folgosinho,PDR,0,0,090605
Folgosinho,PNR,0,0,090605
Folgosinho,PTP,0,0,090605
Folgosinho,PURP,0,0,090605
