freguesia,acronym,validVotesPercentage,votes,dicofre
Fornos do Pinhal,PPD/PSD,75.35,107,171211
Fornos do Pinhal,PS,19.01,27,171211
Fornos do Pinhal,B.E.,2.11,3,171211
Fornos do Pinhal,PCP-PEV,1.41,2,171211
Fornos do Pinhal,CDS-PP,0.7,1,171211
Fornos do Pinhal,L,0.7,1,171211
Fornos do Pinhal,PDR,0.7,1,171211
Fornos do Pinhal,A,0,0,171211
Fornos do Pinhal,IL,0,0,171211
Fornos do Pinhal,MAS,0,0,171211
Fornos do Pinhal,NC,0,0,171211
Fornos do Pinhal,PAN,0,0,171211
Fornos do Pinhal,PCTP/MRPP,0,0,171211
Fornos do Pinhal,PNR,0,0,171211
Fornos do Pinhal,PPM.PPV/CDC,0,0,171211
Fornos do Pinhal,PTP,0,0,171211
Fornos do Pinhal,PURP,0,0,171211
