freguesia,acronym,validVotesPercentage,votes,dicofre
Frazão Arreigada,PPD/PSD,39.79,653,130917
Frazão Arreigada,PS,31.81,522,130917
Frazão Arreigada,CDS-PP,9.99,164,130917
Frazão Arreigada,PAN,4.75,78,130917
Frazão Arreigada,B.E.,4.57,75,130917
Frazão Arreigada,PCP-PEV,1.65,27,130917
Frazão Arreigada,PPM.PPV/CDC,1.22,20,130917
Frazão Arreigada,L,1.04,17,130917
Frazão Arreigada,A,0.98,16,130917
Frazão Arreigada,PDR,0.79,13,130917
Frazão Arreigada,PTP,0.79,13,130917
Frazão Arreigada,PURP,0.61,10,130917
Frazão Arreigada,IL,0.55,9,130917
Frazão Arreigada,PCTP/MRPP,0.49,8,130917
Frazão Arreigada,PNR,0.43,7,130917
Frazão Arreigada,MAS,0.3,5,130917
Frazão Arreigada,NC,0.24,4,130917
