freguesia,acronym,validVotesPercentage,votes,dicofre
Freixiosa,PPD/PSD,42.67,32,180608
Freixiosa,PS,40,30,180608
Freixiosa,CDS-PP,8,6,180608
Freixiosa,PCTP/MRPP,4,3,180608
Freixiosa,A,1.33,1,180608
Freixiosa,NC,1.33,1,180608
Freixiosa,PAN,1.33,1,180608
Freixiosa,PURP,1.33,1,180608
Freixiosa,B.E.,0,0,180608
Freixiosa,IL,0,0,180608
Freixiosa,L,0,0,180608
Freixiosa,MAS,0,0,180608
Freixiosa,PCP-PEV,0,0,180608
Freixiosa,PDR,0,0,180608
Freixiosa,PNR,0,0,180608
Freixiosa,PPM.PPV/CDC,0,0,180608
Freixiosa,PTP,0,0,180608
