freguesia,acronym,validVotesPercentage,votes,dicofre
Girabolhos,PPD/PSD,44.29,31,091205
Girabolhos,PS,40,28,091205
Girabolhos,CDS-PP,5.71,4,091205
Girabolhos,PAN,4.29,3,091205
Girabolhos,B.E.,2.86,2,091205
Girabolhos,A,1.43,1,091205
Girabolhos,IL,1.43,1,091205
Girabolhos,L,0,0,091205
Girabolhos,MAS,0,0,091205
Girabolhos,NC,0,0,091205
Girabolhos,PCP-PEV,0,0,091205
Girabolhos,PCTP/MRPP,0,0,091205
Girabolhos,PDR,0,0,091205
Girabolhos,PNR,0,0,091205
Girabolhos,PPM.PPV/CDC,0,0,091205
Girabolhos,PTP,0,0,091205
Girabolhos,PURP,0,0,091205
