freguesia,acronym,validVotesPercentage,votes,dicofre
Gondesende,PPD/PSD,36.21,21,040217
Gondesende,PS,20.69,12,040217
Gondesende,B.E.,15.52,9,040217
Gondesende,CDS-PP,8.62,5,040217
Gondesende,NC,6.9,4,040217
Gondesende,IL,3.45,2,040217
Gondesende,PCP-PEV,3.45,2,040217
Gondesende,A,1.72,1,040217
Gondesende,PAN,1.72,1,040217
Gondesende,PNR,1.72,1,040217
Gondesende,L,0,0,040217
Gondesende,MAS,0,0,040217
Gondesende,PCTP/MRPP,0,0,040217
Gondesende,PDR,0,0,040217
Gondesende,PPM.PPV/CDC,0,0,040217
Gondesende,PTP,0,0,040217
Gondesende,PURP,0,0,040217
