freguesia,acronym,validVotesPercentage,votes,dicofre
Grijó de Parada,PS,52,39,040219
Grijó de Parada,PPD/PSD,28,21,040219
Grijó de Parada,CDS-PP,12,9,040219
Grijó de Parada,PCP-PEV,4,3,040219
Grijó de Parada,PCTP/MRPP,1.33,1,040219
Grijó de Parada,PPM.PPV/CDC,1.33,1,040219
Grijó de Parada,PTP,1.33,1,040219
Grijó de Parada,A,0,0,040219
Grijó de Parada,B.E.,0,0,040219
Grijó de Parada,IL,0,0,040219
Grijó de Parada,L,0,0,040219
Grijó de Parada,MAS,0,0,040219
Grijó de Parada,NC,0,0,040219
Grijó de Parada,PAN,0,0,040219
Grijó de Parada,PDR,0,0,040219
Grijó de Parada,PNR,0,0,040219
Grijó de Parada,PURP,0,0,040219
