freguesia,acronym,validVotesPercentage,votes,dicofre
Jardim da Serra,PPD/PSD,42.35,504,310205
Jardim da Serra,PS,28.15,335,310205
Jardim da Serra,CDS-PP,9.08,108,310205
Jardim da Serra,PAN,3.03,36,310205
Jardim da Serra,B.E.,2.61,31,310205
Jardim da Serra,PTP,2.35,28,310205
Jardim da Serra,PCP-PEV,2.27,27,310205
Jardim da Serra,PURP,2.1,25,310205
Jardim da Serra,PCTP/MRPP,1.34,16,310205
Jardim da Serra,L,1.09,13,310205
Jardim da Serra,PDR,1.09,13,310205
Jardim da Serra,A,1.01,12,310205
Jardim da Serra,PPM.PPV/CDC,1.01,12,310205
Jardim da Serra,NC,0.92,11,310205
Jardim da Serra,IL,0.76,9,310205
Jardim da Serra,MAS,0.5,6,310205
Jardim da Serra,PNR,0.34,4,310205
