freguesia,acronym,validVotesPercentage,votes,dicofre
Jugueiros,PS,42.28,126,130307
Jugueiros,PPD/PSD,30.2,90,130307
Jugueiros,CDS-PP,9.4,28,130307
Jugueiros,B.E.,5.37,16,130307
Jugueiros,PAN,4.03,12,130307
Jugueiros,PCP-PEV,3.69,11,130307
Jugueiros,A,1.34,4,130307
Jugueiros,PCTP/MRPP,1.01,3,130307
Jugueiros,PDR,1.01,3,130307
Jugueiros,L,0.67,2,130307
Jugueiros,PPM.PPV/CDC,0.67,2,130307
Jugueiros,IL,0.34,1,130307
Jugueiros,MAS,0,0,130307
Jugueiros,NC,0,0,130307
Jugueiros,PNR,0,0,130307
Jugueiros,PTP,0,0,130307
Jugueiros,PURP,0,0,130307
