freguesia,acronym,validVotesPercentage,votes,dicofre
Lobão da Beira,PS,36.08,105,182110
Lobão da Beira,PPD/PSD,32.99,96,182110
Lobão da Beira,B.E.,10.65,31,182110
Lobão da Beira,CDS-PP,7.56,22,182110
Lobão da Beira,PAN,4.81,14,182110
Lobão da Beira,PCP-PEV,1.72,5,182110
Lobão da Beira,IL,1.03,3,182110
Lobão da Beira,NC,1.03,3,182110
Lobão da Beira,PPM.PPV/CDC,1.03,3,182110
Lobão da Beira,A,0.69,2,182110
Lobão da Beira,PNR,0.69,2,182110
Lobão da Beira,L,0.34,1,182110
Lobão da Beira,MAS,0.34,1,182110
Lobão da Beira,PCTP/MRPP,0.34,1,182110
Lobão da Beira,PTP,0.34,1,182110
Lobão da Beira,PURP,0.34,1,182110
Lobão da Beira,PDR,0,0,182110
