freguesia,acronym,validVotesPercentage,votes,dicofre
Longa,PPD/PSD,61.9,39,181908
Longa,PS,23.81,15,181908
Longa,B.E.,4.76,3,181908
Longa,A,3.17,2,181908
Longa,PAN,3.17,2,181908
Longa,CDS-PP,1.59,1,181908
Longa,PNR,1.59,1,181908
Longa,IL,0,0,181908
Longa,L,0,0,181908
Longa,MAS,0,0,181908
Longa,NC,0,0,181908
Longa,PCP-PEV,0,0,181908
Longa,PCTP/MRPP,0,0,181908
Longa,PDR,0,0,181908
Longa,PPM.PPV/CDC,0,0,181908
Longa,PTP,0,0,181908
Longa,PURP,0,0,181908
