freguesia,acronym,validVotesPercentage,votes,dicofre
Lordelo,PS,39.7,287,171414
Lordelo,PPD/PSD,24.34,176,171414
Lordelo,B.E.,12.86,93,171414
Lordelo,CDS-PP,4.43,32,171414
Lordelo,PCP-PEV,3.73,27,171414
Lordelo,PAN,3.6,26,171414
Lordelo,L,2.63,19,171414
Lordelo,A,2.07,15,171414
Lordelo,PPM.PPV/CDC,1.8,13,171414
Lordelo,NC,1.52,11,171414
Lordelo,PDR,0.97,7,171414
Lordelo,IL,0.83,6,171414
Lordelo,PCTP/MRPP,0.41,3,171414
Lordelo,PNR,0.41,3,171414
Lordelo,MAS,0.28,2,171414
Lordelo,PTP,0.28,2,171414
Lordelo,PURP,0.14,1,171414
