freguesia,acronym,validVotesPercentage,votes,dicofre
Loures,PS,34.66,3215,110707
Loures,PPD/PSD,16.36,1518,110707
Loures,PCP-PEV,11.73,1088,110707
Loures,B.E.,10.93,1014,110707
Loures,PAN,7.16,664,110707
Loures,CDS-PP,5.08,471,110707
Loures,PPM.PPV/CDC,3.84,356,110707
Loures,A,2.38,221,110707
Loures,L,2.32,215,110707
Loures,IL,1.1,102,110707
Loures,NC,1.09,101,110707
Loures,PCTP/MRPP,1.01,94,110707
Loures,PNR,0.75,70,110707
Loures,PDR,0.63,58,110707
Loures,PURP,0.43,40,110707
Loures,PTP,0.36,33,110707
Loures,MAS,0.17,16,110707
