freguesia,acronym,validVotesPercentage,votes,dicofre
Marinha Grande,PS,33.22,2895,101001
Marinha Grande,PCP-PEV,17.65,1538,101001
Marinha Grande,B.E.,15.64,1363,101001
Marinha Grande,PPD/PSD,12.71,1108,101001
Marinha Grande,PAN,5.54,483,101001
Marinha Grande,CDS-PP,4.12,359,101001
Marinha Grande,A,2.19,191,101001
Marinha Grande,L,1.77,154,101001
Marinha Grande,PPM.PPV/CDC,1.64,143,101001
Marinha Grande,NC,1.43,125,101001
Marinha Grande,PCTP/MRPP,1.11,97,101001
Marinha Grande,IL,0.83,72,101001
Marinha Grande,PNR,0.63,55,101001
Marinha Grande,PDR,0.47,41,101001
Marinha Grande,PURP,0.38,33,101001
Marinha Grande,MAS,0.37,32,101001
Marinha Grande,PTP,0.3,26,101001
