freguesia,acronym,validVotesPercentage,votes,dicofre
Marmeleiro,PPD/PSD,51.54,67,090724
Marmeleiro,PS,23.85,31,090724
Marmeleiro,CDS-PP,13.85,18,090724
Marmeleiro,MAS,1.54,2,090724
Marmeleiro,PCP-PEV,1.54,2,090724
Marmeleiro,PPM.PPV/CDC,1.54,2,090724
Marmeleiro,A,0.77,1,090724
Marmeleiro,B.E.,0.77,1,090724
Marmeleiro,L,0.77,1,090724
Marmeleiro,NC,0.77,1,090724
Marmeleiro,PAN,0.77,1,090724
Marmeleiro,PNR,0.77,1,090724
Marmeleiro,PTP,0.77,1,090724
Marmeleiro,PURP,0.77,1,090724
Marmeleiro,IL,0,0,090724
Marmeleiro,PCTP/MRPP,0,0,090724
Marmeleiro,PDR,0,0,090724
