freguesia,acronym,validVotesPercentage,votes,dicofre
Martinchel,PS,44.59,70,140105
Martinchel,PPD/PSD,21.02,33,140105
Martinchel,B.E.,9.55,15,140105
Martinchel,CDS-PP,7.01,11,140105
Martinchel,PCP-PEV,5.1,8,140105
Martinchel,PPM.PPV/CDC,3.82,6,140105
Martinchel,PAN,3.18,5,140105
Martinchel,A,1.91,3,140105
Martinchel,NC,1.27,2,140105
Martinchel,PTP,1.27,2,140105
Martinchel,L,0.64,1,140105
Martinchel,PCTP/MRPP,0.64,1,140105
Martinchel,IL,0,0,140105
Martinchel,MAS,0,0,140105
Martinchel,PDR,0,0,140105
Martinchel,PNR,0,0,140105
Martinchel,PURP,0,0,140105
