freguesia,acronym,validVotesPercentage,votes,dicofre
Maçainhas,PS,43.75,168,090723
Maçainhas,PPD/PSD,23.96,92,090723
Maçainhas,B.E.,10.68,41,090723
Maçainhas,CDS-PP,5.99,23,090723
Maçainhas,PCP-PEV,5.73,22,090723
Maçainhas,PAN,3.13,12,090723
Maçainhas,A,2.34,9,090723
Maçainhas,PCTP/MRPP,1.3,5,090723
Maçainhas,PPM.PPV/CDC,1.04,4,090723
Maçainhas,L,0.78,3,090723
Maçainhas,PNR,0.52,2,090723
Maçainhas,IL,0.26,1,090723
Maçainhas,PDR,0.26,1,090723
Maçainhas,PURP,0.26,1,090723
Maçainhas,MAS,0,0,090723
Maçainhas,NC,0,0,090723
Maçainhas,PTP,0,0,090723
