freguesia,acronym,validVotesPercentage,votes,dicofre
Meios,PPD/PSD,41.27,26,090725
Meios,PS,36.51,23,090725
Meios,CDS-PP,11.11,7,090725
Meios,B.E.,3.17,2,090725
Meios,PCTP/MRPP,3.17,2,090725
Meios,PAN,1.59,1,090725
Meios,PCP-PEV,1.59,1,090725
Meios,PURP,1.59,1,090725
Meios,A,0,0,090725
Meios,IL,0,0,090725
Meios,L,0,0,090725
Meios,MAS,0,0,090725
Meios,NC,0,0,090725
Meios,PDR,0,0,090725
Meios,PNR,0,0,090725
Meios,PPM.PPV/CDC,0,0,090725
Meios,PTP,0,0,090725
