freguesia,acronym,validVotesPercentage,votes,dicofre
Milheirós,PS,40.43,708,130608
Milheirós,PPD/PSD,20.79,364,130608
Milheirós,B.E.,9.31,163,130608
Milheirós,PAN,8.85,155,130608
Milheirós,PCP-PEV,5.2,91,130608
Milheirós,CDS-PP,4.28,75,130608
Milheirós,L,2.34,41,130608
Milheirós,NC,2.17,38,130608
Milheirós,A,2.11,37,130608
Milheirós,IL,1.31,23,130608
Milheirós,PCTP/MRPP,0.8,14,130608
Milheirós,PPM.PPV/CDC,0.69,12,130608
Milheirós,PDR,0.46,8,130608
Milheirós,PURP,0.46,8,130608
Milheirós,PTP,0.34,6,130608
Milheirós,PNR,0.29,5,130608
Milheirós,MAS,0.17,3,130608
