freguesia,acronym,validVotesPercentage,votes,dicofre
Minde,PPD/PSD,35.01,321,140206
Minde,PS,26.5,243,140206
Minde,CDS-PP,8.72,80,140206
Minde,B.E.,6.76,62,140206
Minde,PCP-PEV,6,55,140206
Minde,PAN,4.03,37,140206
Minde,A,3.05,28,140206
Minde,PPM.PPV/CDC,2.62,24,140206
Minde,L,1.74,16,140206
Minde,NC,0.98,9,140206
Minde,PCTP/MRPP,0.98,9,140206
Minde,IL,0.87,8,140206
Minde,PNR,0.87,8,140206
Minde,PURP,0.76,7,140206
Minde,PDR,0.44,4,140206
Minde,PTP,0.44,4,140206
Minde,MAS,0.22,2,140206
