freguesia,acronym,validVotesPercentage,votes,dicofre
Monte da Pedra,PS,56.25,63,120605
Monte da Pedra,PCP-PEV,11.61,13,120605
Monte da Pedra,PPD/PSD,10.71,12,120605
Monte da Pedra,B.E.,7.14,8,120605
Monte da Pedra,A,5.36,6,120605
Monte da Pedra,CDS-PP,1.79,2,120605
Monte da Pedra,PPM.PPV/CDC,1.79,2,120605
Monte da Pedra,IL,0.89,1,120605
Monte da Pedra,L,0.89,1,120605
Monte da Pedra,NC,0.89,1,120605
Monte da Pedra,PCTP/MRPP,0.89,1,120605
Monte da Pedra,PNR,0.89,1,120605
Monte da Pedra,PURP,0.89,1,120605
Monte da Pedra,MAS,0,0,120605
Monte da Pedra,PAN,0,0,120605
Monte da Pedra,PDR,0,0,120605
Monte da Pedra,PTP,0,0,120605
