freguesia,acronym,validVotesPercentage,votes,dicofre
Montenegro,PS,29.65,669,080506
Montenegro,PPD/PSD,20.61,465,080506
Montenegro,B.E.,16.22,366,080506
Montenegro,PAN,8.64,195,080506
Montenegro,CDS-PP,6.07,137,080506
Montenegro,PCP-PEV,5.19,117,080506
Montenegro,A,3.01,68,080506
Montenegro,NC,2.53,57,080506
Montenegro,L,2.48,56,080506
Montenegro,PPM.PPV/CDC,1.82,41,080506
Montenegro,IL,1.24,28,080506
Montenegro,PNR,0.71,16,080506
Montenegro,PCTP/MRPP,0.58,13,080506
Montenegro,PDR,0.58,13,080506
Montenegro,PURP,0.31,7,080506
Montenegro,PTP,0.22,5,080506
Montenegro,MAS,0.13,3,080506
