freguesia,acronym,validVotesPercentage,votes,dicofre
Mosteiros,PS,43.31,55,420311
Mosteiros,PPD/PSD,38.58,49,420311
Mosteiros,B.E.,3.15,4,420311
Mosteiros,PCP-PEV,3.15,4,420311
Mosteiros,CDS-PP,2.36,3,420311
Mosteiros,PAN,2.36,3,420311
Mosteiros,PCTP/MRPP,2.36,3,420311
Mosteiros,PDR,1.57,2,420311
Mosteiros,A,0.79,1,420311
Mosteiros,IL,0.79,1,420311
Mosteiros,L,0.79,1,420311
Mosteiros,PPM.PPV/CDC,0.79,1,420311
Mosteiros,MAS,0,0,420311
Mosteiros,NC,0,0,420311
Mosteiros,PNR,0,0,420311
Mosteiros,PTP,0,0,420311
Mosteiros,PURP,0,0,420311
