freguesia,acronym,validVotesPercentage,votes,dicofre
Mouriscas,PS,42.88,223,140106
Mouriscas,PPD/PSD,16.15,84,140106
Mouriscas,B.E.,11.92,62,140106
Mouriscas,PCP-PEV,10.58,55,140106
Mouriscas,CDS-PP,5.77,30,140106
Mouriscas,PCTP/MRPP,2.31,12,140106
Mouriscas,PAN,1.73,9,140106
Mouriscas,PPM.PPV/CDC,1.35,7,140106
Mouriscas,PURP,1.35,7,140106
Mouriscas,L,1.15,6,140106
Mouriscas,IL,0.96,5,140106
Mouriscas,NC,0.96,5,140106
Mouriscas,PNR,0.96,5,140106
Mouriscas,A,0.58,3,140106
Mouriscas,PDR,0.58,3,140106
Mouriscas,PTP,0.58,3,140106
Mouriscas,MAS,0.19,1,140106
