freguesia,acronym,validVotesPercentage,votes,dicofre
Moure,PPD/PSD,71.85,416,031328
Moure,PS,17.27,100,031328
Moure,CDS-PP,3.28,19,031328
Moure,B.E.,2.07,12,031328
Moure,PAN,2.07,12,031328
Moure,PCP-PEV,1.38,8,031328
Moure,PPM.PPV/CDC,0.69,4,031328
Moure,A,0.35,2,031328
Moure,PCTP/MRPP,0.35,2,031328
Moure,PTP,0.35,2,031328
Moure,L,0.17,1,031328
Moure,PURP,0.17,1,031328
Moure,IL,0,0,031328
Moure,MAS,0,0,031328
Moure,NC,0,0,031328
Moure,PDR,0,0,031328
Moure,PNR,0,0,031328
