freguesia,acronym,validVotesPercentage,votes,dicofre
Nevogilde,PPD/PSD,42.15,212,130515
Nevogilde,PS,37.77,190,130515
Nevogilde,B.E.,7.16,36,130515
Nevogilde,CDS-PP,3.18,16,130515
Nevogilde,PAN,2.39,12,130515
Nevogilde,PCP-PEV,1.59,8,130515
Nevogilde,L,1.39,7,130515
Nevogilde,IL,0.8,4,130515
Nevogilde,PPM.PPV/CDC,0.8,4,130515
Nevogilde,NC,0.6,3,130515
Nevogilde,PDR,0.6,3,130515
Nevogilde,PTP,0.6,3,130515
Nevogilde,A,0.4,2,130515
Nevogilde,PURP,0.4,2,130515
Nevogilde,PNR,0.2,1,130515
Nevogilde,MAS,0,0,130515
Nevogilde,PCTP/MRPP,0,0,130515
