freguesia,acronym,validVotesPercentage,votes,dicofre
Nossa Senhora das Misericórdias,PPD/PSD,46.24,708,142111
Nossa Senhora das Misericórdias,PS,22.86,350,142111
Nossa Senhora das Misericórdias,CDS-PP,7.58,116,142111
Nossa Senhora das Misericórdias,B.E.,6.07,93,142111
Nossa Senhora das Misericórdias,PAN,5.36,82,142111
Nossa Senhora das Misericórdias,PCP-PEV,2.55,39,142111
Nossa Senhora das Misericórdias,L,2.09,32,142111
Nossa Senhora das Misericórdias,A,1.89,29,142111
Nossa Senhora das Misericórdias,PPM.PPV/CDC,1.11,17,142111
Nossa Senhora das Misericórdias,PNR,0.91,14,142111
Nossa Senhora das Misericórdias,PCTP/MRPP,0.78,12,142111
Nossa Senhora das Misericórdias,NC,0.72,11,142111
Nossa Senhora das Misericórdias,PDR,0.52,8,142111
Nossa Senhora das Misericórdias,PTP,0.52,8,142111
Nossa Senhora das Misericórdias,MAS,0.39,6,142111
Nossa Senhora das Misericórdias,IL,0.26,4,142111
Nossa Senhora das Misericórdias,PURP,0.13,2,142111
