freguesia,acronym,validVotesPercentage,votes,dicofre
Olhalvo,PS,45.55,307,110108
Olhalvo,PPD/PSD,17.51,118,110108
Olhalvo,PCP-PEV,13.06,88,110108
Olhalvo,B.E.,6.23,42,110108
Olhalvo,CDS-PP,5.79,39,110108
Olhalvo,PAN,3.71,25,110108
Olhalvo,A,1.78,12,110108
Olhalvo,PPM.PPV/CDC,1.78,12,110108
Olhalvo,L,1.04,7,110108
Olhalvo,NC,0.74,5,110108
Olhalvo,PCTP/MRPP,0.74,5,110108
Olhalvo,PDR,0.59,4,110108
Olhalvo,PURP,0.45,3,110108
Olhalvo,IL,0.3,2,110108
Olhalvo,PNR,0.3,2,110108
Olhalvo,PTP,0.3,2,110108
Olhalvo,MAS,0.15,1,110108
