freguesia,acronym,validVotesPercentage,votes,dicofre
Oliveirinha,PPD/PSD,37.16,463,010508
Oliveirinha,PS,24.96,311,010508
Oliveirinha,CDS-PP,10.67,133,010508
Oliveirinha,B.E.,10.51,131,010508
Oliveirinha,PAN,4.17,52,010508
Oliveirinha,A,2.49,31,010508
Oliveirinha,PCP-PEV,2.17,27,010508
Oliveirinha,NC,1.77,22,010508
Oliveirinha,PPM.PPV/CDC,1.44,18,010508
Oliveirinha,L,1.36,17,010508
Oliveirinha,PDR,0.8,10,010508
Oliveirinha,IL,0.64,8,010508
Oliveirinha,PNR,0.56,7,010508
Oliveirinha,PCTP/MRPP,0.4,5,010508
Oliveirinha,PTP,0.32,4,010508
Oliveirinha,PURP,0.32,4,010508
Oliveirinha,MAS,0.24,3,010508
