freguesia,acronym,validVotesPercentage,votes,dicofre
Outeiro Seco,PS,46.26,105,170321
Outeiro Seco,PPD/PSD,25.99,59,170321
Outeiro Seco,B.E.,8.81,20,170321
Outeiro Seco,CDS-PP,5.29,12,170321
Outeiro Seco,PCP-PEV,3.52,8,170321
Outeiro Seco,PAN,3.08,7,170321
Outeiro Seco,A,2.64,6,170321
Outeiro Seco,NC,1.76,4,170321
Outeiro Seco,PCTP/MRPP,0.88,2,170321
Outeiro Seco,PPM.PPV/CDC,0.88,2,170321
Outeiro Seco,PTP,0.44,1,170321
Outeiro Seco,PURP,0.44,1,170321
Outeiro Seco,IL,0,0,170321
Outeiro Seco,L,0,0,170321
Outeiro Seco,MAS,0,0,170321
Outeiro Seco,PDR,0,0,170321
Outeiro Seco,PNR,0,0,170321
