freguesia,acronym,validVotesPercentage,votes,dicofre
Pampilhosa da Serra,PS,44.67,151,061206
Pampilhosa da Serra,PPD/PSD,27.81,94,061206
Pampilhosa da Serra,B.E.,9.47,32,061206
Pampilhosa da Serra,CDS-PP,4.14,14,061206
Pampilhosa da Serra,PAN,4.14,14,061206
Pampilhosa da Serra,PCP-PEV,2.96,10,061206
Pampilhosa da Serra,PPM.PPV/CDC,1.78,6,061206
Pampilhosa da Serra,PCTP/MRPP,1.18,4,061206
Pampilhosa da Serra,L,0.89,3,061206
Pampilhosa da Serra,PDR,0.89,3,061206
Pampilhosa da Serra,A,0.59,2,061206
Pampilhosa da Serra,PURP,0.59,2,061206
Pampilhosa da Serra,MAS,0.3,1,061206
Pampilhosa da Serra,NC,0.3,1,061206
Pampilhosa da Serra,PTP,0.3,1,061206
Pampilhosa da Serra,IL,0,0,061206
Pampilhosa da Serra,PNR,0,0,061206
