freguesia,acronym,validVotesPercentage,votes,dicofre
Parada,PPD/PSD,38.61,78,180206
Parada,PS,22.77,46,180206
Parada,CDS-PP,13.86,28,180206
Parada,B.E.,9.9,20,180206
Parada,PAN,4.95,10,180206
Parada,PPM.PPV/CDC,2.48,5,180206
Parada,PURP,2.48,5,180206
Parada,A,1.49,3,180206
Parada,PDR,1.49,3,180206
Parada,PCTP/MRPP,0.99,2,180206
Parada,IL,0.5,1,180206
Parada,PCP-PEV,0.5,1,180206
Parada,L,0,0,180206
Parada,MAS,0,0,180206
Parada,NC,0,0,180206
Parada,PNR,0,0,180206
Parada,PTP,0,0,180206
