freguesia,acronym,validVotesPercentage,votes,dicofre
Pedome,PS,42.71,290,031230
Pedome,PPD/PSD,18.7,127,031230
Pedome,CDS-PP,10.9,74,031230
Pedome,B.E.,7.95,54,031230
Pedome,PCP-PEV,7.81,53,031230
Pedome,PAN,3.98,27,031230
Pedome,A,1.77,12,031230
Pedome,L,1.47,10,031230
Pedome,PCTP/MRPP,1.33,9,031230
Pedome,NC,0.74,5,031230
Pedome,PDR,0.74,5,031230
Pedome,PPM.PPV/CDC,0.59,4,031230
Pedome,PTP,0.59,4,031230
Pedome,PURP,0.44,3,031230
Pedome,MAS,0.15,1,031230
Pedome,PNR,0.15,1,031230
Pedome,IL,0,0,031230
