freguesia,acronym,validVotesPercentage,votes,dicofre
Penela da Beira,PS,42.86,48,181207
Penela da Beira,PPD/PSD,32.14,36,181207
Penela da Beira,B.E.,9.82,11,181207
Penela da Beira,CDS-PP,4.46,5,181207
Penela da Beira,PAN,3.57,4,181207
Penela da Beira,PCP-PEV,3.57,4,181207
Penela da Beira,L,1.79,2,181207
Penela da Beira,PCTP/MRPP,0.89,1,181207
Penela da Beira,PURP,0.89,1,181207
Penela da Beira,A,0,0,181207
Penela da Beira,IL,0,0,181207
Penela da Beira,MAS,0,0,181207
Penela da Beira,NC,0,0,181207
Penela da Beira,PDR,0,0,181207
Penela da Beira,PNR,0,0,181207
Penela da Beira,PPM.PPV/CDC,0,0,181207
Penela da Beira,PTP,0,0,181207
