freguesia,acronym,validVotesPercentage,votes,dicofre
Penha Garcia,PS,67.14,141,050510
Penha Garcia,PPD/PSD,16.67,35,050510
Penha Garcia,CDS-PP,3.33,7,050510
Penha Garcia,B.E.,2.38,5,050510
Penha Garcia,A,1.9,4,050510
Penha Garcia,PAN,1.9,4,050510
Penha Garcia,PCP-PEV,1.9,4,050510
Penha Garcia,PCTP/MRPP,1.43,3,050510
Penha Garcia,PPM.PPV/CDC,1.43,3,050510
Penha Garcia,MAS,0.95,2,050510
Penha Garcia,L,0.48,1,050510
Penha Garcia,PNR,0.48,1,050510
Penha Garcia,IL,0,0,050510
Penha Garcia,NC,0,0,050510
Penha Garcia,PDR,0,0,050510
Penha Garcia,PTP,0,0,050510
Penha Garcia,PURP,0,0,050510
