freguesia,acronym,validVotesPercentage,votes,dicofre
Penhas Juntas,PPD/PSD,62.83,71,041216
Penhas Juntas,PS,26.55,30,041216
Penhas Juntas,CDS-PP,6.19,7,041216
Penhas Juntas,A,0.88,1,041216
Penhas Juntas,B.E.,0.88,1,041216
Penhas Juntas,NC,0.88,1,041216
Penhas Juntas,PCTP/MRPP,0.88,1,041216
Penhas Juntas,PNR,0.88,1,041216
Penhas Juntas,IL,0,0,041216
Penhas Juntas,L,0,0,041216
Penhas Juntas,MAS,0,0,041216
Penhas Juntas,PAN,0,0,041216
Penhas Juntas,PCP-PEV,0,0,041216
Penhas Juntas,PDR,0,0,041216
Penhas Juntas,PPM.PPV/CDC,0,0,041216
Penhas Juntas,PTP,0,0,041216
Penhas Juntas,PURP,0,0,041216
