freguesia,acronym,validVotesPercentage,votes,dicofre
Ponte,PPD/PSD,58.54,96,031337
Ponte,PS,20.73,34,031337
Ponte,B.E.,6.71,11,031337
Ponte,CDS-PP,6.71,11,031337
Ponte,PAN,2.44,4,031337
Ponte,PPM.PPV/CDC,1.83,3,031337
Ponte,PCP-PEV,1.22,2,031337
Ponte,PCTP/MRPP,0.61,1,031337
Ponte,PNR,0.61,1,031337
Ponte,PURP,0.61,1,031337
Ponte,A,0,0,031337
Ponte,IL,0,0,031337
Ponte,L,0,0,031337
Ponte,MAS,0,0,031337
Ponte,NC,0,0,031337
Ponte,PDR,0,0,031337
Ponte,PTP,0,0,031337
