freguesia,acronym,validVotesPercentage,votes,dicofre
Ponta Delgada,PS,34.78,24,480203
Ponta Delgada,PPD/PSD,31.88,22,480203
Ponta Delgada,CDS-PP,8.7,6,480203
Ponta Delgada,B.E.,7.25,5,480203
Ponta Delgada,A,5.8,4,480203
Ponta Delgada,PCP-PEV,5.8,4,480203
Ponta Delgada,PAN,2.9,2,480203
Ponta Delgada,PPM.PPV/CDC,2.9,2,480203
Ponta Delgada,IL,0,0,480203
Ponta Delgada,L,0,0,480203
Ponta Delgada,MAS,0,0,480203
Ponta Delgada,NC,0,0,480203
Ponta Delgada,PCTP/MRPP,0,0,480203
Ponta Delgada,PDR,0,0,480203
Ponta Delgada,PNR,0,0,480203
Ponta Delgada,PTP,0,0,480203
Ponta Delgada,PURP,0,0,480203
