freguesia,acronym,validVotesPercentage,votes,dicofre
Porches,PS,38.27,150,080604
Porches,PPD/PSD,21.94,86,080604
Porches,B.E.,12.24,48,080604
Porches,PAN,6.12,24,080604
Porches,CDS-PP,5.1,20,080604
Porches,PCP-PEV,3.83,15,080604
Porches,NC,2.04,8,080604
Porches,L,1.79,7,080604
Porches,PPM.PPV/CDC,1.79,7,080604
Porches,A,1.53,6,080604
Porches,PCTP/MRPP,1.28,5,080604
Porches,PNR,1.28,5,080604
Porches,PDR,1.02,4,080604
Porches,PURP,0.77,3,080604
Porches,PTP,0.51,2,080604
Porches,IL,0.26,1,080604
Porches,MAS,0.26,1,080604
