freguesia,acronym,validVotesPercentage,votes,dicofre
Porto Formoso,PS,71.68,124,420507
Porto Formoso,PPD/PSD,12.14,21,420507
Porto Formoso,B.E.,5.2,9,420507
Porto Formoso,CDS-PP,3.47,6,420507
Porto Formoso,PAN,1.73,3,420507
Porto Formoso,PCP-PEV,1.73,3,420507
Porto Formoso,A,1.16,2,420507
Porto Formoso,PCTP/MRPP,1.16,2,420507
Porto Formoso,L,0.58,1,420507
Porto Formoso,MAS,0.58,1,420507
Porto Formoso,PURP,0.58,1,420507
Porto Formoso,IL,0,0,420507
Porto Formoso,NC,0,0,420507
Porto Formoso,PDR,0,0,420507
Porto Formoso,PNR,0,0,420507
Porto Formoso,PPM.PPV/CDC,0,0,420507
Porto Formoso,PTP,0,0,420507
