freguesia,acronym,validVotesPercentage,votes,dicofre
Possacos,PPD/PSD,51.95,80,171216
Possacos,PS,31.17,48,171216
Possacos,B.E.,3.25,5,171216
Possacos,PAN,3.25,5,171216
Possacos,CDS-PP,2.6,4,171216
Possacos,L,1.95,3,171216
Possacos,A,1.3,2,171216
Possacos,PCTP/MRPP,1.3,2,171216
Possacos,PURP,1.3,2,171216
Possacos,MAS,0.65,1,171216
Possacos,NC,0.65,1,171216
Possacos,PPM.PPV/CDC,0.65,1,171216
Possacos,IL,0,0,171216
Possacos,PCP-PEV,0,0,171216
Possacos,PDR,0,0,171216
Possacos,PNR,0,0,171216
Possacos,PTP,0,0,171216
