freguesia,acronym,validVotesPercentage,votes,dicofre
Pousa,PS,35.01,230,030261
Pousa,PPD/PSD,33.33,219,030261
Pousa,PAN,8.52,56,030261
Pousa,CDS-PP,7.15,47,030261
Pousa,B.E.,5.78,38,030261
Pousa,PCP-PEV,1.83,12,030261
Pousa,NC,1.67,11,030261
Pousa,L,1.22,8,030261
Pousa,PPM.PPV/CDC,1.07,7,030261
Pousa,PURP,0.91,6,030261
Pousa,IL,0.61,4,030261
Pousa,MAS,0.61,4,030261
Pousa,PDR,0.61,4,030261
Pousa,PCTP/MRPP,0.46,3,030261
Pousa,PNR,0.46,3,030261
Pousa,PTP,0.46,3,030261
Pousa,A,0.3,2,030261
