freguesia,acronym,validVotesPercentage,votes,dicofre
Prados,PS,48.28,28,090312
Prados,PPD/PSD,32.76,19,090312
Prados,B.E.,12.07,7,090312
Prados,CDS-PP,1.72,1,090312
Prados,MAS,1.72,1,090312
Prados,PAN,1.72,1,090312
Prados,PTP,1.72,1,090312
Prados,A,0,0,090312
Prados,IL,0,0,090312
Prados,L,0,0,090312
Prados,NC,0,0,090312
Prados,PCP-PEV,0,0,090312
Prados,PCTP/MRPP,0,0,090312
Prados,PDR,0,0,090312
Prados,PNR,0,0,090312
Prados,PPM.PPV/CDC,0,0,090312
Prados,PURP,0,0,090312
