freguesia,acronym,validVotesPercentage,votes,dicofre
Prazins (Santa Eufémia),PS,39.16,150,030842
Prazins (Santa Eufémia),PPD/PSD,38.12,146,030842
Prazins (Santa Eufémia),B.E.,6.01,23,030842
Prazins (Santa Eufémia),PCP-PEV,5.74,22,030842
Prazins (Santa Eufémia),CDS-PP,3.92,15,030842
Prazins (Santa Eufémia),PAN,1.83,7,030842
Prazins (Santa Eufémia),PDR,1.83,7,030842
Prazins (Santa Eufémia),A,1.04,4,030842
Prazins (Santa Eufémia),PCTP/MRPP,0.78,3,030842
Prazins (Santa Eufémia),IL,0.52,2,030842
Prazins (Santa Eufémia),PPM.PPV/CDC,0.52,2,030842
Prazins (Santa Eufémia),MAS,0.26,1,030842
Prazins (Santa Eufémia),NC,0.26,1,030842
Prazins (Santa Eufémia),L,0,0,030842
Prazins (Santa Eufémia),PNR,0,0,030842
Prazins (Santa Eufémia),PTP,0,0,030842
Prazins (Santa Eufémia),PURP,0,0,030842
