freguesia,acronym,validVotesPercentage,votes,dicofre
Queiriz,PPD/PSD,43.37,36,090512
Queiriz,PS,19.28,16,090512
Queiriz,B.E.,9.64,8,090512
Queiriz,CDS-PP,9.64,8,090512
Queiriz,PAN,4.82,4,090512
Queiriz,PCTP/MRPP,2.41,2,090512
Queiriz,PPM.PPV/CDC,2.41,2,090512
Queiriz,A,1.2,1,090512
Queiriz,IL,1.2,1,090512
Queiriz,MAS,1.2,1,090512
Queiriz,PCP-PEV,1.2,1,090512
Queiriz,PDR,1.2,1,090512
Queiriz,PTP,1.2,1,090512
Queiriz,PURP,1.2,1,090512
Queiriz,L,0,0,090512
Queiriz,NC,0,0,090512
Queiriz,PNR,0,0,090512
