freguesia,acronym,validVotesPercentage,votes,dicofre
Ramela,PPD/PSD,39.74,31,090734
Ramela,PS,39.74,31,090734
Ramela,B.E.,6.41,5,090734
Ramela,CDS-PP,3.85,3,090734
Ramela,PAN,3.85,3,090734
Ramela,A,2.56,2,090734
Ramela,IL,1.28,1,090734
Ramela,L,1.28,1,090734
Ramela,PPM.PPV/CDC,1.28,1,090734
Ramela,MAS,0,0,090734
Ramela,NC,0,0,090734
Ramela,PCP-PEV,0,0,090734
Ramela,PCTP/MRPP,0,0,090734
Ramela,PDR,0,0,090734
Ramela,PNR,0,0,090734
Ramela,PTP,0,0,090734
Ramela,PURP,0,0,090734
