freguesia,acronym,validVotesPercentage,votes,dicofre
Rans,PS,42.97,214,131128
Rans,PPD/PSD,30.32,151,131128
Rans,CDS-PP,5.42,27,131128
Rans,B.E.,4.42,22,131128
Rans,PAN,4.02,20,131128
Rans,PCP-PEV,3.41,17,131128
Rans,IL,1.81,9,131128
Rans,PPM.PPV/CDC,1.61,8,131128
Rans,A,1.41,7,131128
Rans,NC,1.41,7,131128
Rans,L,1,5,131128
Rans,PCTP/MRPP,1,5,131128
Rans,PDR,0.8,4,131128
Rans,PNR,0.4,2,131128
Rans,MAS,0,0,131128
Rans,PTP,0,0,131128
Rans,PURP,0,0,131128
