freguesia,acronym,validVotesPercentage,votes,dicofre
Raposa,PS,62.01,111,140304
Raposa,PPD/PSD,12.29,22,140304
Raposa,PCP-PEV,6.15,11,140304
Raposa,B.E.,4.47,8,140304
Raposa,CDS-PP,4.47,8,140304
Raposa,PAN,3.35,6,140304
Raposa,PPM.PPV/CDC,2.79,5,140304
Raposa,PDR,1.68,3,140304
Raposa,A,1.12,2,140304
Raposa,PCTP/MRPP,1.12,2,140304
Raposa,L,0.56,1,140304
Raposa,IL,0,0,140304
Raposa,MAS,0,0,140304
Raposa,NC,0,0,140304
Raposa,PNR,0,0,140304
Raposa,PTP,0,0,140304
Raposa,PURP,0,0,140304
