freguesia,acronym,validVotesPercentage,votes,dicofre
Rates,PPD/PSD,44.99,319,131311
Rates,PS,22.43,159,131311
Rates,CDS-PP,17.07,121,131311
Rates,B.E.,5.22,37,131311
Rates,PAN,2.54,18,131311
Rates,PDR,1.69,12,131311
Rates,PCP-PEV,0.99,7,131311
Rates,PPM.PPV/CDC,0.99,7,131311
Rates,A,0.85,6,131311
Rates,IL,0.56,4,131311
Rates,PURP,0.56,4,131311
Rates,L,0.42,3,131311
Rates,PCTP/MRPP,0.42,3,131311
Rates,PNR,0.42,3,131311
Rates,MAS,0.28,2,131311
Rates,NC,0.28,2,131311
Rates,PTP,0.28,2,131311
