freguesia,acronym,validVotesPercentage,votes,dicofre
Reguengo do Fetal,PPD/PSD,33.95,220,100402
Reguengo do Fetal,PS,30.09,195,100402
Reguengo do Fetal,CDS-PP,10.34,67,100402
Reguengo do Fetal,B.E.,9.1,59,100402
Reguengo do Fetal,PAN,5.09,33,100402
Reguengo do Fetal,A,2.62,17,100402
Reguengo do Fetal,PPM.PPV/CDC,2.62,17,100402
Reguengo do Fetal,PCP-PEV,1.54,10,100402
Reguengo do Fetal,L,0.93,6,100402
Reguengo do Fetal,IL,0.77,5,100402
Reguengo do Fetal,MAS,0.77,5,100402
Reguengo do Fetal,PNR,0.77,5,100402
Reguengo do Fetal,PDR,0.46,3,100402
Reguengo do Fetal,NC,0.31,2,100402
Reguengo do Fetal,PTP,0.31,2,100402
Reguengo do Fetal,PCTP/MRPP,0.15,1,100402
Reguengo do Fetal,PURP,0.15,1,100402
