freguesia,acronym,validVotesPercentage,votes,dicofre
Repeses e São Salvador,PS,32.31,599,182339
Repeses e São Salvador,PPD/PSD,26.11,484,182339
Repeses e São Salvador,B.E.,14.4,267,182339
Repeses e São Salvador,CDS-PP,6.09,113,182339
Repeses e São Salvador,PCP-PEV,4.53,84,182339
Repeses e São Salvador,PAN,4.42,82,182339
Repeses e São Salvador,A,2.97,55,182339
Repeses e São Salvador,L,2.86,53,182339
Repeses e São Salvador,PPM.PPV/CDC,1.4,26,182339
Repeses e São Salvador,NC,1.19,22,182339
Repeses e São Salvador,IL,1.02,19,182339
Repeses e São Salvador,PURP,0.86,16,182339
Repeses e São Salvador,PNR,0.7,13,182339
Repeses e São Salvador,PCTP/MRPP,0.54,10,182339
Repeses e São Salvador,PDR,0.38,7,182339
Repeses e São Salvador,MAS,0.11,2,182339
Repeses e São Salvador,PTP,0.11,2,182339
