freguesia,acronym,validVotesPercentage,votes,dicofre
Riba de Âncora,PS,43.14,110,160214
Riba de Âncora,PPD/PSD,32.55,83,160214
Riba de Âncora,B.E.,7.06,18,160214
Riba de Âncora,PAN,4.71,12,160214
Riba de Âncora,PCP-PEV,4.31,11,160214
Riba de Âncora,CDS-PP,3.53,9,160214
Riba de Âncora,IL,0.78,2,160214
Riba de Âncora,L,0.78,2,160214
Riba de Âncora,NC,0.78,2,160214
Riba de Âncora,PDR,0.78,2,160214
Riba de Âncora,PURP,0.78,2,160214
Riba de Âncora,A,0.39,1,160214
Riba de Âncora,PNR,0.39,1,160214
Riba de Âncora,MAS,0,0,160214
Riba de Âncora,PCTP/MRPP,0,0,160214
Riba de Âncora,PPM.PPV/CDC,0,0,160214
Riba de Âncora,PTP,0,0,160214
