freguesia,acronym,validVotesPercentage,votes,dicofre
Ribeira das Tainhas,PS,61.98,75,420603
Ribeira das Tainhas,PPD/PSD,15.7,19,420603
Ribeira das Tainhas,B.E.,8.26,10,420603
Ribeira das Tainhas,L,3.31,4,420603
Ribeira das Tainhas,CDS-PP,1.65,2,420603
Ribeira das Tainhas,IL,1.65,2,420603
Ribeira das Tainhas,NC,1.65,2,420603
Ribeira das Tainhas,PAN,1.65,2,420603
Ribeira das Tainhas,PCP-PEV,1.65,2,420603
Ribeira das Tainhas,A,0.83,1,420603
Ribeira das Tainhas,PCTP/MRPP,0.83,1,420603
Ribeira das Tainhas,PPM.PPV/CDC,0.83,1,420603
Ribeira das Tainhas,MAS,0,0,420603
Ribeira das Tainhas,PDR,0,0,420603
Ribeira das Tainhas,PNR,0,0,420603
Ribeira das Tainhas,PTP,0,0,420603
Ribeira das Tainhas,PURP,0,0,420603
