freguesia,acronym,validVotesPercentage,votes,dicofre
Ribeira Grande (Matriz),PS,43.09,162,420510
Ribeira Grande (Matriz),PPD/PSD,24.47,92,420510
Ribeira Grande (Matriz),B.E.,10.37,39,420510
Ribeira Grande (Matriz),PAN,6.65,25,420510
Ribeira Grande (Matriz),CDS-PP,3.99,15,420510
Ribeira Grande (Matriz),PCP-PEV,2.93,11,420510
Ribeira Grande (Matriz),L,1.6,6,420510
Ribeira Grande (Matriz),A,1.33,5,420510
Ribeira Grande (Matriz),PNR,1.33,5,420510
Ribeira Grande (Matriz),PCTP/MRPP,1.06,4,420510
Ribeira Grande (Matriz),PPM.PPV/CDC,0.8,3,420510
Ribeira Grande (Matriz),NC,0.53,2,420510
Ribeira Grande (Matriz),PDR,0.53,2,420510
Ribeira Grande (Matriz),PTP,0.53,2,420510
Ribeira Grande (Matriz),PURP,0.53,2,420510
Ribeira Grande (Matriz),IL,0.27,1,420510
Ribeira Grande (Matriz),MAS,0,0,420510
