freguesia,acronym,validVotesPercentage,votes,dicofre
Rio Meão,PS,40.67,632,010921
Rio Meão,PPD/PSD,28.44,442,010921
Rio Meão,B.E.,8.88,138,010921
Rio Meão,CDS-PP,6.95,108,010921
Rio Meão,PAN,4.12,64,010921
Rio Meão,PCP-PEV,2.45,38,010921
Rio Meão,A,1.42,22,010921
Rio Meão,NC,1.29,20,010921
Rio Meão,IL,0.9,14,010921
Rio Meão,PCTP/MRPP,0.9,14,010921
Rio Meão,PNR,0.9,14,010921
Rio Meão,PPM.PPV/CDC,0.9,14,010921
Rio Meão,L,0.84,13,010921
Rio Meão,PDR,0.71,11,010921
Rio Meão,MAS,0.26,4,010921
Rio Meão,PTP,0.19,3,010921
Rio Meão,PURP,0.19,3,010921
