freguesia,acronym,validVotesPercentage,votes,dicofre
Ronfe,PS,45.43,796,030840
Ronfe,PPD/PSD,23.63,414,030840
Ronfe,B.E.,8.96,157,030840
Ronfe,CDS-PP,8.5,149,030840
Ronfe,PAN,3.48,61,030840
Ronfe,PCP-PEV,3.37,59,030840
Ronfe,L,1.2,21,030840
Ronfe,A,0.91,16,030840
Ronfe,NC,0.74,13,030840
Ronfe,IL,0.68,12,030840
Ronfe,PCTP/MRPP,0.68,12,030840
Ronfe,PDR,0.57,10,030840
Ronfe,PPM.PPV/CDC,0.51,9,030840
Ronfe,PTP,0.46,8,030840
Ronfe,MAS,0.34,6,030840
Ronfe,PNR,0.34,6,030840
Ronfe,PURP,0.17,3,030840
