freguesia,acronym,validVotesPercentage,votes,dicofre
Sambade,PPD/PSD,40.46,70,040111
Sambade,PS,40.46,70,040111
Sambade,CDS-PP,8.09,14,040111
Sambade,B.E.,5.2,9,040111
Sambade,NC,1.16,2,040111
Sambade,PCP-PEV,1.16,2,040111
Sambade,PNR,1.16,2,040111
Sambade,A,0.58,1,040111
Sambade,IL,0.58,1,040111
Sambade,PTP,0.58,1,040111
Sambade,PURP,0.58,1,040111
Sambade,L,0,0,040111
Sambade,MAS,0,0,040111
Sambade,PAN,0,0,040111
Sambade,PCTP/MRPP,0,0,040111
Sambade,PDR,0,0,040111
Sambade,PPM.PPV/CDC,0,0,040111
