freguesia,acronym,validVotesPercentage,votes,dicofre
Samões,PS,45.13,51,041010
Samões,PPD/PSD,31.86,36,041010
Samões,B.E.,12.39,14,041010
Samões,CDS-PP,6.19,7,041010
Samões,PCP-PEV,1.77,2,041010
Samões,PTP,1.77,2,041010
Samões,PAN,0.88,1,041010
Samões,A,0,0,041010
Samões,IL,0,0,041010
Samões,L,0,0,041010
Samões,MAS,0,0,041010
Samões,NC,0,0,041010
Samões,PCTP/MRPP,0,0,041010
Samões,PDR,0,0,041010
Samões,PNR,0,0,041010
Samões,PPM.PPV/CDC,0,0,041010
Samões,PURP,0,0,041010
