freguesia,acronym,validVotesPercentage,votes,dicofre
Sanguinheira,PPD/PSD,45.08,220,060218
Sanguinheira,PS,26.84,131,060218
Sanguinheira,B.E.,6.97,34,060218
Sanguinheira,CDS-PP,4.71,23,060218
Sanguinheira,PAN,4.1,20,060218
Sanguinheira,PCP-PEV,3.07,15,060218
Sanguinheira,A,1.64,8,060218
Sanguinheira,L,1.43,7,060218
Sanguinheira,NC,1.43,7,060218
Sanguinheira,PCTP/MRPP,1.43,7,060218
Sanguinheira,PURP,1.02,5,060218
Sanguinheira,PPM.PPV/CDC,0.82,4,060218
Sanguinheira,IL,0.61,3,060218
Sanguinheira,PTP,0.41,2,060218
Sanguinheira,PDR,0.2,1,060218
Sanguinheira,PNR,0.2,1,060218
Sanguinheira,MAS,0,0,060218
