freguesia,acronym,validVotesPercentage,votes,dicofre
Santo António,PS,58.78,77,460304
Santo António,PPD/PSD,11.45,15,460304
Santo António,PAN,9.16,12,460304
Santo António,B.E.,5.34,7,460304
Santo António,CDS-PP,4.58,6,460304
Santo António,PCP-PEV,3.05,4,460304
Santo António,PPM.PPV/CDC,3.05,4,460304
Santo António,PDR,1.53,2,460304
Santo António,L,0.76,1,460304
Santo António,MAS,0.76,1,460304
Santo António,PCTP/MRPP,0.76,1,460304
Santo António,PURP,0.76,1,460304
Santo António,A,0,0,460304
Santo António,IL,0,0,460304
Santo António,NC,0,0,460304
Santo António,PNR,0,0,460304
Santo António,PTP,0,0,460304
