freguesia,acronym,validVotesPercentage,votes,dicofre
Santiago de Montalegre,PPD/PSD,40.95,43,141702
Santiago de Montalegre,PS,34.29,36,141702
Santiago de Montalegre,B.E.,8.57,9,141702
Santiago de Montalegre,PAN,5.71,6,141702
Santiago de Montalegre,CDS-PP,3.81,4,141702
Santiago de Montalegre,PCP-PEV,3.81,4,141702
Santiago de Montalegre,PPM.PPV/CDC,1.9,2,141702
Santiago de Montalegre,PCTP/MRPP,0.95,1,141702
Santiago de Montalegre,A,0,0,141702
Santiago de Montalegre,IL,0,0,141702
Santiago de Montalegre,L,0,0,141702
Santiago de Montalegre,MAS,0,0,141702
Santiago de Montalegre,NC,0,0,141702
Santiago de Montalegre,PDR,0,0,141702
Santiago de Montalegre,PNR,0,0,141702
Santiago de Montalegre,PTP,0,0,141702
Santiago de Montalegre,PURP,0,0,141702
