freguesia,acronym,validVotesPercentage,votes,dicofre
Serra de Água,PPD/PSD,51.67,201,310703
Serra de Água,PS,21.08,82,310703
Serra de Água,CDS-PP,8.48,33,310703
Serra de Água,B.E.,4.63,18,310703
Serra de Água,PAN,2.83,11,310703
Serra de Água,PURP,2.31,9,310703
Serra de Água,PCP-PEV,1.54,6,310703
Serra de Água,PPM.PPV/CDC,1.29,5,310703
Serra de Água,IL,1.03,4,310703
Serra de Água,L,1.03,4,310703
Serra de Água,A,0.77,3,310703
Serra de Água,PCTP/MRPP,0.77,3,310703
Serra de Água,MAS,0.51,2,310703
Serra de Água,NC,0.51,2,310703
Serra de Água,PDR,0.51,2,310703
Serra de Água,PNR,0.51,2,310703
Serra de Água,PTP,0.51,2,310703
