freguesia,acronym,validVotesPercentage,votes,dicofre
Sertã,PPD/PSD,39.15,675,050912
Sertã,PS,31.38,541,050912
Sertã,B.E.,7.66,132,050912
Sertã,CDS-PP,6.96,120,050912
Sertã,PAN,3.19,55,050912
Sertã,A,2.44,42,050912
Sertã,PCP-PEV,1.91,33,050912
Sertã,PPM.PPV/CDC,1.74,30,050912
Sertã,L,1.57,27,050912
Sertã,PDR,0.87,15,050912
Sertã,IL,0.75,13,050912
Sertã,PCTP/MRPP,0.64,11,050912
Sertã,PNR,0.58,10,050912
Sertã,NC,0.46,8,050912
Sertã,MAS,0.35,6,050912
Sertã,PURP,0.23,4,050912
Sertã,PTP,0.12,2,050912
