freguesia,acronym,validVotesPercentage,votes,dicofre
Sosa,PPD/PSD,45.03,317,011807
Sosa,PS,21.02,148,011807
Sosa,CDS-PP,14.63,103,011807
Sosa,B.E.,5.4,38,011807
Sosa,PAN,3.69,26,011807
Sosa,A,2.41,17,011807
Sosa,PCP-PEV,1.7,12,011807
Sosa,PPM.PPV/CDC,1.42,10,011807
Sosa,NC,1.14,8,011807
Sosa,PCTP/MRPP,1.14,8,011807
Sosa,L,0.71,5,011807
Sosa,PDR,0.57,4,011807
Sosa,PURP,0.57,4,011807
Sosa,IL,0.43,3,011807
Sosa,PNR,0.14,1,011807
Sosa,MAS,0,0,011807
Sosa,PTP,0,0,011807
