freguesia,acronym,validVotesPercentage,votes,dicofre
Souselo,PS,53.64,236,180414
Souselo,PPD/PSD,23.64,104,180414
Souselo,B.E.,9.32,41,180414
Souselo,CDS-PP,4.32,19,180414
Souselo,PAN,3.86,17,180414
Souselo,PCP-PEV,1.82,8,180414
Souselo,PCTP/MRPP,1.14,5,180414
Souselo,PPM.PPV/CDC,0.91,4,180414
Souselo,A,0.68,3,180414
Souselo,NC,0.23,1,180414
Souselo,PNR,0.23,1,180414
Souselo,PURP,0.23,1,180414
Souselo,IL,0,0,180414
Souselo,L,0,0,180414
Souselo,MAS,0,0,180414
Souselo,PDR,0,0,180414
Souselo,PTP,0,0,180414
