freguesia,acronym,validVotesPercentage,votes,dicofre
São Lourenço de Ribapinhão,PS,48.96,47,171011
São Lourenço de Ribapinhão,PPD/PSD,41.67,40,171011
São Lourenço de Ribapinhão,B.E.,3.13,3,171011
São Lourenço de Ribapinhão,A,2.08,2,171011
São Lourenço de Ribapinhão,PPM.PPV/CDC,2.08,2,171011
São Lourenço de Ribapinhão,L,1.04,1,171011
São Lourenço de Ribapinhão,PCP-PEV,1.04,1,171011
São Lourenço de Ribapinhão,CDS-PP,0,0,171011
São Lourenço de Ribapinhão,IL,0,0,171011
São Lourenço de Ribapinhão,MAS,0,0,171011
São Lourenço de Ribapinhão,NC,0,0,171011
São Lourenço de Ribapinhão,PAN,0,0,171011
São Lourenço de Ribapinhão,PCTP/MRPP,0,0,171011
São Lourenço de Ribapinhão,PDR,0,0,171011
São Lourenço de Ribapinhão,PNR,0,0,171011
São Lourenço de Ribapinhão,PTP,0,0,171011
São Lourenço de Ribapinhão,PURP,0,0,171011
