freguesia,acronym,validVotesPercentage,votes,dicofre
São João de Areias,PS,39.29,165,181406
São João de Areias,PPD/PSD,33.81,142,181406
São João de Areias,B.E.,8.81,37,181406
São João de Areias,CDS-PP,3.81,16,181406
São João de Areias,PAN,3.1,13,181406
São João de Areias,PCP-PEV,2.62,11,181406
São João de Areias,PPM.PPV/CDC,2.14,9,181406
São João de Areias,L,1.67,7,181406
São João de Areias,PCTP/MRPP,1.19,5,181406
São João de Areias,A,0.95,4,181406
São João de Areias,NC,0.71,3,181406
São João de Areias,PNR,0.71,3,181406
São João de Areias,PDR,0.48,2,181406
São João de Areias,PURP,0.48,2,181406
São João de Areias,PTP,0.24,1,181406
São João de Areias,IL,0,0,181406
São João de Areias,MAS,0,0,181406
