freguesia,acronym,validVotesPercentage,votes,dicofre
São Gonçalo de Lagos,PS,35.95,1624,080708
São Gonçalo de Lagos,B.E.,16.42,742,080708
São Gonçalo de Lagos,PPD/PSD,15.29,691,080708
São Gonçalo de Lagos,PCP-PEV,8.9,402,080708
São Gonçalo de Lagos,PAN,6.62,299,080708
São Gonçalo de Lagos,CDS-PP,4.45,201,080708
São Gonçalo de Lagos,L,2.7,122,080708
São Gonçalo de Lagos,A,2.24,101,080708
São Gonçalo de Lagos,NC,1.7,77,080708
São Gonçalo de Lagos,PPM.PPV/CDC,1.51,68,080708
São Gonçalo de Lagos,PCTP/MRPP,0.93,42,080708
São Gonçalo de Lagos,PDR,0.8,36,080708
São Gonçalo de Lagos,IL,0.71,32,080708
São Gonçalo de Lagos,PNR,0.71,32,080708
São Gonçalo de Lagos,PURP,0.62,28,080708
São Gonçalo de Lagos,MAS,0.27,12,080708
São Gonçalo de Lagos,PTP,0.2,9,080708
