freguesia,acronym,validVotesPercentage,votes,dicofre
São Bartolomeu de Regatos,PS,35.53,113,430114
São Bartolomeu de Regatos,PPD/PSD,32.08,102,430114
São Bartolomeu de Regatos,CDS-PP,12.89,41,430114
São Bartolomeu de Regatos,B.E.,8.81,28,430114
São Bartolomeu de Regatos,PAN,3.46,11,430114
São Bartolomeu de Regatos,A,3.14,10,430114
São Bartolomeu de Regatos,L,1.26,4,430114
São Bartolomeu de Regatos,PCP-PEV,0.94,3,430114
São Bartolomeu de Regatos,PPM.PPV/CDC,0.94,3,430114
São Bartolomeu de Regatos,NC,0.31,1,430114
São Bartolomeu de Regatos,PCTP/MRPP,0.31,1,430114
São Bartolomeu de Regatos,PDR,0.31,1,430114
São Bartolomeu de Regatos,IL,0,0,430114
São Bartolomeu de Regatos,MAS,0,0,430114
São Bartolomeu de Regatos,PNR,0,0,430114
São Bartolomeu de Regatos,PTP,0,0,430114
São Bartolomeu de Regatos,PURP,0,0,430114
