freguesia,acronym,validVotesPercentage,votes,dicofre
São Martinho de Angueira,PPD/PSD,47.19,42,040613
São Martinho de Angueira,PS,43.82,39,040613
São Martinho de Angueira,B.E.,2.25,2,040613
São Martinho de Angueira,A,1.12,1,040613
São Martinho de Angueira,CDS-PP,1.12,1,040613
São Martinho de Angueira,IL,1.12,1,040613
São Martinho de Angueira,PCP-PEV,1.12,1,040613
São Martinho de Angueira,PPM.PPV/CDC,1.12,1,040613
São Martinho de Angueira,PTP,1.12,1,040613
São Martinho de Angueira,L,0,0,040613
São Martinho de Angueira,MAS,0,0,040613
São Martinho de Angueira,NC,0,0,040613
São Martinho de Angueira,PAN,0,0,040613
São Martinho de Angueira,PCTP/MRPP,0,0,040613
São Martinho de Angueira,PDR,0,0,040613
São Martinho de Angueira,PNR,0,0,040613
São Martinho de Angueira,PURP,0,0,040613
