freguesia,acronym,validVotesPercentage,votes,dicofre
São Bento do Mato,PS,41.53,130,070506
São Bento do Mato,PPD/PSD,20.13,63,070506
São Bento do Mato,PCP-PEV,10.54,33,070506
São Bento do Mato,B.E.,7.03,22,070506
São Bento do Mato,CDS-PP,5.43,17,070506
São Bento do Mato,A,3.51,11,070506
São Bento do Mato,PPM.PPV/CDC,2.88,9,070506
São Bento do Mato,PAN,2.24,7,070506
São Bento do Mato,PCTP/MRPP,1.6,5,070506
São Bento do Mato,IL,1.28,4,070506
São Bento do Mato,L,1.28,4,070506
São Bento do Mato,NC,1.28,4,070506
São Bento do Mato,PNR,0.64,2,070506
São Bento do Mato,PDR,0.32,1,070506
São Bento do Mato,PTP,0.32,1,070506
São Bento do Mato,MAS,0,0,070506
São Bento do Mato,PURP,0,0,070506
