freguesia,acronym,validVotesPercentage,votes,dicofre
São João do Campo,PS,50.6,252,060320
São João do Campo,PPD/PSD,11.85,59,060320
São João do Campo,PCP-PEV,11.65,58,060320
São João do Campo,B.E.,11.24,56,060320
São João do Campo,CDS-PP,2.81,14,060320
São João do Campo,PAN,2.21,11,060320
São João do Campo,L,2.01,10,060320
São João do Campo,PDR,1.61,8,060320
São João do Campo,PCTP/MRPP,1.2,6,060320
São João do Campo,PPM.PPV/CDC,1,5,060320
São João do Campo,A,0.8,4,060320
São João do Campo,NC,0.8,4,060320
São João do Campo,PURP,0.8,4,060320
São João do Campo,IL,0.6,3,060320
São João do Campo,PNR,0.4,2,060320
São João do Campo,MAS,0.2,1,060320
São João do Campo,PTP,0.2,1,060320
