freguesia,acronym,validVotesPercentage,votes,dicofre
São Cristóvão de Mondim de Basto,PPD/PSD,40.24,398,170505
São Cristóvão de Mondim de Basto,PS,33.27,329,170505
São Cristóvão de Mondim de Basto,CDS-PP,9.61,95,170505
São Cristóvão de Mondim de Basto,B.E.,5.36,53,170505
São Cristóvão de Mondim de Basto,PAN,3.24,32,170505
São Cristóvão de Mondim de Basto,PCP-PEV,2.83,28,170505
São Cristóvão de Mondim de Basto,L,1.11,11,170505
São Cristóvão de Mondim de Basto,A,0.71,7,170505
São Cristóvão de Mondim de Basto,NC,0.71,7,170505
São Cristóvão de Mondim de Basto,PTP,0.71,7,170505
São Cristóvão de Mondim de Basto,PDR,0.61,6,170505
São Cristóvão de Mondim de Basto,PCTP/MRPP,0.51,5,170505
São Cristóvão de Mondim de Basto,PPM.PPV/CDC,0.4,4,170505
São Cristóvão de Mondim de Basto,IL,0.3,3,170505
São Cristóvão de Mondim de Basto,PNR,0.2,2,170505
São Cristóvão de Mondim de Basto,MAS,0.1,1,170505
São Cristóvão de Mondim de Basto,PURP,0.1,1,170505
