freguesia,acronym,validVotesPercentage,votes,dicofre
São Roque do Faial,PPD/PSD,50.33,153,310905
São Roque do Faial,CDS-PP,20.07,61,310905
São Roque do Faial,PS,16.12,49,310905
São Roque do Faial,PCP-PEV,3.29,10,310905
São Roque do Faial,B.E.,2.63,8,310905
São Roque do Faial,PAN,1.64,5,310905
São Roque do Faial,PPM.PPV/CDC,1.32,4,310905
São Roque do Faial,A,0.99,3,310905
São Roque do Faial,PNR,0.99,3,310905
São Roque do Faial,PURP,0.99,3,310905
São Roque do Faial,NC,0.66,2,310905
São Roque do Faial,PDR,0.66,2,310905
São Roque do Faial,L,0.33,1,310905
São Roque do Faial,IL,0,0,310905
São Roque do Faial,MAS,0,0,310905
São Roque do Faial,PCTP/MRPP,0,0,310905
São Roque do Faial,PTP,0,0,310905
