freguesia,acronym,validVotesPercentage,votes,dicofre
São Vicente e Ventosa,PS,55.62,99,120708
São Vicente e Ventosa,PPM.PPV/CDC,11.8,21,120708
São Vicente e Ventosa,PCP-PEV,11.24,20,120708
São Vicente e Ventosa,PPD/PSD,5.62,10,120708
São Vicente e Ventosa,B.E.,5.06,9,120708
São Vicente e Ventosa,CDS-PP,3.93,7,120708
São Vicente e Ventosa,PAN,2.25,4,120708
São Vicente e Ventosa,L,1.12,2,120708
São Vicente e Ventosa,NC,1.12,2,120708
São Vicente e Ventosa,PNR,1.12,2,120708
São Vicente e Ventosa,A,0.56,1,120708
São Vicente e Ventosa,PCTP/MRPP,0.56,1,120708
São Vicente e Ventosa,IL,0,0,120708
São Vicente e Ventosa,MAS,0,0,120708
São Vicente e Ventosa,PDR,0,0,120708
São Vicente e Ventosa,PTP,0,0,120708
São Vicente e Ventosa,PURP,0,0,120708
