freguesia,acronym,validVotesPercentage,votes,dicofre
Topo (Nossa Senhora do Rosário),PS,43.82,39,450105
Topo (Nossa Senhora do Rosário),PPD/PSD,35.96,32,450105
Topo (Nossa Senhora do Rosário),CDS-PP,7.87,7,450105
Topo (Nossa Senhora do Rosário),B.E.,3.37,3,450105
Topo (Nossa Senhora do Rosário),PAN,3.37,3,450105
Topo (Nossa Senhora do Rosário),PCP-PEV,3.37,3,450105
Topo (Nossa Senhora do Rosário),PCTP/MRPP,1.12,1,450105
Topo (Nossa Senhora do Rosário),PNR,1.12,1,450105
Topo (Nossa Senhora do Rosário),A,0,0,450105
Topo (Nossa Senhora do Rosário),IL,0,0,450105
Topo (Nossa Senhora do Rosário),L,0,0,450105
Topo (Nossa Senhora do Rosário),MAS,0,0,450105
Topo (Nossa Senhora do Rosário),NC,0,0,450105
Topo (Nossa Senhora do Rosário),PDR,0,0,450105
Topo (Nossa Senhora do Rosário),PPM.PPV/CDC,0,0,450105
Topo (Nossa Senhora do Rosário),PTP,0,0,450105
Topo (Nossa Senhora do Rosário),PURP,0,0,450105
