freguesia,acronym,validVotesPercentage,votes,dicofre
Travassos,PS,40.28,87,030927
Travassos,PPD/PSD,34.26,74,030927
Travassos,CDS-PP,12.04,26,030927
Travassos,B.E.,6.48,14,030927
Travassos,A,1.85,4,030927
Travassos,L,1.39,3,030927
Travassos,PCP-PEV,0.93,2,030927
Travassos,PPM.PPV/CDC,0.93,2,030927
Travassos,IL,0.46,1,030927
Travassos,NC,0.46,1,030927
Travassos,PAN,0.46,1,030927
Travassos,PURP,0.46,1,030927
Travassos,MAS,0,0,030927
Travassos,PCTP/MRPP,0,0,030927
Travassos,PDR,0,0,030927
Travassos,PNR,0,0,030927
Travassos,PTP,0,0,030927
