freguesia,acronym,validVotesPercentage,votes,dicofre
"União das freguesias de Geraz do Lima (Santa Maria, Santa Leocádia e Moreira) e Deão",PS,39.16,372,160943
"União das freguesias de Geraz do Lima (Santa Maria, Santa Leocádia e Moreira) e Deão",PPD/PSD,36.21,344,160943
"União das freguesias de Geraz do Lima (Santa Maria, Santa Leocádia e Moreira) e Deão",CDS-PP,8.32,79,160943
"União das freguesias de Geraz do Lima (Santa Maria, Santa Leocádia e Moreira) e Deão",B.E.,4.84,46,160943
"União das freguesias de Geraz do Lima (Santa Maria, Santa Leocádia e Moreira) e Deão",PAN,2.63,25,160943
"União das freguesias de Geraz do Lima (Santa Maria, Santa Leocádia e Moreira) e Deão",PCP-PEV,1.79,17,160943
"União das freguesias de Geraz do Lima (Santa Maria, Santa Leocádia e Moreira) e Deão",PPM.PPV/CDC,1.26,12,160943
"União das freguesias de Geraz do Lima (Santa Maria, Santa Leocádia e Moreira) e Deão",A,1.16,11,160943
"União das freguesias de Geraz do Lima (Santa Maria, Santa Leocádia e Moreira) e Deão",PDR,1.16,11,160943
"União das freguesias de Geraz do Lima (Santa Maria, Santa Leocádia e Moreira) e Deão",L,0.95,9,160943
"União das freguesias de Geraz do Lima (Santa Maria, Santa Leocádia e Moreira) e Deão",NC,0.74,7,160943
"União das freguesias de Geraz do Lima (Santa Maria, Santa Leocádia e Moreira) e Deão",PCTP/MRPP,0.63,6,160943
"União das freguesias de Geraz do Lima (Santa Maria, Santa Leocádia e Moreira) e Deão",IL,0.32,3,160943
"União das freguesias de Geraz do Lima (Santa Maria, Santa Leocádia e Moreira) e Deão",PTP,0.32,3,160943
"União das freguesias de Geraz do Lima (Santa Maria, Santa Leocádia e Moreira) e Deão",PURP,0.32,3,160943
"União das freguesias de Geraz do Lima (Santa Maria, Santa Leocádia e Moreira) e Deão",MAS,0.21,2,160943
"União das freguesias de Geraz do Lima (Santa Maria, Santa Leocádia e Moreira) e Deão",PNR,0,0,160943
