freguesia,acronym,validVotesPercentage,votes,dicofre
União das freguesias de Travancas e Roriz,PS,53.85,98,170360
União das freguesias de Travancas e Roriz,PPD/PSD,28.57,52,170360
União das freguesias de Travancas e Roriz,B.E.,4.95,9,170360
União das freguesias de Travancas e Roriz,CDS-PP,3.85,7,170360
União das freguesias de Travancas e Roriz,A,1.65,3,170360
União das freguesias de Travancas e Roriz,PCP-PEV,1.65,3,170360
União das freguesias de Travancas e Roriz,PCTP/MRPP,1.65,3,170360
União das freguesias de Travancas e Roriz,MAS,0.55,1,170360
União das freguesias de Travancas e Roriz,NC,0.55,1,170360
União das freguesias de Travancas e Roriz,PDR,0.55,1,170360
União das freguesias de Travancas e Roriz,PNR,0.55,1,170360
União das freguesias de Travancas e Roriz,PPM.PPV/CDC,0.55,1,170360
União das freguesias de Travancas e Roriz,PTP,0.55,1,170360
União das freguesias de Travancas e Roriz,PURP,0.55,1,170360
União das freguesias de Travancas e Roriz,IL,0,0,170360
União das freguesias de Travancas e Roriz,L,0,0,170360
União das freguesias de Travancas e Roriz,PAN,0,0,170360
