freguesia,acronym,validVotesPercentage,votes,dicofre
União das freguesias de Ifanes e Paradela,PS,45.38,54,040619
União das freguesias de Ifanes e Paradela,PPD/PSD,42.86,51,040619
União das freguesias de Ifanes e Paradela,CDS-PP,5.04,6,040619
União das freguesias de Ifanes e Paradela,IL,1.68,2,040619
União das freguesias de Ifanes e Paradela,PAN,1.68,2,040619
União das freguesias de Ifanes e Paradela,B.E.,0.84,1,040619
União das freguesias de Ifanes e Paradela,NC,0.84,1,040619
União das freguesias de Ifanes e Paradela,PNR,0.84,1,040619
União das freguesias de Ifanes e Paradela,PPM.PPV/CDC,0.84,1,040619
União das freguesias de Ifanes e Paradela,A,0,0,040619
União das freguesias de Ifanes e Paradela,L,0,0,040619
União das freguesias de Ifanes e Paradela,MAS,0,0,040619
União das freguesias de Ifanes e Paradela,PCP-PEV,0,0,040619
União das freguesias de Ifanes e Paradela,PCTP/MRPP,0,0,040619
União das freguesias de Ifanes e Paradela,PDR,0,0,040619
União das freguesias de Ifanes e Paradela,PTP,0,0,040619
União das freguesias de Ifanes e Paradela,PURP,0,0,040619
