freguesia,acronym,validVotesPercentage,votes,dicofre
União das freguesias de Morreira e Trandeiras,PPD/PSD,34.93,175,030376
União das freguesias de Morreira e Trandeiras,PS,33.33,167,030376
União das freguesias de Morreira e Trandeiras,CDS-PP,10.38,52,030376
União das freguesias de Morreira e Trandeiras,B.E.,8.18,41,030376
União das freguesias de Morreira e Trandeiras,PAN,3.99,20,030376
União das freguesias de Morreira e Trandeiras,PCP-PEV,2.4,12,030376
União das freguesias de Morreira e Trandeiras,L,2.2,11,030376
União das freguesias de Morreira e Trandeiras,A,1.4,7,030376
União das freguesias de Morreira e Trandeiras,IL,0.8,4,030376
União das freguesias de Morreira e Trandeiras,NC,0.8,4,030376
União das freguesias de Morreira e Trandeiras,PPM.PPV/CDC,0.8,4,030376
União das freguesias de Morreira e Trandeiras,PNR,0.4,2,030376
União das freguesias de Morreira e Trandeiras,PDR,0.2,1,030376
União das freguesias de Morreira e Trandeiras,PURP,0.2,1,030376
União das freguesias de Morreira e Trandeiras,MAS,0,0,030376
União das freguesias de Morreira e Trandeiras,PCTP/MRPP,0,0,030376
União das freguesias de Morreira e Trandeiras,PTP,0,0,030376
