freguesia,acronym,validVotesPercentage,votes,dicofre
"União das freguesias de Tamengos, Aguim e Óis do Bairro",PPD/PSD,35.16,315,010318
"União das freguesias de Tamengos, Aguim e Óis do Bairro",PS,35.04,314,010318
"União das freguesias de Tamengos, Aguim e Óis do Bairro",B.E.,7.81,70,010318
"União das freguesias de Tamengos, Aguim e Óis do Bairro",CDS-PP,5.25,47,010318
"União das freguesias de Tamengos, Aguim e Óis do Bairro",PAN,4.58,41,010318
"União das freguesias de Tamengos, Aguim e Óis do Bairro",PCP-PEV,2.34,21,010318
"União das freguesias de Tamengos, Aguim e Óis do Bairro",L,1.67,15,010318
"União das freguesias de Tamengos, Aguim e Óis do Bairro",A,1.56,14,010318
"União das freguesias de Tamengos, Aguim e Óis do Bairro",NC,1.34,12,010318
"União das freguesias de Tamengos, Aguim e Óis do Bairro",PPM.PPV/CDC,1,9,010318
"União das freguesias de Tamengos, Aguim e Óis do Bairro",PDR,0.89,8,010318
"União das freguesias de Tamengos, Aguim e Óis do Bairro",PCTP/MRPP,0.78,7,010318
"União das freguesias de Tamengos, Aguim e Óis do Bairro",PNR,0.67,6,010318
"União das freguesias de Tamengos, Aguim e Óis do Bairro",PTP,0.67,6,010318
"União das freguesias de Tamengos, Aguim e Óis do Bairro",IL,0.56,5,010318
"União das freguesias de Tamengos, Aguim e Óis do Bairro",PURP,0.45,4,010318
"União das freguesias de Tamengos, Aguim e Óis do Bairro",MAS,0.22,2,010318
