freguesia,acronym,validVotesPercentage,votes,dicofre
União das freguesias de Escalos de Baixo e Mata,PS,57.74,194,050227
União das freguesias de Escalos de Baixo e Mata,PPD/PSD,16.37,55,050227
União das freguesias de Escalos de Baixo e Mata,B.E.,10.12,34,050227
União das freguesias de Escalos de Baixo e Mata,CDS-PP,4.76,16,050227
União das freguesias de Escalos de Baixo e Mata,PCP-PEV,2.68,9,050227
União das freguesias de Escalos de Baixo e Mata,PAN,2.38,8,050227
União das freguesias de Escalos de Baixo e Mata,PPM.PPV/CDC,2.08,7,050227
União das freguesias de Escalos de Baixo e Mata,L,1.19,4,050227
União das freguesias de Escalos de Baixo e Mata,A,0.6,2,050227
União das freguesias de Escalos de Baixo e Mata,PTP,0.6,2,050227
União das freguesias de Escalos de Baixo e Mata,PURP,0.6,2,050227
União das freguesias de Escalos de Baixo e Mata,NC,0.3,1,050227
União das freguesias de Escalos de Baixo e Mata,PCTP/MRPP,0.3,1,050227
União das freguesias de Escalos de Baixo e Mata,PNR,0.3,1,050227
União das freguesias de Escalos de Baixo e Mata,IL,0,0,050227
União das freguesias de Escalos de Baixo e Mata,MAS,0,0,050227
União das freguesias de Escalos de Baixo e Mata,PDR,0,0,050227
