freguesia,acronym,validVotesPercentage,votes,dicofre
União das freguesias de Ponte de Vagos e Santa Catarina,PPD/PSD,56.17,419,011813
União das freguesias de Ponte de Vagos e Santa Catarina,CDS-PP,17.56,131,011813
União das freguesias de Ponte de Vagos e Santa Catarina,PS,9.79,73,011813
União das freguesias de Ponte de Vagos e Santa Catarina,B.E.,4.96,37,011813
União das freguesias de Ponte de Vagos e Santa Catarina,PAN,2.68,20,011813
União das freguesias de Ponte de Vagos e Santa Catarina,A,1.88,14,011813
União das freguesias de Ponte de Vagos e Santa Catarina,NC,1.61,12,011813
União das freguesias de Ponte de Vagos e Santa Catarina,PPM.PPV/CDC,0.94,7,011813
União das freguesias de Ponte de Vagos e Santa Catarina,PCP-PEV,0.8,6,011813
União das freguesias de Ponte de Vagos e Santa Catarina,PCTP/MRPP,0.8,6,011813
União das freguesias de Ponte de Vagos e Santa Catarina,IL,0.67,5,011813
União das freguesias de Ponte de Vagos e Santa Catarina,L,0.67,5,011813
União das freguesias de Ponte de Vagos e Santa Catarina,PNR,0.67,5,011813
União das freguesias de Ponte de Vagos e Santa Catarina,PDR,0.27,2,011813
União das freguesias de Ponte de Vagos e Santa Catarina,PTP,0.27,2,011813
União das freguesias de Ponte de Vagos e Santa Catarina,MAS,0.13,1,011813
União das freguesias de Ponte de Vagos e Santa Catarina,PURP,0.13,1,011813
