freguesia,acronym,validVotesPercentage,votes,dicofre
"União das freguesias de Merelim (São Paio), Panoias e Parada de Tibães",PS,38.46,595,030374
"União das freguesias de Merelim (São Paio), Panoias e Parada de Tibães",PPD/PSD,17.32,268,030374
"União das freguesias de Merelim (São Paio), Panoias e Parada de Tibães",PCP-PEV,10.08,156,030374
"União das freguesias de Merelim (São Paio), Panoias e Parada de Tibães",B.E.,7.24,112,030374
"União das freguesias de Merelim (São Paio), Panoias e Parada de Tibães",PTP,7.24,112,030374
"União das freguesias de Merelim (São Paio), Panoias e Parada de Tibães",CDS-PP,5.82,90,030374
"União das freguesias de Merelim (São Paio), Panoias e Parada de Tibães",PAN,5.17,80,030374
"União das freguesias de Merelim (São Paio), Panoias e Parada de Tibães",PCTP/MRPP,1.81,28,030374
"União das freguesias de Merelim (São Paio), Panoias e Parada de Tibães",NC,1.75,27,030374
"União das freguesias de Merelim (São Paio), Panoias e Parada de Tibães",PPM.PPV/CDC,1.42,22,030374
"União das freguesias de Merelim (São Paio), Panoias e Parada de Tibães",L,1.36,21,030374
"União das freguesias de Merelim (São Paio), Panoias e Parada de Tibães",A,0.97,15,030374
"União das freguesias de Merelim (São Paio), Panoias e Parada de Tibães",PNR,0.39,6,030374
"União das freguesias de Merelim (São Paio), Panoias e Parada de Tibães",PDR,0.32,5,030374
"União das freguesias de Merelim (São Paio), Panoias e Parada de Tibães",IL,0.26,4,030374
"União das freguesias de Merelim (São Paio), Panoias e Parada de Tibães",MAS,0.19,3,030374
"União das freguesias de Merelim (São Paio), Panoias e Parada de Tibães",PURP,0.19,3,030374
