freguesia,acronym,validVotesPercentage,votes,dicofre
União das freguesias de Aljustrel e Rio de Moinhos,PCP-PEV,40.91,709,020106
União das freguesias de Aljustrel e Rio de Moinhos,PS,36.53,633,020106
União das freguesias de Aljustrel e Rio de Moinhos,B.E.,7.79,135,020106
União das freguesias de Aljustrel e Rio de Moinhos,PPD/PSD,3.52,61,020106
União das freguesias de Aljustrel e Rio de Moinhos,PAN,3.23,56,020106
União das freguesias de Aljustrel e Rio de Moinhos,PCTP/MRPP,1.96,34,020106
União das freguesias de Aljustrel e Rio de Moinhos,PPM.PPV/CDC,1.62,28,020106
União das freguesias de Aljustrel e Rio de Moinhos,CDS-PP,1.5,26,020106
União das freguesias de Aljustrel e Rio de Moinhos,L,0.92,16,020106
União das freguesias de Aljustrel e Rio de Moinhos,NC,0.52,9,020106
União das freguesias de Aljustrel e Rio de Moinhos,A,0.46,8,020106
União das freguesias de Aljustrel e Rio de Moinhos,IL,0.35,6,020106
União das freguesias de Aljustrel e Rio de Moinhos,PDR,0.23,4,020106
União das freguesias de Aljustrel e Rio de Moinhos,PTP,0.17,3,020106
União das freguesias de Aljustrel e Rio de Moinhos,PURP,0.17,3,020106
União das freguesias de Aljustrel e Rio de Moinhos,PNR,0.12,2,020106
União das freguesias de Aljustrel e Rio de Moinhos,MAS,0,0,020106
