freguesia,acronym,validVotesPercentage,votes,dicofre
União das freguesias de Mezio e Moura Morta,PPD/PSD,39.22,60,180324
União das freguesias de Mezio e Moura Morta,PS,22.88,35,180324
União das freguesias de Mezio e Moura Morta,CDS-PP,10.46,16,180324
União das freguesias de Mezio e Moura Morta,PAN,6.54,10,180324
União das freguesias de Mezio e Moura Morta,B.E.,5.23,8,180324
União das freguesias de Mezio e Moura Morta,PURP,3.92,6,180324
União das freguesias de Mezio e Moura Morta,PCP-PEV,3.27,5,180324
União das freguesias de Mezio e Moura Morta,L,2.61,4,180324
União das freguesias de Mezio e Moura Morta,PPM.PPV/CDC,1.96,3,180324
União das freguesias de Mezio e Moura Morta,IL,0.65,1,180324
União das freguesias de Mezio e Moura Morta,MAS,0.65,1,180324
União das freguesias de Mezio e Moura Morta,NC,0.65,1,180324
União das freguesias de Mezio e Moura Morta,PCTP/MRPP,0.65,1,180324
União das freguesias de Mezio e Moura Morta,PDR,0.65,1,180324
União das freguesias de Mezio e Moura Morta,PTP,0.65,1,180324
União das freguesias de Mezio e Moura Morta,A,0,0,180324
União das freguesias de Mezio e Moura Morta,PNR,0,0,180324
