freguesia,acronym,validVotesPercentage,votes,dicofre
"União das freguesias da Mealhada, Ventosa do Bairro e Antes",PS,37.87,640,011109
"União das freguesias da Mealhada, Ventosa do Bairro e Antes",PPD/PSD,24.14,408,011109
"União das freguesias da Mealhada, Ventosa do Bairro e Antes",B.E.,13.73,232,011109
"União das freguesias da Mealhada, Ventosa do Bairro e Antes",CDS-PP,5.92,100,011109
"União das freguesias da Mealhada, Ventosa do Bairro e Antes",PAN,4.85,82,011109
"União das freguesias da Mealhada, Ventosa do Bairro e Antes",PCP-PEV,4.14,70,011109
"União das freguesias da Mealhada, Ventosa do Bairro e Antes",A,1.36,23,011109
"União das freguesias da Mealhada, Ventosa do Bairro e Antes",L,1.36,23,011109
"União das freguesias da Mealhada, Ventosa do Bairro e Antes",PCTP/MRPP,1.36,23,011109
"União das freguesias da Mealhada, Ventosa do Bairro e Antes",PPM.PPV/CDC,1.24,21,011109
"União das freguesias da Mealhada, Ventosa do Bairro e Antes",NC,1.12,19,011109
"União das freguesias da Mealhada, Ventosa do Bairro e Antes",IL,1.07,18,011109
"União das freguesias da Mealhada, Ventosa do Bairro e Antes",PNR,0.53,9,011109
"União das freguesias da Mealhada, Ventosa do Bairro e Antes",PDR,0.47,8,011109
"União das freguesias da Mealhada, Ventosa do Bairro e Antes",PTP,0.41,7,011109
"União das freguesias da Mealhada, Ventosa do Bairro e Antes",PURP,0.36,6,011109
"União das freguesias da Mealhada, Ventosa do Bairro e Antes",MAS,0.06,1,011109
