freguesia,acronym,validVotesPercentage,votes,dicofre
"União das freguesias de Subportela, Deocriste e Portela Susã",PS,38.87,255,160946
"União das freguesias de Subportela, Deocriste e Portela Susã",PPD/PSD,34.91,229,160946
"União das freguesias de Subportela, Deocriste e Portela Susã",B.E.,6.55,43,160946
"União das freguesias de Subportela, Deocriste e Portela Susã",CDS-PP,5.34,35,160946
"União das freguesias de Subportela, Deocriste e Portela Susã",PAN,3.2,21,160946
"União das freguesias de Subportela, Deocriste e Portela Susã",PCP-PEV,2.44,16,160946
"União das freguesias de Subportela, Deocriste e Portela Susã",A,1.52,10,160946
"União das freguesias de Subportela, Deocriste e Portela Susã",L,1.37,9,160946
"União das freguesias de Subportela, Deocriste e Portela Susã",NC,1.07,7,160946
"União das freguesias de Subportela, Deocriste e Portela Susã",PNR,1.07,7,160946
"União das freguesias de Subportela, Deocriste e Portela Susã",PPM.PPV/CDC,1.07,7,160946
"União das freguesias de Subportela, Deocriste e Portela Susã",PCTP/MRPP,0.76,5,160946
"União das freguesias de Subportela, Deocriste e Portela Susã",PDR,0.46,3,160946
"União das freguesias de Subportela, Deocriste e Portela Susã",PTP,0.46,3,160946
"União das freguesias de Subportela, Deocriste e Portela Susã",PURP,0.46,3,160946
"União das freguesias de Subportela, Deocriste e Portela Susã",MAS,0.3,2,160946
"União das freguesias de Subportela, Deocriste e Portela Susã",IL,0.15,1,160946
