freguesia,acronym,validVotesPercentage,votes,dicofre
União das freguesias de Covilhã e Canhoso,PS,42.82,2488,050335
União das freguesias de Covilhã e Canhoso,PPD/PSD,15.87,922,050335
União das freguesias de Covilhã e Canhoso,B.E.,14.68,853,050335
União das freguesias de Covilhã e Canhoso,PCP-PEV,7.35,427,050335
União das freguesias de Covilhã e Canhoso,CDS-PP,5.9,343,050335
União das freguesias de Covilhã e Canhoso,PAN,4.25,247,050335
União das freguesias de Covilhã e Canhoso,A,2.56,149,050335
União das freguesias de Covilhã e Canhoso,L,1.72,100,050335
União das freguesias de Covilhã e Canhoso,NC,1.12,65,050335
União das freguesias de Covilhã e Canhoso,PPM.PPV/CDC,1.02,59,050335
União das freguesias de Covilhã e Canhoso,PCTP/MRPP,0.77,45,050335
União das freguesias de Covilhã e Canhoso,IL,0.53,31,050335
União das freguesias de Covilhã e Canhoso,PDR,0.4,23,050335
União das freguesias de Covilhã e Canhoso,PNR,0.36,21,050335
União das freguesias de Covilhã e Canhoso,PURP,0.31,18,050335
União das freguesias de Covilhã e Canhoso,MAS,0.21,12,050335
União das freguesias de Covilhã e Canhoso,PTP,0.14,8,050335
