freguesia,acronym,validVotesPercentage,votes,dicofre
"União das freguesias de Cristelos, Boim e Ordem",PS,41.96,798,130528
"União das freguesias de Cristelos, Boim e Ordem",PPD/PSD,27.55,524,130528
"União das freguesias de Cristelos, Boim e Ordem",B.E.,8.52,162,130528
"União das freguesias de Cristelos, Boim e Ordem",CDS-PP,4.99,95,130528
"União das freguesias de Cristelos, Boim e Ordem",PAN,4.63,88,130528
"União das freguesias de Cristelos, Boim e Ordem",PCP-PEV,2.63,50,130528
"União das freguesias de Cristelos, Boim e Ordem",L,2,38,130528
"União das freguesias de Cristelos, Boim e Ordem",A,1.63,31,130528
"União das freguesias de Cristelos, Boim e Ordem",NC,1.42,27,130528
"União das freguesias de Cristelos, Boim e Ordem",IL,1.1,21,130528
"União das freguesias de Cristelos, Boim e Ordem",PPM.PPV/CDC,0.79,15,130528
"União das freguesias de Cristelos, Boim e Ordem",PNR,0.58,11,130528
"União das freguesias de Cristelos, Boim e Ordem",PURP,0.58,11,130528
"União das freguesias de Cristelos, Boim e Ordem",PCTP/MRPP,0.47,9,130528
"União das freguesias de Cristelos, Boim e Ordem",PDR,0.47,9,130528
"União das freguesias de Cristelos, Boim e Ordem",PTP,0.37,7,130528
"União das freguesias de Cristelos, Boim e Ordem",MAS,0.32,6,130528
