freguesia,acronym,validVotesPercentage,votes,dicofre
União das freguesias de Vilar de Perdizes e Meixide,PS,52.83,84,170643
União das freguesias de Vilar de Perdizes e Meixide,PPD/PSD,37.11,59,170643
União das freguesias de Vilar de Perdizes e Meixide,A,1.26,2,170643
União das freguesias de Vilar de Perdizes e Meixide,B.E.,1.26,2,170643
União das freguesias de Vilar de Perdizes e Meixide,L,1.26,2,170643
União das freguesias de Vilar de Perdizes e Meixide,MAS,1.26,2,170643
União das freguesias de Vilar de Perdizes e Meixide,PAN,1.26,2,170643
União das freguesias de Vilar de Perdizes e Meixide,PCP-PEV,1.26,2,170643
União das freguesias de Vilar de Perdizes e Meixide,CDS-PP,0.63,1,170643
União das freguesias de Vilar de Perdizes e Meixide,NC,0.63,1,170643
União das freguesias de Vilar de Perdizes e Meixide,PCTP/MRPP,0.63,1,170643
União das freguesias de Vilar de Perdizes e Meixide,PPM.PPV/CDC,0.63,1,170643
União das freguesias de Vilar de Perdizes e Meixide,IL,0,0,170643
União das freguesias de Vilar de Perdizes e Meixide,PDR,0,0,170643
União das freguesias de Vilar de Perdizes e Meixide,PNR,0,0,170643
União das freguesias de Vilar de Perdizes e Meixide,PTP,0,0,170643
União das freguesias de Vilar de Perdizes e Meixide,PURP,0,0,170643
