freguesia,acronym,validVotesPercentage,votes,dicofre
União das freguesias de Alvados e Alcaria,PPD/PSD,52.26,150,101615
União das freguesias de Alvados e Alcaria,PS,14.98,43,101615
União das freguesias de Alvados e Alcaria,CDS-PP,11.85,34,101615
União das freguesias de Alvados e Alcaria,PAN,4.88,14,101615
União das freguesias de Alvados e Alcaria,B.E.,4.53,13,101615
União das freguesias de Alvados e Alcaria,L,1.74,5,101615
União das freguesias de Alvados e Alcaria,PCP-PEV,1.74,5,101615
União das freguesias de Alvados e Alcaria,PNR,1.74,5,101615
União das freguesias de Alvados e Alcaria,A,1.39,4,101615
União das freguesias de Alvados e Alcaria,IL,1.39,4,101615
União das freguesias de Alvados e Alcaria,MAS,1.05,3,101615
União das freguesias de Alvados e Alcaria,PPM.PPV/CDC,1.05,3,101615
União das freguesias de Alvados e Alcaria,PTP,0.7,2,101615
União das freguesias de Alvados e Alcaria,NC,0.35,1,101615
União das freguesias de Alvados e Alcaria,PCTP/MRPP,0.35,1,101615
União das freguesias de Alvados e Alcaria,PDR,0,0,101615
União das freguesias de Alvados e Alcaria,PURP,0,0,101615
