freguesia,acronym,validVotesPercentage,votes,dicofre
União das freguesias de Recardães e Espinhel,PS,41.75,660,010124
União das freguesias de Recardães e Espinhel,PPD/PSD,28.27,447,010124
União das freguesias de Recardães e Espinhel,B.E.,9.04,143,010124
União das freguesias de Recardães e Espinhel,CDS-PP,5.88,93,010124
União das freguesias de Recardães e Espinhel,PAN,3.61,57,010124
União das freguesias de Recardães e Espinhel,PCP-PEV,3.54,56,010124
União das freguesias de Recardães e Espinhel,NC,1.39,22,010124
União das freguesias de Recardães e Espinhel,L,1.33,21,010124
União das freguesias de Recardães e Espinhel,PPM.PPV/CDC,1.08,17,010124
União das freguesias de Recardães e Espinhel,A,0.82,13,010124
União das freguesias de Recardães e Espinhel,IL,0.7,11,010124
União das freguesias de Recardães e Espinhel,PDR,0.63,10,010124
União das freguesias de Recardães e Espinhel,PURP,0.63,10,010124
União das freguesias de Recardães e Espinhel,PCTP/MRPP,0.57,9,010124
União das freguesias de Recardães e Espinhel,PNR,0.32,5,010124
União das freguesias de Recardães e Espinhel,PTP,0.25,4,010124
União das freguesias de Recardães e Espinhel,MAS,0.19,3,010124
