freguesia,acronym,validVotesPercentage,votes,dicofre
União das freguesias de Mazedo e Cortes,PPD/PSD,34.5,247,160436
União das freguesias de Mazedo e Cortes,PS,33.38,239,160436
União das freguesias de Mazedo e Cortes,B.E.,10.34,74,160436
União das freguesias de Mazedo e Cortes,CDS-PP,5.73,41,160436
União das freguesias de Mazedo e Cortes,PAN,4.89,35,160436
União das freguesias de Mazedo e Cortes,PCP-PEV,2.23,16,160436
União das freguesias de Mazedo e Cortes,PPM.PPV/CDC,1.96,14,160436
União das freguesias de Mazedo e Cortes,L,1.54,11,160436
União das freguesias de Mazedo e Cortes,A,0.84,6,160436
União das freguesias de Mazedo e Cortes,NC,0.84,6,160436
União das freguesias de Mazedo e Cortes,PDR,0.7,5,160436
União das freguesias de Mazedo e Cortes,PNR,0.7,5,160436
União das freguesias de Mazedo e Cortes,IL,0.56,4,160436
União das freguesias de Mazedo e Cortes,PCTP/MRPP,0.56,4,160436
União das freguesias de Mazedo e Cortes,PURP,0.56,4,160436
União das freguesias de Mazedo e Cortes,PTP,0.42,3,160436
União das freguesias de Mazedo e Cortes,MAS,0.28,2,160436
