freguesia,acronym,validVotesPercentage,votes,dicofre
União das freguesias de São Manços e São Vicente do Pigeiro,PS,57.91,183,070526
União das freguesias de São Manços e São Vicente do Pigeiro,PCP-PEV,19.62,62,070526
União das freguesias de São Manços e São Vicente do Pigeiro,PPD/PSD,11.39,36,070526
União das freguesias de São Manços e São Vicente do Pigeiro,B.E.,2.53,8,070526
União das freguesias de São Manços e São Vicente do Pigeiro,CDS-PP,2.53,8,070526
União das freguesias de São Manços e São Vicente do Pigeiro,PCTP/MRPP,2.53,8,070526
União das freguesias de São Manços e São Vicente do Pigeiro,A,0.63,2,070526
União das freguesias de São Manços e São Vicente do Pigeiro,PAN,0.63,2,070526
União das freguesias de São Manços e São Vicente do Pigeiro,PPM.PPV/CDC,0.63,2,070526
União das freguesias de São Manços e São Vicente do Pigeiro,PURP,0.63,2,070526
União das freguesias de São Manços e São Vicente do Pigeiro,IL,0.32,1,070526
União das freguesias de São Manços e São Vicente do Pigeiro,L,0.32,1,070526
União das freguesias de São Manços e São Vicente do Pigeiro,PNR,0.32,1,070526
União das freguesias de São Manços e São Vicente do Pigeiro,MAS,0,0,070526
União das freguesias de São Manços e São Vicente do Pigeiro,NC,0,0,070526
União das freguesias de São Manços e São Vicente do Pigeiro,PDR,0,0,070526
União das freguesias de São Manços e São Vicente do Pigeiro,PTP,0,0,070526
