freguesia,acronym,validVotesPercentage,votes,dicofre
União das freguesias de Fornelo e Vairão,PS,42.71,284,131632
União das freguesias de Fornelo e Vairão,PPD/PSD,29.62,197,131632
União das freguesias de Fornelo e Vairão,B.E.,8.87,59,131632
União das freguesias de Fornelo e Vairão,CDS-PP,5.26,35,131632
União das freguesias de Fornelo e Vairão,PAN,4.66,31,131632
União das freguesias de Fornelo e Vairão,PCP-PEV,1.65,11,131632
União das freguesias de Fornelo e Vairão,A,1.2,8,131632
União das freguesias de Fornelo e Vairão,L,1.05,7,131632
União das freguesias de Fornelo e Vairão,PPM.PPV/CDC,1.05,7,131632
União das freguesias de Fornelo e Vairão,NC,0.9,6,131632
União das freguesias de Fornelo e Vairão,IL,0.75,5,131632
União das freguesias de Fornelo e Vairão,PURP,0.75,5,131632
União das freguesias de Fornelo e Vairão,PNR,0.45,3,131632
União das freguesias de Fornelo e Vairão,MAS,0.3,2,131632
União das freguesias de Fornelo e Vairão,PCTP/MRPP,0.3,2,131632
União das freguesias de Fornelo e Vairão,PTP,0.3,2,131632
União das freguesias de Fornelo e Vairão,PDR,0.15,1,131632
