freguesia,acronym,validVotesPercentage,votes,dicofre
União das freguesias de Peso e Vales do Rio,PS,47.39,218,050336
União das freguesias de Peso e Vales do Rio,PPD/PSD,17.61,81,050336
União das freguesias de Peso e Vales do Rio,CDS-PP,7.61,35,050336
União das freguesias de Peso e Vales do Rio,PCP-PEV,7.39,34,050336
União das freguesias de Peso e Vales do Rio,B.E.,5.87,27,050336
União das freguesias de Peso e Vales do Rio,A,4.35,20,050336
União das freguesias de Peso e Vales do Rio,PAN,3.04,14,050336
União das freguesias de Peso e Vales do Rio,PCTP/MRPP,1.52,7,050336
União das freguesias de Peso e Vales do Rio,PPM.PPV/CDC,1.3,6,050336
União das freguesias de Peso e Vales do Rio,PDR,0.87,4,050336
União das freguesias de Peso e Vales do Rio,NC,0.65,3,050336
União das freguesias de Peso e Vales do Rio,PTP,0.65,3,050336
União das freguesias de Peso e Vales do Rio,L,0.43,2,050336
União das freguesias de Peso e Vales do Rio,MAS,0.43,2,050336
União das freguesias de Peso e Vales do Rio,PNR,0.43,2,050336
União das freguesias de Peso e Vales do Rio,PURP,0.43,2,050336
União das freguesias de Peso e Vales do Rio,IL,0,0,050336
