freguesia,acronym,validVotesPercentage,votes,dicofre
"União das freguesias de Agrobom, Saldonha e Vale Pereiro",PS,47.97,59,040121
"União das freguesias de Agrobom, Saldonha e Vale Pereiro",PPD/PSD,35.77,44,040121
"União das freguesias de Agrobom, Saldonha e Vale Pereiro",CDS-PP,4.88,6,040121
"União das freguesias de Agrobom, Saldonha e Vale Pereiro",B.E.,3.25,4,040121
"União das freguesias de Agrobom, Saldonha e Vale Pereiro",PCP-PEV,3.25,4,040121
"União das freguesias de Agrobom, Saldonha e Vale Pereiro",PCTP/MRPP,2.44,3,040121
"União das freguesias de Agrobom, Saldonha e Vale Pereiro",IL,0.81,1,040121
"União das freguesias de Agrobom, Saldonha e Vale Pereiro",NC,0.81,1,040121
"União das freguesias de Agrobom, Saldonha e Vale Pereiro",PURP,0.81,1,040121
"União das freguesias de Agrobom, Saldonha e Vale Pereiro",A,0,0,040121
"União das freguesias de Agrobom, Saldonha e Vale Pereiro",L,0,0,040121
"União das freguesias de Agrobom, Saldonha e Vale Pereiro",MAS,0,0,040121
"União das freguesias de Agrobom, Saldonha e Vale Pereiro",PAN,0,0,040121
"União das freguesias de Agrobom, Saldonha e Vale Pereiro",PDR,0,0,040121
"União das freguesias de Agrobom, Saldonha e Vale Pereiro",PNR,0,0,040121
"União das freguesias de Agrobom, Saldonha e Vale Pereiro",PPM.PPV/CDC,0,0,040121
"União das freguesias de Agrobom, Saldonha e Vale Pereiro",PTP,0,0,040121
