freguesia,acronym,validVotesPercentage,votes,dicofre
União das freguesias de Carvalhal Redondo e Aguieira,PS,43.26,170,180910
União das freguesias de Carvalhal Redondo e Aguieira,PPD/PSD,29.52,116,180910
União das freguesias de Carvalhal Redondo e Aguieira,B.E.,8.4,33,180910
União das freguesias de Carvalhal Redondo e Aguieira,CDS-PP,8.14,32,180910
União das freguesias de Carvalhal Redondo e Aguieira,PAN,2.8,11,180910
União das freguesias de Carvalhal Redondo e Aguieira,PCP-PEV,2.29,9,180910
União das freguesias de Carvalhal Redondo e Aguieira,A,1.53,6,180910
União das freguesias de Carvalhal Redondo e Aguieira,PDR,0.76,3,180910
União das freguesias de Carvalhal Redondo e Aguieira,PPM.PPV/CDC,0.76,3,180910
União das freguesias de Carvalhal Redondo e Aguieira,IL,0.51,2,180910
União das freguesias de Carvalhal Redondo e Aguieira,NC,0.51,2,180910
União das freguesias de Carvalhal Redondo e Aguieira,PCTP/MRPP,0.51,2,180910
União das freguesias de Carvalhal Redondo e Aguieira,L,0.25,1,180910
União das freguesias de Carvalhal Redondo e Aguieira,PNR,0.25,1,180910
União das freguesias de Carvalhal Redondo e Aguieira,PTP,0.25,1,180910
União das freguesias de Carvalhal Redondo e Aguieira,PURP,0.25,1,180910
União das freguesias de Carvalhal Redondo e Aguieira,MAS,0,0,180910
