freguesia,acronym,validVotesPercentage,votes,dicofre
União das freguesias de Cadafaz e Colmeal,PS,51.09,47,060606
União das freguesias de Cadafaz e Colmeal,PPD/PSD,21.74,20,060606
União das freguesias de Cadafaz e Colmeal,B.E.,13.04,12,060606
União das freguesias de Cadafaz e Colmeal,PAN,4.35,4,060606
União das freguesias de Cadafaz e Colmeal,CDS-PP,2.17,2,060606
União das freguesias de Cadafaz e Colmeal,PCP-PEV,2.17,2,060606
União das freguesias de Cadafaz e Colmeal,IL,1.09,1,060606
União das freguesias de Cadafaz e Colmeal,L,1.09,1,060606
União das freguesias de Cadafaz e Colmeal,MAS,1.09,1,060606
União das freguesias de Cadafaz e Colmeal,PCTP/MRPP,1.09,1,060606
União das freguesias de Cadafaz e Colmeal,PDR,1.09,1,060606
União das freguesias de Cadafaz e Colmeal,A,0,0,060606
União das freguesias de Cadafaz e Colmeal,NC,0,0,060606
União das freguesias de Cadafaz e Colmeal,PNR,0,0,060606
União das freguesias de Cadafaz e Colmeal,PPM.PPV/CDC,0,0,060606
União das freguesias de Cadafaz e Colmeal,PTP,0,0,060606
União das freguesias de Cadafaz e Colmeal,PURP,0,0,060606
