freguesia,acronym,validVotesPercentage,votes,dicofre
União das freguesias de Chamoim e Vilar,PPD/PSD,42.36,61,031018
União das freguesias de Chamoim e Vilar,PS,26.39,38,031018
União das freguesias de Chamoim e Vilar,A,8.33,12,031018
União das freguesias de Chamoim e Vilar,PCP-PEV,7.64,11,031018
União das freguesias de Chamoim e Vilar,CDS-PP,4.17,6,031018
União das freguesias de Chamoim e Vilar,B.E.,2.08,3,031018
União das freguesias de Chamoim e Vilar,L,2.08,3,031018
União das freguesias de Chamoim e Vilar,PAN,2.08,3,031018
União das freguesias de Chamoim e Vilar,NC,1.39,2,031018
União das freguesias de Chamoim e Vilar,PTP,1.39,2,031018
União das freguesias de Chamoim e Vilar,MAS,0.69,1,031018
União das freguesias de Chamoim e Vilar,PDR,0.69,1,031018
União das freguesias de Chamoim e Vilar,PPM.PPV/CDC,0.69,1,031018
União das freguesias de Chamoim e Vilar,IL,0,0,031018
União das freguesias de Chamoim e Vilar,PCTP/MRPP,0,0,031018
União das freguesias de Chamoim e Vilar,PNR,0,0,031018
União das freguesias de Chamoim e Vilar,PURP,0,0,031018
