freguesia,acronym,validVotesPercentage,votes,dicofre
União das freguesias de Nogueiró e Tenões,PS,26.38,530,030378
União das freguesias de Nogueiró e Tenões,PPD/PSD,25.58,514,030378
União das freguesias de Nogueiró e Tenões,B.E.,13.44,270,030378
União das freguesias de Nogueiró e Tenões,CDS-PP,7.42,149,030378
União das freguesias de Nogueiró e Tenões,PAN,6.62,133,030378
União das freguesias de Nogueiró e Tenões,PCP-PEV,6.12,123,030378
União das freguesias de Nogueiró e Tenões,L,4.63,93,030378
União das freguesias de Nogueiró e Tenões,A,3.04,61,030378
União das freguesias de Nogueiró e Tenões,NC,2.09,42,030378
União das freguesias de Nogueiró e Tenões,IL,1.79,36,030378
União das freguesias de Nogueiró e Tenões,PPM.PPV/CDC,1.19,24,030378
União das freguesias de Nogueiró e Tenões,PCTP/MRPP,0.55,11,030378
União das freguesias de Nogueiró e Tenões,PURP,0.45,9,030378
União das freguesias de Nogueiró e Tenões,PNR,0.35,7,030378
União das freguesias de Nogueiró e Tenões,PDR,0.2,4,030378
União das freguesias de Nogueiró e Tenões,MAS,0.15,3,030378
União das freguesias de Nogueiró e Tenões,PTP,0,0,030378
