freguesia,acronym,validVotesPercentage,votes,dicofre
União das freguesias de Chaviães e Paços,PS,69.57,112,160320
União das freguesias de Chaviães e Paços,PPD/PSD,19.25,31,160320
União das freguesias de Chaviães e Paços,CDS-PP,4.35,7,160320
União das freguesias de Chaviães e Paços,B.E.,3.11,5,160320
União das freguesias de Chaviães e Paços,IL,0.62,1,160320
União das freguesias de Chaviães e Paços,L,0.62,1,160320
União das freguesias de Chaviães e Paços,PAN,0.62,1,160320
União das freguesias de Chaviães e Paços,PCTP/MRPP,0.62,1,160320
União das freguesias de Chaviães e Paços,PDR,0.62,1,160320
União das freguesias de Chaviães e Paços,PTP,0.62,1,160320
União das freguesias de Chaviães e Paços,A,0,0,160320
União das freguesias de Chaviães e Paços,MAS,0,0,160320
União das freguesias de Chaviães e Paços,NC,0,0,160320
União das freguesias de Chaviães e Paços,PCP-PEV,0,0,160320
União das freguesias de Chaviães e Paços,PNR,0,0,160320
União das freguesias de Chaviães e Paços,PPM.PPV/CDC,0,0,160320
União das freguesias de Chaviães e Paços,PURP,0,0,160320
