freguesia,acronym,validVotesPercentage,votes,dicofre
"União das freguesias de Lavandeira, Beira Grande e Selores",PPD/PSD,40.79,62,040323
"União das freguesias de Lavandeira, Beira Grande e Selores",PS,34.21,52,040323
"União das freguesias de Lavandeira, Beira Grande e Selores",CDS-PP,8.55,13,040323
"União das freguesias de Lavandeira, Beira Grande e Selores",B.E.,5.26,8,040323
"União das freguesias de Lavandeira, Beira Grande e Selores",A,2.63,4,040323
"União das freguesias de Lavandeira, Beira Grande e Selores",PCP-PEV,1.97,3,040323
"União das freguesias de Lavandeira, Beira Grande e Selores",PPM.PPV/CDC,1.97,3,040323
"União das freguesias de Lavandeira, Beira Grande e Selores",IL,1.32,2,040323
"União das freguesias de Lavandeira, Beira Grande e Selores",L,1.32,2,040323
"União das freguesias de Lavandeira, Beira Grande e Selores",PAN,1.32,2,040323
"União das freguesias de Lavandeira, Beira Grande e Selores",PURP,0.66,1,040323
"União das freguesias de Lavandeira, Beira Grande e Selores",MAS,0,0,040323
"União das freguesias de Lavandeira, Beira Grande e Selores",NC,0,0,040323
"União das freguesias de Lavandeira, Beira Grande e Selores",PCTP/MRPP,0,0,040323
"União das freguesias de Lavandeira, Beira Grande e Selores",PDR,0,0,040323
"União das freguesias de Lavandeira, Beira Grande e Selores",PNR,0,0,040323
"União das freguesias de Lavandeira, Beira Grande e Selores",PTP,0,0,040323
