freguesia,acronym,validVotesPercentage,votes,dicofre
"União das freguesias de Silvares, Pias, Nogueira e Alvarenga",PS,38.2,664,130532
"União das freguesias de Silvares, Pias, Nogueira e Alvarenga",PPD/PSD,30.44,529,130532
"União das freguesias de Silvares, Pias, Nogueira e Alvarenga",B.E.,9.9,172,130532
"União das freguesias de Silvares, Pias, Nogueira e Alvarenga",CDS-PP,5.06,88,130532
"União das freguesias de Silvares, Pias, Nogueira e Alvarenga",PAN,4.95,86,130532
"União das freguesias de Silvares, Pias, Nogueira e Alvarenga",PCP-PEV,2.93,51,130532
"União das freguesias de Silvares, Pias, Nogueira e Alvarenga",L,2.42,42,130532
"União das freguesias de Silvares, Pias, Nogueira e Alvarenga",A,1.27,22,130532
"União das freguesias de Silvares, Pias, Nogueira e Alvarenga",PPM.PPV/CDC,1.21,21,130532
"União das freguesias de Silvares, Pias, Nogueira e Alvarenga",IL,0.75,13,130532
"União das freguesias de Silvares, Pias, Nogueira e Alvarenga",PCTP/MRPP,0.75,13,130532
"União das freguesias de Silvares, Pias, Nogueira e Alvarenga",NC,0.63,11,130532
"União das freguesias de Silvares, Pias, Nogueira e Alvarenga",PNR,0.63,11,130532
"União das freguesias de Silvares, Pias, Nogueira e Alvarenga",PTP,0.4,7,130532
"União das freguesias de Silvares, Pias, Nogueira e Alvarenga",PDR,0.29,5,130532
"União das freguesias de Silvares, Pias, Nogueira e Alvarenga",PURP,0.12,2,130532
"União das freguesias de Silvares, Pias, Nogueira e Alvarenga",MAS,0.06,1,130532
