freguesia,acronym,validVotesPercentage,votes,dicofre
União das freguesias de Foz do Sousa e Covelo,PS,40.41,917,130414
União das freguesias de Foz do Sousa e Covelo,PPD/PSD,26,590,130414
União das freguesias de Foz do Sousa e Covelo,B.E.,9.12,207,130414
União das freguesias de Foz do Sousa e Covelo,PCP-PEV,5.86,133,130414
União das freguesias de Foz do Sousa e Covelo,PAN,5.38,122,130414
União das freguesias de Foz do Sousa e Covelo,CDS-PP,4.67,106,130414
União das freguesias de Foz do Sousa e Covelo,L,1.41,32,130414
União das freguesias de Foz do Sousa e Covelo,A,1.28,29,130414
União das freguesias de Foz do Sousa e Covelo,NC,1.28,29,130414
União das freguesias de Foz do Sousa e Covelo,PPM.PPV/CDC,0.97,22,130414
União das freguesias de Foz do Sousa e Covelo,IL,0.79,18,130414
União das freguesias de Foz do Sousa e Covelo,PCTP/MRPP,0.79,18,130414
União das freguesias de Foz do Sousa e Covelo,PNR,0.71,16,130414
União das freguesias de Foz do Sousa e Covelo,PURP,0.53,12,130414
União das freguesias de Foz do Sousa e Covelo,PDR,0.48,11,130414
União das freguesias de Foz do Sousa e Covelo,PTP,0.22,5,130414
União das freguesias de Foz do Sousa e Covelo,MAS,0.09,2,130414
