freguesia,acronym,validVotesPercentage,votes,dicofre
União das freguesias de Podence e Santa Combinha,PS,44.96,58,040543
União das freguesias de Podence e Santa Combinha,PPD/PSD,25.58,33,040543
União das freguesias de Podence e Santa Combinha,CDS-PP,17.83,23,040543
União das freguesias de Podence e Santa Combinha,B.E.,6.2,8,040543
União das freguesias de Podence e Santa Combinha,PAN,3.1,4,040543
União das freguesias de Podence e Santa Combinha,PCP-PEV,1.55,2,040543
União das freguesias de Podence e Santa Combinha,PNR,0.78,1,040543
União das freguesias de Podence e Santa Combinha,A,0,0,040543
União das freguesias de Podence e Santa Combinha,IL,0,0,040543
União das freguesias de Podence e Santa Combinha,L,0,0,040543
União das freguesias de Podence e Santa Combinha,MAS,0,0,040543
União das freguesias de Podence e Santa Combinha,NC,0,0,040543
União das freguesias de Podence e Santa Combinha,PCTP/MRPP,0,0,040543
União das freguesias de Podence e Santa Combinha,PDR,0,0,040543
União das freguesias de Podence e Santa Combinha,PPM.PPV/CDC,0,0,040543
União das freguesias de Podence e Santa Combinha,PTP,0,0,040543
União das freguesias de Podence e Santa Combinha,PURP,0,0,040543
