freguesia,acronym,validVotesPercentage,votes,dicofre
União das freguesias de Campos e Vila Meã,PS,41.52,142,161016
União das freguesias de Campos e Vila Meã,PPD/PSD,25.73,88,161016
União das freguesias de Campos e Vila Meã,B.E.,9.65,33,161016
União das freguesias de Campos e Vila Meã,CDS-PP,8.19,28,161016
União das freguesias de Campos e Vila Meã,PAN,4.09,14,161016
União das freguesias de Campos e Vila Meã,NC,2.34,8,161016
União das freguesias de Campos e Vila Meã,PCP-PEV,2.05,7,161016
União das freguesias de Campos e Vila Meã,PNR,1.17,4,161016
União das freguesias de Campos e Vila Meã,PPM.PPV/CDC,1.17,4,161016
União das freguesias de Campos e Vila Meã,A,0.88,3,161016
União das freguesias de Campos e Vila Meã,L,0.88,3,161016
União das freguesias de Campos e Vila Meã,PCTP/MRPP,0.88,3,161016
União das freguesias de Campos e Vila Meã,PDR,0.88,3,161016
União das freguesias de Campos e Vila Meã,PURP,0.58,2,161016
União das freguesias de Campos e Vila Meã,IL,0,0,161016
União das freguesias de Campos e Vila Meã,MAS,0,0,161016
União das freguesias de Campos e Vila Meã,PTP,0,0,161016
