freguesia,acronym,validVotesPercentage,votes,dicofre
União das freguesias de Pataias e Martingança,PS,42.44,800,100123
União das freguesias de Pataias e Martingança,PPD/PSD,21.27,401,100123
União das freguesias de Pataias e Martingança,B.E.,10.61,200,100123
União das freguesias de Pataias e Martingança,PCP-PEV,6.84,129,100123
União das freguesias de Pataias e Martingança,PAN,4.99,94,100123
União das freguesias de Pataias e Martingança,CDS-PP,4.14,78,100123
União das freguesias de Pataias e Martingança,A,1.7,32,100123
União das freguesias de Pataias e Martingança,L,1.54,29,100123
União das freguesias de Pataias e Martingança,PPM.PPV/CDC,1.43,27,100123
União das freguesias de Pataias e Martingança,PCTP/MRPP,1.06,20,100123
União das freguesias de Pataias e Martingança,IL,0.9,17,100123
União das freguesias de Pataias e Martingança,NC,0.9,17,100123
União das freguesias de Pataias e Martingança,PDR,0.64,12,100123
União das freguesias de Pataias e Martingança,PNR,0.58,11,100123
União das freguesias de Pataias e Martingança,PURP,0.53,10,100123
União das freguesias de Pataias e Martingança,MAS,0.27,5,100123
União das freguesias de Pataias e Martingança,PTP,0.16,3,100123
