freguesia,acronym,validVotesPercentage,votes,dicofre
União das freguesias de São Tomé do Castelo e Justes,PPD/PSD,44.2,160,171437
União das freguesias de São Tomé do Castelo e Justes,PS,27.9,101,171437
União das freguesias de São Tomé do Castelo e Justes,B.E.,6.35,23,171437
União das freguesias de São Tomé do Castelo e Justes,CDS-PP,5.25,19,171437
União das freguesias de São Tomé do Castelo e Justes,A,3.31,12,171437
União das freguesias de São Tomé do Castelo e Justes,PAN,3.31,12,171437
União das freguesias de São Tomé do Castelo e Justes,L,2.21,8,171437
União das freguesias de São Tomé do Castelo e Justes,PCP-PEV,2.21,8,171437
União das freguesias de São Tomé do Castelo e Justes,PPM.PPV/CDC,1.38,5,171437
União das freguesias de São Tomé do Castelo e Justes,PURP,1.1,4,171437
União das freguesias de São Tomé do Castelo e Justes,PCTP/MRPP,0.83,3,171437
União das freguesias de São Tomé do Castelo e Justes,NC,0.55,2,171437
União das freguesias de São Tomé do Castelo e Justes,PTP,0.55,2,171437
União das freguesias de São Tomé do Castelo e Justes,MAS,0.28,1,171437
União das freguesias de São Tomé do Castelo e Justes,PDR,0.28,1,171437
União das freguesias de São Tomé do Castelo e Justes,PNR,0.28,1,171437
União das freguesias de São Tomé do Castelo e Justes,IL,0,0,171437
