freguesia,acronym,validVotesPercentage,votes,dicofre
"União das freguesias de Barcelos, Vila Boa e Vila Frescainha (São Martinho e São Pedro)",PS,36.95,1530,030293
"União das freguesias de Barcelos, Vila Boa e Vila Frescainha (São Martinho e São Pedro)",PPD/PSD,25.31,1048,030293
"União das freguesias de Barcelos, Vila Boa e Vila Frescainha (São Martinho e São Pedro)",B.E.,12.53,519,030293
"União das freguesias de Barcelos, Vila Boa e Vila Frescainha (São Martinho e São Pedro)",CDS-PP,5.75,238,030293
"União das freguesias de Barcelos, Vila Boa e Vila Frescainha (São Martinho e São Pedro)",PAN,4.76,197,030293
"União das freguesias de Barcelos, Vila Boa e Vila Frescainha (São Martinho e São Pedro)",PCP-PEV,4.11,170,030293
"União das freguesias de Barcelos, Vila Boa e Vila Frescainha (São Martinho e São Pedro)",MAS,2.87,119,030293
"União das freguesias de Barcelos, Vila Boa e Vila Frescainha (São Martinho e São Pedro)",L,1.59,66,030293
"União das freguesias de Barcelos, Vila Boa e Vila Frescainha (São Martinho e São Pedro)",A,1.23,51,030293
"União das freguesias de Barcelos, Vila Boa e Vila Frescainha (São Martinho e São Pedro)",NC,1.16,48,030293
"União das freguesias de Barcelos, Vila Boa e Vila Frescainha (São Martinho e São Pedro)",IL,1.09,45,030293
"União das freguesias de Barcelos, Vila Boa e Vila Frescainha (São Martinho e São Pedro)",PDR,0.63,26,030293
"União das freguesias de Barcelos, Vila Boa e Vila Frescainha (São Martinho e São Pedro)",PPM.PPV/CDC,0.58,24,030293
"União das freguesias de Barcelos, Vila Boa e Vila Frescainha (São Martinho e São Pedro)",PCTP/MRPP,0.43,18,030293
"União das freguesias de Barcelos, Vila Boa e Vila Frescainha (São Martinho e São Pedro)",PNR,0.43,18,030293
"União das freguesias de Barcelos, Vila Boa e Vila Frescainha (São Martinho e São Pedro)",PURP,0.43,18,030293
"União das freguesias de Barcelos, Vila Boa e Vila Frescainha (São Martinho e São Pedro)",PTP,0.14,6,030293
