freguesia,acronym,validVotesPercentage,votes,dicofre
União das freguesias de São Martinho das Moitas e Covas do Rio,PS,50.43,58,181622
União das freguesias de São Martinho das Moitas e Covas do Rio,PPD/PSD,28.7,33,181622
União das freguesias de São Martinho das Moitas e Covas do Rio,B.E.,9.57,11,181622
União das freguesias de São Martinho das Moitas e Covas do Rio,A,1.74,2,181622
União das freguesias de São Martinho das Moitas e Covas do Rio,L,1.74,2,181622
União das freguesias de São Martinho das Moitas e Covas do Rio,PAN,1.74,2,181622
União das freguesias de São Martinho das Moitas e Covas do Rio,PCP-PEV,1.74,2,181622
União das freguesias de São Martinho das Moitas e Covas do Rio,PPM.PPV/CDC,1.74,2,181622
União das freguesias de São Martinho das Moitas e Covas do Rio,CDS-PP,0.87,1,181622
União das freguesias de São Martinho das Moitas e Covas do Rio,PCTP/MRPP,0.87,1,181622
União das freguesias de São Martinho das Moitas e Covas do Rio,PDR,0.87,1,181622
União das freguesias de São Martinho das Moitas e Covas do Rio,IL,0,0,181622
União das freguesias de São Martinho das Moitas e Covas do Rio,MAS,0,0,181622
União das freguesias de São Martinho das Moitas e Covas do Rio,NC,0,0,181622
União das freguesias de São Martinho das Moitas e Covas do Rio,PNR,0,0,181622
União das freguesias de São Martinho das Moitas e Covas do Rio,PTP,0,0,181622
União das freguesias de São Martinho das Moitas e Covas do Rio,PURP,0,0,181622
