freguesia,acronym,validVotesPercentage,votes,dicofre
"União das freguesias de Viatodos, Grimancelos, Minhotães e Monte de Fralães",PPD/PSD,38.53,526,0302FG
"União das freguesias de Viatodos, Grimancelos, Minhotães e Monte de Fralães",PS,34.58,472,0302FG
"União das freguesias de Viatodos, Grimancelos, Minhotães e Monte de Fralães",CDS-PP,10.18,139,0302FG
"União das freguesias de Viatodos, Grimancelos, Minhotães e Monte de Fralães",B.E.,7.25,99,0302FG
"União das freguesias de Viatodos, Grimancelos, Minhotães e Monte de Fralães",PAN,3.08,42,0302FG
"União das freguesias de Viatodos, Grimancelos, Minhotães e Monte de Fralães",PCP-PEV,1.39,19,0302FG
"União das freguesias de Viatodos, Grimancelos, Minhotães e Monte de Fralães",L,0.95,13,0302FG
"União das freguesias de Viatodos, Grimancelos, Minhotães e Monte de Fralães",A,0.81,11,0302FG
"União das freguesias de Viatodos, Grimancelos, Minhotães e Monte de Fralães",NC,0.73,10,0302FG
"União das freguesias de Viatodos, Grimancelos, Minhotães e Monte de Fralães",PCTP/MRPP,0.44,6,0302FG
"União das freguesias de Viatodos, Grimancelos, Minhotães e Monte de Fralães",PDR,0.44,6,0302FG
"União das freguesias de Viatodos, Grimancelos, Minhotães e Monte de Fralães",PPM.PPV/CDC,0.44,6,0302FG
"União das freguesias de Viatodos, Grimancelos, Minhotães e Monte de Fralães",IL,0.37,5,0302FG
"União das freguesias de Viatodos, Grimancelos, Minhotães e Monte de Fralães",PNR,0.29,4,0302FG
"União das freguesias de Viatodos, Grimancelos, Minhotães e Monte de Fralães",MAS,0.22,3,0302FG
"União das freguesias de Viatodos, Grimancelos, Minhotães e Monte de Fralães",PURP,0.22,3,0302FG
"União das freguesias de Viatodos, Grimancelos, Minhotães e Monte de Fralães",PTP,0.07,1,0302FG
