freguesia,acronym,validVotesPercentage,votes,dicofre
União das freguesias de Castanheira de Pêra e Coentral,PS,49.78,455,100703
União das freguesias de Castanheira de Pêra e Coentral,PPD/PSD,23.19,212,100703
União das freguesias de Castanheira de Pêra e Coentral,B.E.,8.97,82,100703
União das freguesias de Castanheira de Pêra e Coentral,PAN,4.7,43,100703
União das freguesias de Castanheira de Pêra e Coentral,CDS-PP,4.38,40,100703
União das freguesias de Castanheira de Pêra e Coentral,PCP-PEV,2.63,24,100703
União das freguesias de Castanheira de Pêra e Coentral,A,1.86,17,100703
União das freguesias de Castanheira de Pêra e Coentral,PCTP/MRPP,0.88,8,100703
União das freguesias de Castanheira de Pêra e Coentral,PPM.PPV/CDC,0.88,8,100703
União das freguesias de Castanheira de Pêra e Coentral,NC,0.77,7,100703
União das freguesias de Castanheira de Pêra e Coentral,PURP,0.66,6,100703
União das freguesias de Castanheira de Pêra e Coentral,IL,0.33,3,100703
União das freguesias de Castanheira de Pêra e Coentral,PTP,0.33,3,100703
União das freguesias de Castanheira de Pêra e Coentral,PDR,0.22,2,100703
União das freguesias de Castanheira de Pêra e Coentral,PNR,0.22,2,100703
União das freguesias de Castanheira de Pêra e Coentral,L,0.11,1,100703
União das freguesias de Castanheira de Pêra e Coentral,MAS,0.11,1,100703
