freguesia,acronym,validVotesPercentage,votes,dicofre
"União das freguesias de Vale (São Cosme), Telhado e Portela",PS,32.78,589,031259
"União das freguesias de Vale (São Cosme), Telhado e Portela",PPD/PSD,29.49,530,031259
"União das freguesias de Vale (São Cosme), Telhado e Portela",CDS-PP,19.2,345,031259
"União das freguesias de Vale (São Cosme), Telhado e Portela",B.E.,6.4,115,031259
"União das freguesias de Vale (São Cosme), Telhado e Portela",PCP-PEV,2.89,52,031259
"União das freguesias de Vale (São Cosme), Telhado e Portela",PAN,2.84,51,031259
"União das freguesias de Vale (São Cosme), Telhado e Portela",PPM.PPV/CDC,1.11,20,031259
"União das freguesias de Vale (São Cosme), Telhado e Portela",PDR,0.95,17,031259
"União das freguesias de Vale (São Cosme), Telhado e Portela",NC,0.78,14,031259
"União das freguesias de Vale (São Cosme), Telhado e Portela",PCTP/MRPP,0.67,12,031259
"União das freguesias de Vale (São Cosme), Telhado e Portela",A,0.61,11,031259
"União das freguesias de Vale (São Cosme), Telhado e Portela",L,0.61,11,031259
"União das freguesias de Vale (São Cosme), Telhado e Portela",IL,0.56,10,031259
"União das freguesias de Vale (São Cosme), Telhado e Portela",PTP,0.33,6,031259
"União das freguesias de Vale (São Cosme), Telhado e Portela",PURP,0.33,6,031259
"União das freguesias de Vale (São Cosme), Telhado e Portela",MAS,0.28,5,031259
"União das freguesias de Vale (São Cosme), Telhado e Portela",PNR,0.17,3,031259
