freguesia,acronym,validVotesPercentage,votes,dicofre
União das freguesias de Vila Cova de Alva e Anseriz,PS,56.52,104,060122
União das freguesias de Vila Cova de Alva e Anseriz,PPD/PSD,23.91,44,060122
União das freguesias de Vila Cova de Alva e Anseriz,B.E.,7.07,13,060122
União das freguesias de Vila Cova de Alva e Anseriz,PAN,4.35,8,060122
União das freguesias de Vila Cova de Alva e Anseriz,CDS-PP,2.17,4,060122
União das freguesias de Vila Cova de Alva e Anseriz,PCP-PEV,2.17,4,060122
União das freguesias de Vila Cova de Alva e Anseriz,PPM.PPV/CDC,1.63,3,060122
União das freguesias de Vila Cova de Alva e Anseriz,A,0.54,1,060122
União das freguesias de Vila Cova de Alva e Anseriz,L,0.54,1,060122
União das freguesias de Vila Cova de Alva e Anseriz,PCTP/MRPP,0.54,1,060122
União das freguesias de Vila Cova de Alva e Anseriz,PDR,0.54,1,060122
União das freguesias de Vila Cova de Alva e Anseriz,IL,0,0,060122
União das freguesias de Vila Cova de Alva e Anseriz,MAS,0,0,060122
União das freguesias de Vila Cova de Alva e Anseriz,NC,0,0,060122
União das freguesias de Vila Cova de Alva e Anseriz,PNR,0,0,060122
União das freguesias de Vila Cova de Alva e Anseriz,PTP,0,0,060122
União das freguesias de Vila Cova de Alva e Anseriz,PURP,0,0,060122
