freguesia,acronym,validVotesPercentage,votes,dicofre
União das freguesias de Castrelos e Carrazedo,PPD/PSD,53.97,34,040251
União das freguesias de Castrelos e Carrazedo,B.E.,11.11,7,040251
União das freguesias de Castrelos e Carrazedo,PS,9.52,6,040251
União das freguesias de Castrelos e Carrazedo,PAN,6.35,4,040251
União das freguesias de Castrelos e Carrazedo,CDS-PP,4.76,3,040251
União das freguesias de Castrelos e Carrazedo,PCP-PEV,4.76,3,040251
União das freguesias de Castrelos e Carrazedo,A,1.59,1,040251
União das freguesias de Castrelos e Carrazedo,MAS,1.59,1,040251
União das freguesias de Castrelos e Carrazedo,NC,1.59,1,040251
União das freguesias de Castrelos e Carrazedo,PCTP/MRPP,1.59,1,040251
União das freguesias de Castrelos e Carrazedo,PPM.PPV/CDC,1.59,1,040251
União das freguesias de Castrelos e Carrazedo,PURP,1.59,1,040251
União das freguesias de Castrelos e Carrazedo,IL,0,0,040251
União das freguesias de Castrelos e Carrazedo,L,0,0,040251
União das freguesias de Castrelos e Carrazedo,PDR,0,0,040251
União das freguesias de Castrelos e Carrazedo,PNR,0,0,040251
União das freguesias de Castrelos e Carrazedo,PTP,0,0,040251
