freguesia,acronym,validVotesPercentage,votes,dicofre
"União das freguesias de Crasto, Ruivos e Grovelas",PPD/PSD,43.62,106,160626
"União das freguesias de Crasto, Ruivos e Grovelas",PS,37.04,90,160626
"União das freguesias de Crasto, Ruivos e Grovelas",B.E.,5.35,13,160626
"União das freguesias de Crasto, Ruivos e Grovelas",CDS-PP,3.7,9,160626
"União das freguesias de Crasto, Ruivos e Grovelas",PAN,3.7,9,160626
"União das freguesias de Crasto, Ruivos e Grovelas",PCP-PEV,2.88,7,160626
"União das freguesias de Crasto, Ruivos e Grovelas",PCTP/MRPP,1.23,3,160626
"União das freguesias de Crasto, Ruivos e Grovelas",PTP,0.82,2,160626
"União das freguesias de Crasto, Ruivos e Grovelas",A,0.41,1,160626
"União das freguesias de Crasto, Ruivos e Grovelas",L,0.41,1,160626
"União das freguesias de Crasto, Ruivos e Grovelas",PDR,0.41,1,160626
"União das freguesias de Crasto, Ruivos e Grovelas",PPM.PPV/CDC,0.41,1,160626
"União das freguesias de Crasto, Ruivos e Grovelas",IL,0,0,160626
"União das freguesias de Crasto, Ruivos e Grovelas",MAS,0,0,160626
"União das freguesias de Crasto, Ruivos e Grovelas",NC,0,0,160626
"União das freguesias de Crasto, Ruivos e Grovelas",PNR,0,0,160626
"União das freguesias de Crasto, Ruivos e Grovelas",PURP,0,0,160626
