freguesia,acronym,validVotesPercentage,votes,dicofre
União das freguesias de Lordelo do Ouro e Massarelos,PS,27.83,3057,131218
União das freguesias de Lordelo do Ouro e Massarelos,PPD/PSD,25.98,2853,131218
União das freguesias de Lordelo do Ouro e Massarelos,CDS-PP,11.1,1219,131218
União das freguesias de Lordelo do Ouro e Massarelos,B.E.,10.56,1160,131218
União das freguesias de Lordelo do Ouro e Massarelos,PCP-PEV,6.14,674,131218
União das freguesias de Lordelo do Ouro e Massarelos,PAN,5.31,583,131218
União das freguesias de Lordelo do Ouro e Massarelos,L,3.28,360,131218
União das freguesias de Lordelo do Ouro e Massarelos,IL,3.25,357,131218
União das freguesias de Lordelo do Ouro e Massarelos,A,2.49,274,131218
União das freguesias de Lordelo do Ouro e Massarelos,NC,1.85,203,131218
União das freguesias de Lordelo do Ouro e Massarelos,PPM.PPV/CDC,0.64,70,131218
União das freguesias de Lordelo do Ouro e Massarelos,PCTP/MRPP,0.62,68,131218
União das freguesias de Lordelo do Ouro e Massarelos,PNR,0.42,46,131218
União das freguesias de Lordelo do Ouro e Massarelos,PDR,0.24,26,131218
União das freguesias de Lordelo do Ouro e Massarelos,PURP,0.23,25,131218
União das freguesias de Lordelo do Ouro e Massarelos,MAS,0.04,4,131218
União das freguesias de Lordelo do Ouro e Massarelos,PTP,0.04,4,131218
