freguesia,acronym,validVotesPercentage,votes,dicofre
União das freguesias de Santa Catarina da Serra e Chainça,PPD/PSD,55.06,990,100938
União das freguesias de Santa Catarina da Serra e Chainça,PS,14.79,266,100938
União das freguesias de Santa Catarina da Serra e Chainça,CDS-PP,11.9,214,100938
União das freguesias de Santa Catarina da Serra e Chainça,PAN,4.12,74,100938
União das freguesias de Santa Catarina da Serra e Chainça,B.E.,3.95,71,100938
União das freguesias de Santa Catarina da Serra e Chainça,A,2.73,49,100938
União das freguesias de Santa Catarina da Serra e Chainça,L,1.28,23,100938
União das freguesias de Santa Catarina da Serra e Chainça,PDR,1.28,23,100938
União das freguesias de Santa Catarina da Serra e Chainça,NC,1,18,100938
União das freguesias de Santa Catarina da Serra e Chainça,PPM.PPV/CDC,0.95,17,100938
União das freguesias de Santa Catarina da Serra e Chainça,PCP-PEV,0.72,13,100938
União das freguesias de Santa Catarina da Serra e Chainça,IL,0.61,11,100938
União das freguesias de Santa Catarina da Serra e Chainça,PNR,0.44,8,100938
União das freguesias de Santa Catarina da Serra e Chainça,PCTP/MRPP,0.39,7,100938
União das freguesias de Santa Catarina da Serra e Chainça,MAS,0.33,6,100938
União das freguesias de Santa Catarina da Serra e Chainça,PTP,0.33,6,100938
União das freguesias de Santa Catarina da Serra e Chainça,PURP,0.11,2,100938
