freguesia,acronym,validVotesPercentage,votes,dicofre
União das freguesias de Abrantes (São Vicente e São João) e Alferrarede,PS,36.12,1620,140120
União das freguesias de Abrantes (São Vicente e São João) e Alferrarede,PPD/PSD,18.17,815,140120
União das freguesias de Abrantes (São Vicente e São João) e Alferrarede,B.E.,15.34,688,140120
União das freguesias de Abrantes (São Vicente e São João) e Alferrarede,CDS-PP,7.22,324,140120
União das freguesias de Abrantes (São Vicente e São João) e Alferrarede,PCP-PEV,5.75,258,140120
União das freguesias de Abrantes (São Vicente e São João) e Alferrarede,PAN,5.11,229,140120
União das freguesias de Abrantes (São Vicente e São João) e Alferrarede,PPM.PPV/CDC,3.12,140,140120
União das freguesias de Abrantes (São Vicente e São João) e Alferrarede,A,2.05,92,140120
União das freguesias de Abrantes (São Vicente e São João) e Alferrarede,L,2.01,90,140120
União das freguesias de Abrantes (São Vicente e São João) e Alferrarede,IL,1.09,49,140120
União das freguesias de Abrantes (São Vicente e São João) e Alferrarede,NC,0.94,42,140120
União das freguesias de Abrantes (São Vicente e São João) e Alferrarede,PCTP/MRPP,0.71,32,140120
União das freguesias de Abrantes (São Vicente e São João) e Alferrarede,PNR,0.71,32,140120
União das freguesias de Abrantes (São Vicente e São João) e Alferrarede,PURP,0.67,30,140120
União das freguesias de Abrantes (São Vicente e São João) e Alferrarede,PDR,0.54,24,140120
União das freguesias de Abrantes (São Vicente e São João) e Alferrarede,PTP,0.27,12,140120
União das freguesias de Abrantes (São Vicente e São João) e Alferrarede,MAS,0.18,8,140120
