freguesia,acronym,validVotesPercentage,votes,dicofre
"União das freguesias de Camarate, Unhos e Apelação",PS,46.32,4057,110731
"União das freguesias de Camarate, Unhos e Apelação",PCP-PEV,15.23,1334,110731
"União das freguesias de Camarate, Unhos e Apelação",PPD/PSD,10.94,958,110731
"União das freguesias de Camarate, Unhos e Apelação",B.E.,7.54,660,110731
"União das freguesias de Camarate, Unhos e Apelação",PAN,4.92,431,110731
"União das freguesias de Camarate, Unhos e Apelação",PPM.PPV/CDC,3.68,322,110731
"União das freguesias de Camarate, Unhos e Apelação",CDS-PP,3.6,315,110731
"União das freguesias de Camarate, Unhos e Apelação",PCTP/MRPP,1.54,135,110731
"União das freguesias de Camarate, Unhos e Apelação",L,1.32,116,110731
"União das freguesias de Camarate, Unhos e Apelação",A,1.28,112,110731
"União das freguesias de Camarate, Unhos e Apelação",PNR,0.8,70,110731
"União das freguesias de Camarate, Unhos e Apelação",NC,0.74,65,110731
"União das freguesias de Camarate, Unhos e Apelação",PURP,0.56,49,110731
"União das freguesias de Camarate, Unhos e Apelação",PDR,0.46,40,110731
"União das freguesias de Camarate, Unhos e Apelação",PTP,0.42,37,110731
"União das freguesias de Camarate, Unhos e Apelação",MAS,0.33,29,110731
"União das freguesias de Camarate, Unhos e Apelação",IL,0.32,28,110731
