freguesia,acronym,validVotesPercentage,votes,dicofre
União das freguesias de Vila Cova do Covelo/Mareco,PPD/PSD,42.95,64,181115
União das freguesias de Vila Cova do Covelo/Mareco,PS,35.57,53,181115
União das freguesias de Vila Cova do Covelo/Mareco,CDS-PP,8.72,13,181115
União das freguesias de Vila Cova do Covelo/Mareco,B.E.,4.7,7,181115
União das freguesias de Vila Cova do Covelo/Mareco,A,1.34,2,181115
União das freguesias de Vila Cova do Covelo/Mareco,L,1.34,2,181115
União das freguesias de Vila Cova do Covelo/Mareco,MAS,1.34,2,181115
União das freguesias de Vila Cova do Covelo/Mareco,PAN,1.34,2,181115
União das freguesias de Vila Cova do Covelo/Mareco,PCP-PEV,1.34,2,181115
União das freguesias de Vila Cova do Covelo/Mareco,NC,0.67,1,181115
União das freguesias de Vila Cova do Covelo/Mareco,PNR,0.67,1,181115
União das freguesias de Vila Cova do Covelo/Mareco,IL,0,0,181115
União das freguesias de Vila Cova do Covelo/Mareco,PCTP/MRPP,0,0,181115
União das freguesias de Vila Cova do Covelo/Mareco,PDR,0,0,181115
União das freguesias de Vila Cova do Covelo/Mareco,PPM.PPV/CDC,0,0,181115
União das freguesias de Vila Cova do Covelo/Mareco,PTP,0,0,181115
União das freguesias de Vila Cova do Covelo/Mareco,PURP,0,0,181115
