freguesia,acronym,validVotesPercentage,votes,dicofre
União das freguesias de Charneca de Caparica e Sobreda,PS,33.96,4911,150314
União das freguesias de Charneca de Caparica e Sobreda,PPD/PSD,14.24,2059,150314
União das freguesias de Charneca de Caparica e Sobreda,B.E.,13.23,1913,150314
União das freguesias de Charneca de Caparica e Sobreda,PCP-PEV,11.95,1728,150314
União das freguesias de Charneca de Caparica e Sobreda,PAN,9.08,1313,150314
União das freguesias de Charneca de Caparica e Sobreda,CDS-PP,5.63,814,150314
União das freguesias de Charneca de Caparica e Sobreda,A,2.6,376,150314
União das freguesias de Charneca de Caparica e Sobreda,L,2.38,344,150314
União das freguesias de Charneca de Caparica e Sobreda,PPM.PPV/CDC,1.99,288,150314
União das freguesias de Charneca de Caparica e Sobreda,NC,1.29,187,150314
União das freguesias de Charneca de Caparica e Sobreda,IL,1.15,166,150314
União das freguesias de Charneca de Caparica e Sobreda,PCTP/MRPP,0.79,114,150314
União das freguesias de Charneca de Caparica e Sobreda,PNR,0.57,82,150314
União das freguesias de Charneca de Caparica e Sobreda,PDR,0.39,57,150314
União das freguesias de Charneca de Caparica e Sobreda,PURP,0.33,48,150314
União das freguesias de Charneca de Caparica e Sobreda,PTP,0.24,34,150314
União das freguesias de Charneca de Caparica e Sobreda,MAS,0.19,28,150314
