freguesia,acronym,validVotesPercentage,votes,dicofre
União das freguesias de Algoz e Tunes,PS,36.22,464,081310
União das freguesias de Algoz e Tunes,PPD/PSD,18.89,242,081310
União das freguesias de Algoz e Tunes,B.E.,13.27,170,081310
União das freguesias de Algoz e Tunes,PCP-PEV,8.04,103,081310
União das freguesias de Algoz e Tunes,PAN,6.4,82,081310
União das freguesias de Algoz e Tunes,CDS-PP,4.14,53,081310
União das freguesias de Algoz e Tunes,PPM.PPV/CDC,2.5,32,081310
União das freguesias de Algoz e Tunes,L,1.72,22,081310
União das freguesias de Algoz e Tunes,PCTP/MRPP,1.72,22,081310
União das freguesias de Algoz e Tunes,A,1.56,20,081310
União das freguesias de Algoz e Tunes,NC,1.41,18,081310
União das freguesias de Algoz e Tunes,PNR,1.33,17,081310
União das freguesias de Algoz e Tunes,PDR,0.78,10,081310
União das freguesias de Algoz e Tunes,IL,0.7,9,081310
União das freguesias de Algoz e Tunes,PURP,0.7,9,081310
União das freguesias de Algoz e Tunes,PTP,0.55,7,081310
União das freguesias de Algoz e Tunes,MAS,0.08,1,081310
