freguesia,acronym,validVotesPercentage,votes,dicofre
"União das freguesias de Mação, Penhascoso e Aboboreira",PS,41.64,528,141309
"União das freguesias de Mação, Penhascoso e Aboboreira",PPD/PSD,29.1,369,141309
"União das freguesias de Mação, Penhascoso e Aboboreira",B.E.,7.81,99,141309
"União das freguesias de Mação, Penhascoso e Aboboreira",PCP-PEV,4.81,61,141309
"União das freguesias de Mação, Penhascoso e Aboboreira",CDS-PP,3.86,49,141309
"União das freguesias de Mação, Penhascoso e Aboboreira",PAN,3.55,45,141309
"União das freguesias de Mação, Penhascoso e Aboboreira",A,1.5,19,141309
"União das freguesias de Mação, Penhascoso e Aboboreira",PPM.PPV/CDC,1.5,19,141309
"União das freguesias de Mação, Penhascoso e Aboboreira",PCTP/MRPP,1.42,18,141309
"União das freguesias de Mação, Penhascoso e Aboboreira",L,1.26,16,141309
"União das freguesias de Mação, Penhascoso e Aboboreira",NC,0.87,11,141309
"União das freguesias de Mação, Penhascoso e Aboboreira",IL,0.63,8,141309
"União das freguesias de Mação, Penhascoso e Aboboreira",PDR,0.63,8,141309
"União das freguesias de Mação, Penhascoso e Aboboreira",PURP,0.55,7,141309
"União das freguesias de Mação, Penhascoso e Aboboreira",PNR,0.32,4,141309
"União das freguesias de Mação, Penhascoso e Aboboreira",PTP,0.32,4,141309
"União das freguesias de Mação, Penhascoso e Aboboreira",MAS,0.24,3,141309
