freguesia,acronym,validVotesPercentage,votes,dicofre
União das freguesias de Malagueira e Horta das Figueiras,PS,31.81,1053,070524
União das freguesias de Malagueira e Horta das Figueiras,PPD/PSD,16.68,552,070524
União das freguesias de Malagueira e Horta das Figueiras,PCP-PEV,15.17,502,070524
União das freguesias de Malagueira e Horta das Figueiras,B.E.,13.6,450,070524
União das freguesias de Malagueira e Horta das Figueiras,CDS-PP,7.37,244,070524
União das freguesias de Malagueira e Horta das Figueiras,PAN,3.32,110,070524
União das freguesias de Malagueira e Horta das Figueiras,A,3.02,100,070524
União das freguesias de Malagueira e Horta das Figueiras,PPM.PPV/CDC,2.51,83,070524
União das freguesias de Malagueira e Horta das Figueiras,L,2.11,70,070524
União das freguesias de Malagueira e Horta das Figueiras,PCTP/MRPP,1.33,44,070524
União das freguesias de Malagueira e Horta das Figueiras,NC,1,33,070524
União das freguesias de Malagueira e Horta das Figueiras,IL,0.79,26,070524
União das freguesias de Malagueira e Horta das Figueiras,PURP,0.48,16,070524
União das freguesias de Malagueira e Horta das Figueiras,PDR,0.33,11,070524
União das freguesias de Malagueira e Horta das Figueiras,PNR,0.27,9,070524
União das freguesias de Malagueira e Horta das Figueiras,PTP,0.15,5,070524
União das freguesias de Malagueira e Horta das Figueiras,MAS,0.06,2,070524
