freguesia,acronym,validVotesPercentage,votes,dicofre
União das freguesias de Barbacena e Vila Fernando,PS,45.92,90,120714
União das freguesias de Barbacena e Vila Fernando,PCP-PEV,13.27,26,120714
União das freguesias de Barbacena e Vila Fernando,PPD/PSD,10.71,21,120714
União das freguesias de Barbacena e Vila Fernando,B.E.,9.69,19,120714
União das freguesias de Barbacena e Vila Fernando,CDS-PP,8.16,16,120714
União das freguesias de Barbacena e Vila Fernando,PCTP/MRPP,4.59,9,120714
União das freguesias de Barbacena e Vila Fernando,PNR,2.04,4,120714
União das freguesias de Barbacena e Vila Fernando,A,1.53,3,120714
União das freguesias de Barbacena e Vila Fernando,NC,1.02,2,120714
União das freguesias de Barbacena e Vila Fernando,PPM.PPV/CDC,1.02,2,120714
União das freguesias de Barbacena e Vila Fernando,L,0.51,1,120714
União das freguesias de Barbacena e Vila Fernando,PAN,0.51,1,120714
União das freguesias de Barbacena e Vila Fernando,PTP,0.51,1,120714
União das freguesias de Barbacena e Vila Fernando,PURP,0.51,1,120714
União das freguesias de Barbacena e Vila Fernando,IL,0,0,120714
União das freguesias de Barbacena e Vila Fernando,MAS,0,0,120714
União das freguesias de Barbacena e Vila Fernando,PDR,0,0,120714
