freguesia,acronym,validVotesPercentage,votes,dicofre
União das freguesias de Sacavém e Prior Velho,PS,39.83,3189,110727
União das freguesias de Sacavém e Prior Velho,PCP-PEV,13.44,1076,110727
União das freguesias de Sacavém e Prior Velho,PPD/PSD,13.04,1044,110727
União das freguesias de Sacavém e Prior Velho,B.E.,9.97,798,110727
União das freguesias de Sacavém e Prior Velho,PAN,6.84,548,110727
União das freguesias de Sacavém e Prior Velho,CDS-PP,4.57,366,110727
União das freguesias de Sacavém e Prior Velho,PPM.PPV/CDC,2.84,227,110727
União das freguesias de Sacavém e Prior Velho,A,2.25,180,110727
União das freguesias de Sacavém e Prior Velho,L,1.94,155,110727
União das freguesias de Sacavém e Prior Velho,NC,1.42,114,110727
União das freguesias de Sacavém e Prior Velho,IL,1.26,101,110727
União das freguesias de Sacavém e Prior Velho,PCTP/MRPP,0.82,66,110727
União das freguesias de Sacavém e Prior Velho,PNR,0.61,49,110727
União das freguesias de Sacavém e Prior Velho,PURP,0.42,34,110727
União das freguesias de Sacavém e Prior Velho,PDR,0.39,31,110727
União das freguesias de Sacavém e Prior Velho,MAS,0.22,18,110727
União das freguesias de Sacavém e Prior Velho,PTP,0.12,10,110727
