freguesia,acronym,validVotesPercentage,votes,dicofre
União das freguesias de Anreade e São Romão de Aregos,PS,56.53,225,181316
União das freguesias de Anreade e São Romão de Aregos,PPD/PSD,26.13,104,181316
União das freguesias de Anreade e São Romão de Aregos,CDS-PP,5.03,20,181316
União das freguesias de Anreade e São Romão de Aregos,B.E.,3.77,15,181316
União das freguesias de Anreade e São Romão de Aregos,PAN,2.01,8,181316
União das freguesias de Anreade e São Romão de Aregos,A,1.01,4,181316
União das freguesias de Anreade e São Romão de Aregos,PCP-PEV,1.01,4,181316
União das freguesias de Anreade e São Romão de Aregos,PNR,1.01,4,181316
União das freguesias de Anreade e São Romão de Aregos,PDR,0.75,3,181316
União das freguesias de Anreade e São Romão de Aregos,PPM.PPV/CDC,0.75,3,181316
União das freguesias de Anreade e São Romão de Aregos,L,0.5,2,181316
União das freguesias de Anreade e São Romão de Aregos,PCTP/MRPP,0.5,2,181316
União das freguesias de Anreade e São Romão de Aregos,IL,0.25,1,181316
União das freguesias de Anreade e São Romão de Aregos,NC,0.25,1,181316
União das freguesias de Anreade e São Romão de Aregos,PTP,0.25,1,181316
União das freguesias de Anreade e São Romão de Aregos,PURP,0.25,1,181316
União das freguesias de Anreade e São Romão de Aregos,MAS,0,0,181316
