freguesia,acronym,validVotesPercentage,votes,dicofre
União das freguesias de Cortiçadas de Lavre e Lavre,PCP-PEV,38.76,150,070611
União das freguesias de Cortiçadas de Lavre e Lavre,PS,33.07,128,070611
União das freguesias de Cortiçadas de Lavre e Lavre,PPD/PSD,10.08,39,070611
União das freguesias de Cortiçadas de Lavre e Lavre,PCTP/MRPP,5.17,20,070611
União das freguesias de Cortiçadas de Lavre e Lavre,B.E.,4.13,16,070611
União das freguesias de Cortiçadas de Lavre e Lavre,CDS-PP,2.84,11,070611
União das freguesias de Cortiçadas de Lavre e Lavre,PAN,2.33,9,070611
União das freguesias de Cortiçadas de Lavre e Lavre,PPM.PPV/CDC,1.29,5,070611
União das freguesias de Cortiçadas de Lavre e Lavre,A,0.52,2,070611
União das freguesias de Cortiçadas de Lavre e Lavre,L,0.52,2,070611
União das freguesias de Cortiçadas de Lavre e Lavre,NC,0.52,2,070611
União das freguesias de Cortiçadas de Lavre e Lavre,PURP,0.52,2,070611
União das freguesias de Cortiçadas de Lavre e Lavre,PNR,0.26,1,070611
União das freguesias de Cortiçadas de Lavre e Lavre,IL,0,0,070611
União das freguesias de Cortiçadas de Lavre e Lavre,MAS,0,0,070611
União das freguesias de Cortiçadas de Lavre e Lavre,PDR,0,0,070611
União das freguesias de Cortiçadas de Lavre e Lavre,PTP,0,0,070611
