freguesia,acronym,validVotesPercentage,votes,dicofre
União das freguesias de Quirás e Pinheiro Novo,PS,70.67,53,041239
União das freguesias de Quirás e Pinheiro Novo,PPD/PSD,22.67,17,041239
União das freguesias de Quirás e Pinheiro Novo,A,1.33,1,041239
União das freguesias de Quirás e Pinheiro Novo,B.E.,1.33,1,041239
União das freguesias de Quirás e Pinheiro Novo,CDS-PP,1.33,1,041239
União das freguesias de Quirás e Pinheiro Novo,PAN,1.33,1,041239
União das freguesias de Quirás e Pinheiro Novo,PCP-PEV,1.33,1,041239
União das freguesias de Quirás e Pinheiro Novo,IL,0,0,041239
União das freguesias de Quirás e Pinheiro Novo,L,0,0,041239
União das freguesias de Quirás e Pinheiro Novo,MAS,0,0,041239
União das freguesias de Quirás e Pinheiro Novo,NC,0,0,041239
União das freguesias de Quirás e Pinheiro Novo,PCTP/MRPP,0,0,041239
União das freguesias de Quirás e Pinheiro Novo,PDR,0,0,041239
União das freguesias de Quirás e Pinheiro Novo,PNR,0,0,041239
União das freguesias de Quirás e Pinheiro Novo,PPM.PPV/CDC,0,0,041239
União das freguesias de Quirás e Pinheiro Novo,PTP,0,0,041239
União das freguesias de Quirás e Pinheiro Novo,PURP,0,0,041239
