freguesia,acronym,validVotesPercentage,votes,dicofre
"União das freguesias de Amarante (São Gonçalo), Madalena, Cepelos e Gatão",PS,39.19,1470,130142
"União das freguesias de Amarante (São Gonçalo), Madalena, Cepelos e Gatão",PPD/PSD,25.27,948,130142
"União das freguesias de Amarante (São Gonçalo), Madalena, Cepelos e Gatão",B.E.,14.18,532,130142
"União das freguesias de Amarante (São Gonçalo), Madalena, Cepelos e Gatão",CDS-PP,4.59,172,130142
"União das freguesias de Amarante (São Gonçalo), Madalena, Cepelos e Gatão",PCP-PEV,4.51,169,130142
"União das freguesias de Amarante (São Gonçalo), Madalena, Cepelos e Gatão",PAN,3.57,134,130142
"União das freguesias de Amarante (São Gonçalo), Madalena, Cepelos e Gatão",L,2.27,85,130142
"União das freguesias de Amarante (São Gonçalo), Madalena, Cepelos e Gatão",PDR,2.11,79,130142
"União das freguesias de Amarante (São Gonçalo), Madalena, Cepelos e Gatão",A,0.85,32,130142
"União das freguesias de Amarante (São Gonçalo), Madalena, Cepelos e Gatão",NC,0.8,30,130142
"União das freguesias de Amarante (São Gonçalo), Madalena, Cepelos e Gatão",IL,0.64,24,130142
"União das freguesias de Amarante (São Gonçalo), Madalena, Cepelos e Gatão",PPM.PPV/CDC,0.59,22,130142
"União das freguesias de Amarante (São Gonçalo), Madalena, Cepelos e Gatão",PCTP/MRPP,0.48,18,130142
"União das freguesias de Amarante (São Gonçalo), Madalena, Cepelos e Gatão",PNR,0.45,17,130142
"União das freguesias de Amarante (São Gonçalo), Madalena, Cepelos e Gatão",PTP,0.21,8,130142
"União das freguesias de Amarante (São Gonçalo), Madalena, Cepelos e Gatão",PURP,0.21,8,130142
"União das freguesias de Amarante (São Gonçalo), Madalena, Cepelos e Gatão",MAS,0.08,3,130142
