freguesia,acronym,validVotesPercentage,votes,dicofre
União das freguesias de Torre e Portela,PPD/PSD,40.24,68,030128
União das freguesias de Torre e Portela,PS,27.81,47,030128
União das freguesias de Torre e Portela,PURP,9.47,16,030128
União das freguesias de Torre e Portela,B.E.,6.51,11,030128
União das freguesias de Torre e Portela,CDS-PP,6.51,11,030128
União das freguesias de Torre e Portela,PAN,3.55,6,030128
União das freguesias de Torre e Portela,PDR,1.78,3,030128
União das freguesias de Torre e Portela,PPM.PPV/CDC,1.18,2,030128
União das freguesias de Torre e Portela,IL,0.59,1,030128
União das freguesias de Torre e Portela,L,0.59,1,030128
União das freguesias de Torre e Portela,PCP-PEV,0.59,1,030128
União das freguesias de Torre e Portela,PCTP/MRPP,0.59,1,030128
União das freguesias de Torre e Portela,PTP,0.59,1,030128
União das freguesias de Torre e Portela,A,0,0,030128
União das freguesias de Torre e Portela,MAS,0,0,030128
União das freguesias de Torre e Portela,NC,0,0,030128
União das freguesias de Torre e Portela,PNR,0,0,030128
