freguesia,acronym,validVotesPercentage,votes,dicofre
União das freguesias de Monsanto e Idanha-a-Velha,PS,72.84,118,050520
União das freguesias de Monsanto e Idanha-a-Velha,PPD/PSD,10.49,17,050520
União das freguesias de Monsanto e Idanha-a-Velha,B.E.,4.94,8,050520
União das freguesias de Monsanto e Idanha-a-Velha,CDS-PP,4.94,8,050520
União das freguesias de Monsanto e Idanha-a-Velha,PCP-PEV,2.47,4,050520
União das freguesias de Monsanto e Idanha-a-Velha,PAN,1.85,3,050520
União das freguesias de Monsanto e Idanha-a-Velha,L,1.23,2,050520
União das freguesias de Monsanto e Idanha-a-Velha,A,0.62,1,050520
União das freguesias de Monsanto e Idanha-a-Velha,NC,0.62,1,050520
União das freguesias de Monsanto e Idanha-a-Velha,IL,0,0,050520
União das freguesias de Monsanto e Idanha-a-Velha,MAS,0,0,050520
União das freguesias de Monsanto e Idanha-a-Velha,PCTP/MRPP,0,0,050520
União das freguesias de Monsanto e Idanha-a-Velha,PDR,0,0,050520
União das freguesias de Monsanto e Idanha-a-Velha,PNR,0,0,050520
União das freguesias de Monsanto e Idanha-a-Velha,PPM.PPV/CDC,0,0,050520
União das freguesias de Monsanto e Idanha-a-Velha,PTP,0,0,050520
União das freguesias de Monsanto e Idanha-a-Velha,PURP,0,0,050520
