freguesia,acronym,validVotesPercentage,votes,dicofre
"União de freguesias de Ardegão, Arnozela e Seidões",PS,40.81,131,030740
"União de freguesias de Ardegão, Arnozela e Seidões",PPD/PSD,31.78,102,030740
"União de freguesias de Ardegão, Arnozela e Seidões",B.E.,8.72,28,030740
"União de freguesias de Ardegão, Arnozela e Seidões",CDS-PP,7.17,23,030740
"União de freguesias de Ardegão, Arnozela e Seidões",PAN,2.8,9,030740
"União de freguesias de Ardegão, Arnozela e Seidões",PDR,1.56,5,030740
"União de freguesias de Ardegão, Arnozela e Seidões",L,1.25,4,030740
"União de freguesias de Ardegão, Arnozela e Seidões",PCTP/MRPP,1.25,4,030740
"União de freguesias de Ardegão, Arnozela e Seidões",A,0.93,3,030740
"União de freguesias de Ardegão, Arnozela e Seidões",PCP-PEV,0.93,3,030740
"União de freguesias de Ardegão, Arnozela e Seidões",PPM.PPV/CDC,0.93,3,030740
"União de freguesias de Ardegão, Arnozela e Seidões",NC,0.62,2,030740
"União de freguesias de Ardegão, Arnozela e Seidões",IL,0.31,1,030740
"União de freguesias de Ardegão, Arnozela e Seidões",MAS,0.31,1,030740
"União de freguesias de Ardegão, Arnozela e Seidões",PNR,0.31,1,030740
"União de freguesias de Ardegão, Arnozela e Seidões",PTP,0.31,1,030740
"União de freguesias de Ardegão, Arnozela e Seidões",PURP,0,0,030740
