freguesia,acronym,validVotesPercentage,votes,dicofre
União das freguesias de Rio Torto e Lagarinhos,PPD/PSD,45.89,106,090628
União das freguesias de Rio Torto e Lagarinhos,PS,22.08,51,090628
União das freguesias de Rio Torto e Lagarinhos,CDS-PP,10.82,25,090628
União das freguesias de Rio Torto e Lagarinhos,B.E.,8.23,19,090628
União das freguesias de Rio Torto e Lagarinhos,PAN,3.9,9,090628
União das freguesias de Rio Torto e Lagarinhos,PCP-PEV,2.16,5,090628
União das freguesias de Rio Torto e Lagarinhos,A,1.3,3,090628
União das freguesias de Rio Torto e Lagarinhos,NC,1.3,3,090628
União das freguesias de Rio Torto e Lagarinhos,PCTP/MRPP,1.3,3,090628
União das freguesias de Rio Torto e Lagarinhos,L,0.87,2,090628
União das freguesias de Rio Torto e Lagarinhos,PDR,0.87,2,090628
União das freguesias de Rio Torto e Lagarinhos,MAS,0.43,1,090628
União das freguesias de Rio Torto e Lagarinhos,PTP,0.43,1,090628
União das freguesias de Rio Torto e Lagarinhos,PURP,0.43,1,090628
União das freguesias de Rio Torto e Lagarinhos,IL,0,0,090628
União das freguesias de Rio Torto e Lagarinhos,PNR,0,0,090628
União das freguesias de Rio Torto e Lagarinhos,PPM.PPV/CDC,0,0,090628
