freguesia,acronym,validVotesPercentage,votes,dicofre
"União das freguesias de Bagunte, Ferreiró, Outeiro Maior e Parada",PPD/PSD,39.19,339,131631
"União das freguesias de Bagunte, Ferreiró, Outeiro Maior e Parada",PS,35.26,305,131631
"União das freguesias de Bagunte, Ferreiró, Outeiro Maior e Parada",CDS-PP,9.02,78,131631
"União das freguesias de Bagunte, Ferreiró, Outeiro Maior e Parada",B.E.,5.66,49,131631
"União das freguesias de Bagunte, Ferreiró, Outeiro Maior e Parada",PAN,3.35,29,131631
"União das freguesias de Bagunte, Ferreiró, Outeiro Maior e Parada",PCP-PEV,1.73,15,131631
"União das freguesias de Bagunte, Ferreiró, Outeiro Maior e Parada",L,1.27,11,131631
"União das freguesias de Bagunte, Ferreiró, Outeiro Maior e Parada",PPM.PPV/CDC,1.04,9,131631
"União das freguesias de Bagunte, Ferreiró, Outeiro Maior e Parada",PCTP/MRPP,0.69,6,131631
"União das freguesias de Bagunte, Ferreiró, Outeiro Maior e Parada",NC,0.58,5,131631
"União das freguesias de Bagunte, Ferreiró, Outeiro Maior e Parada",PDR,0.58,5,131631
"União das freguesias de Bagunte, Ferreiró, Outeiro Maior e Parada",A,0.46,4,131631
"União das freguesias de Bagunte, Ferreiró, Outeiro Maior e Parada",IL,0.46,4,131631
"União das freguesias de Bagunte, Ferreiró, Outeiro Maior e Parada",PNR,0.35,3,131631
"União das freguesias de Bagunte, Ferreiró, Outeiro Maior e Parada",PURP,0.23,2,131631
"União das freguesias de Bagunte, Ferreiró, Outeiro Maior e Parada",PTP,0.12,1,131631
"União das freguesias de Bagunte, Ferreiró, Outeiro Maior e Parada",MAS,0,0,131631
