freguesia,acronym,validVotesPercentage,votes,dicofre
Urzelina (São Mateus),PS,32.99,65,450205
Urzelina (São Mateus),CDS-PP,24.37,48,450205
Urzelina (São Mateus),PPD/PSD,22.34,44,450205
Urzelina (São Mateus),PCP-PEV,6.09,12,450205
Urzelina (São Mateus),A,3.55,7,450205
Urzelina (São Mateus),B.E.,3.05,6,450205
Urzelina (São Mateus),PAN,2.03,4,450205
Urzelina (São Mateus),PPM.PPV/CDC,1.52,3,450205
Urzelina (São Mateus),IL,1.02,2,450205
Urzelina (São Mateus),PCTP/MRPP,1.02,2,450205
Urzelina (São Mateus),L,0.51,1,450205
Urzelina (São Mateus),MAS,0.51,1,450205
Urzelina (São Mateus),PDR,0.51,1,450205
Urzelina (São Mateus),PTP,0.51,1,450205
Urzelina (São Mateus),NC,0,0,450205
Urzelina (São Mateus),PNR,0,0,450205
Urzelina (São Mateus),PURP,0,0,450205
