freguesia,acronym,validVotesPercentage,votes,dicofre
Vade (São Tomé),PPD/PSD,37.89,36,160624
Vade (São Tomé),PS,33.68,32,160624
Vade (São Tomé),CDS-PP,7.37,7,160624
Vade (São Tomé),B.E.,6.32,6,160624
Vade (São Tomé),L,5.26,5,160624
Vade (São Tomé),PAN,4.21,4,160624
Vade (São Tomé),PPM.PPV/CDC,3.16,3,160624
Vade (São Tomé),IL,1.05,1,160624
Vade (São Tomé),PDR,1.05,1,160624
Vade (São Tomé),A,0,0,160624
Vade (São Tomé),MAS,0,0,160624
Vade (São Tomé),NC,0,0,160624
Vade (São Tomé),PCP-PEV,0,0,160624
Vade (São Tomé),PCTP/MRPP,0,0,160624
Vade (São Tomé),PNR,0,0,160624
Vade (São Tomé),PTP,0,0,160624
Vade (São Tomé),PURP,0,0,160624
