freguesia,acronym,validVotesPercentage,votes,dicofre
Valdreu,PPD/PSD,50.63,81,031355
Valdreu,PS,30.63,49,031355
Valdreu,CDS-PP,5,8,031355
Valdreu,B.E.,3.75,6,031355
Valdreu,PCP-PEV,3.13,5,031355
Valdreu,IL,1.88,3,031355
Valdreu,PCTP/MRPP,1.25,2,031355
Valdreu,PDR,1.25,2,031355
Valdreu,L,0.63,1,031355
Valdreu,MAS,0.63,1,031355
Valdreu,PAN,0.63,1,031355
Valdreu,PPM.PPV/CDC,0.63,1,031355
Valdreu,A,0,0,031355
Valdreu,NC,0,0,031355
Valdreu,PNR,0,0,031355
Valdreu,PTP,0,0,031355
Valdreu,PURP,0,0,031355
