freguesia,acronym,validVotesPercentage,votes,dicofre
Valdujo,PS,58.33,35,091325
Valdujo,PPD/PSD,23.33,14,091325
Valdujo,B.E.,8.33,5,091325
Valdujo,PCP-PEV,3.33,2,091325
Valdujo,CDS-PP,1.67,1,091325
Valdujo,MAS,1.67,1,091325
Valdujo,PAN,1.67,1,091325
Valdujo,PNR,1.67,1,091325
Valdujo,A,0,0,091325
Valdujo,IL,0,0,091325
Valdujo,L,0,0,091325
Valdujo,NC,0,0,091325
Valdujo,PCTP/MRPP,0,0,091325
Valdujo,PDR,0,0,091325
Valdujo,PPM.PPV/CDC,0,0,091325
Valdujo,PTP,0,0,091325
Valdujo,PURP,0,0,091325
