freguesia,acronym,validVotesPercentage,votes,dicofre
Vale Benfeito,PPD/PSD,44.78,30,040532
Vale Benfeito,PS,31.34,21,040532
Vale Benfeito,B.E.,13.43,9,040532
Vale Benfeito,CDS-PP,5.97,4,040532
Vale Benfeito,PAN,1.49,1,040532
Vale Benfeito,PPM.PPV/CDC,1.49,1,040532
Vale Benfeito,PURP,1.49,1,040532
Vale Benfeito,A,0,0,040532
Vale Benfeito,IL,0,0,040532
Vale Benfeito,L,0,0,040532
Vale Benfeito,MAS,0,0,040532
Vale Benfeito,NC,0,0,040532
Vale Benfeito,PCP-PEV,0,0,040532
Vale Benfeito,PCTP/MRPP,0,0,040532
Vale Benfeito,PDR,0,0,040532
Vale Benfeito,PNR,0,0,040532
Vale Benfeito,PTP,0,0,040532
