freguesia,acronym,validVotesPercentage,votes,dicofre
Vale de Telhas,PS,46.48,33,040734
Vale de Telhas,PPD/PSD,25.35,18,040734
Vale de Telhas,CDS-PP,14.08,10,040734
Vale de Telhas,B.E.,7.04,5,040734
Vale de Telhas,PTP,2.82,2,040734
Vale de Telhas,IL,1.41,1,040734
Vale de Telhas,PAN,1.41,1,040734
Vale de Telhas,PPM.PPV/CDC,1.41,1,040734
Vale de Telhas,A,0,0,040734
Vale de Telhas,L,0,0,040734
Vale de Telhas,MAS,0,0,040734
Vale de Telhas,NC,0,0,040734
Vale de Telhas,PCP-PEV,0,0,040734
Vale de Telhas,PCTP/MRPP,0,0,040734
Vale de Telhas,PDR,0,0,040734
Vale de Telhas,PNR,0,0,040734
Vale de Telhas,PURP,0,0,040734
