freguesia,acronym,validVotesPercentage,votes,dicofre
Vale de Salgueiro,PPD/PSD,52.08,75,040733
Vale de Salgueiro,PS,25.69,37,040733
Vale de Salgueiro,CDS-PP,5.56,8,040733
Vale de Salgueiro,PAN,4.17,6,040733
Vale de Salgueiro,PPM.PPV/CDC,4.17,6,040733
Vale de Salgueiro,PCP-PEV,2.08,3,040733
Vale de Salgueiro,PCTP/MRPP,2.08,3,040733
Vale de Salgueiro,PTP,1.39,2,040733
Vale de Salgueiro,B.E.,0.69,1,040733
Vale de Salgueiro,PDR,0.69,1,040733
Vale de Salgueiro,PNR,0.69,1,040733
Vale de Salgueiro,PURP,0.69,1,040733
Vale de Salgueiro,A,0,0,040733
Vale de Salgueiro,IL,0,0,040733
Vale de Salgueiro,L,0,0,040733
Vale de Salgueiro,MAS,0,0,040733
Vale de Salgueiro,NC,0,0,040733
