freguesia,acronym,validVotesPercentage,votes,dicofre
Valongo dos Azeites,PPD/PSD,34.18,27,181512
Valongo dos Azeites,PS,22.78,18,181512
Valongo dos Azeites,CDS-PP,16.46,13,181512
Valongo dos Azeites,B.E.,13.92,11,181512
Valongo dos Azeites,PCP-PEV,5.06,4,181512
Valongo dos Azeites,PCTP/MRPP,3.8,3,181512
Valongo dos Azeites,PAN,2.53,2,181512
Valongo dos Azeites,L,1.27,1,181512
Valongo dos Azeites,A,0,0,181512
Valongo dos Azeites,IL,0,0,181512
Valongo dos Azeites,MAS,0,0,181512
Valongo dos Azeites,NC,0,0,181512
Valongo dos Azeites,PDR,0,0,181512
Valongo dos Azeites,PNR,0,0,181512
Valongo dos Azeites,PPM.PPV/CDC,0,0,181512
Valongo dos Azeites,PTP,0,0,181512
Valongo dos Azeites,PURP,0,0,181512
