freguesia,acronym,validVotesPercentage,votes,dicofre
Venteira,PS,38.97,3230,111517
Venteira,PPD/PSD,14.98,1242,111517
Venteira,B.E.,12.27,1017,111517
Venteira,PCP-PEV,10.19,845,111517
Venteira,PAN,7.19,596,111517
Venteira,CDS-PP,4.68,388,111517
Venteira,PPM.PPV/CDC,2.4,199,111517
Venteira,A,2.38,197,111517
Venteira,L,2.1,174,111517
Venteira,NC,1.22,101,111517
Venteira,IL,0.95,79,111517
Venteira,PNR,0.75,62,111517
Venteira,PCTP/MRPP,0.65,54,111517
Venteira,PURP,0.54,45,111517
Venteira,MAS,0.31,26,111517
Venteira,PDR,0.31,26,111517
Venteira,PTP,0.1,8,111517
