freguesia,acronym,validVotesPercentage,votes,dicofre
Vila da Rua,PS,47.5,76,180716
Vila da Rua,PPD/PSD,32.5,52,180716
Vila da Rua,B.E.,7.5,12,180716
Vila da Rua,CDS-PP,4.38,7,180716
Vila da Rua,PCTP/MRPP,2.5,4,180716
Vila da Rua,PAN,1.88,3,180716
Vila da Rua,A,0.63,1,180716
Vila da Rua,PCP-PEV,0.63,1,180716
Vila da Rua,PNR,0.63,1,180716
Vila da Rua,PPM.PPV/CDC,0.63,1,180716
Vila da Rua,PTP,0.63,1,180716
Vila da Rua,PURP,0.63,1,180716
Vila da Rua,IL,0,0,180716
Vila da Rua,L,0,0,180716
Vila da Rua,MAS,0,0,180716
Vila da Rua,NC,0,0,180716
Vila da Rua,PDR,0,0,180716
