freguesia,acronym,validVotesPercentage,votes,dicofre
Vila Boa,PPD/PSD,36.92,24,091138
Vila Boa,PS,30.77,20,091138
Vila Boa,CDS-PP,12.31,8,091138
Vila Boa,B.E.,10.77,7,091138
Vila Boa,A,3.08,2,091138
Vila Boa,NC,1.54,1,091138
Vila Boa,PCP-PEV,1.54,1,091138
Vila Boa,PCTP/MRPP,1.54,1,091138
Vila Boa,PTP,1.54,1,091138
Vila Boa,IL,0,0,091138
Vila Boa,L,0,0,091138
Vila Boa,MAS,0,0,091138
Vila Boa,PAN,0,0,091138
Vila Boa,PDR,0,0,091138
Vila Boa,PNR,0,0,091138
Vila Boa,PPM.PPV/CDC,0,0,091138
Vila Boa,PURP,0,0,091138
