freguesia,acronym,validVotesPercentage,votes,dicofre
Vila Velha de Ródão,PS,54.88,298,051104
Vila Velha de Ródão,PPD/PSD,20.07,109,051104
Vila Velha de Ródão,B.E.,7.18,39,051104
Vila Velha de Ródão,PCP-PEV,6.63,36,051104
Vila Velha de Ródão,CDS-PP,3.5,19,051104
Vila Velha de Ródão,A,1.47,8,051104
Vila Velha de Ródão,PAN,1.47,8,051104
Vila Velha de Ródão,PPM.PPV/CDC,1.29,7,051104
Vila Velha de Ródão,L,0.74,4,051104
Vila Velha de Ródão,PURP,0.74,4,051104
Vila Velha de Ródão,PCTP/MRPP,0.55,3,051104
Vila Velha de Ródão,IL,0.37,2,051104
Vila Velha de Ródão,PDR,0.37,2,051104
Vila Velha de Ródão,PNR,0.37,2,051104
Vila Velha de Ródão,MAS,0.18,1,051104
Vila Velha de Ródão,NC,0.18,1,051104
Vila Velha de Ródão,PTP,0,0,051104
