freguesia,acronym,validVotesPercentage,votes,dicofre
Vila Cova à Coelheira,PPD/PSD,48.17,92,182206
Vila Cova à Coelheira,PS,25.65,49,182206
Vila Cova à Coelheira,CDS-PP,8.9,17,182206
Vila Cova à Coelheira,PAN,5.24,10,182206
Vila Cova à Coelheira,B.E.,3.14,6,182206
Vila Cova à Coelheira,L,2.62,5,182206
Vila Cova à Coelheira,PPM.PPV/CDC,2.09,4,182206
Vila Cova à Coelheira,MAS,1.05,2,182206
Vila Cova à Coelheira,NC,1.05,2,182206
Vila Cova à Coelheira,PCP-PEV,1.05,2,182206
Vila Cova à Coelheira,IL,0.52,1,182206
Vila Cova à Coelheira,PCTP/MRPP,0.52,1,182206
Vila Cova à Coelheira,A,0,0,182206
Vila Cova à Coelheira,PDR,0,0,182206
Vila Cova à Coelheira,PNR,0,0,182206
Vila Cova à Coelheira,PTP,0,0,182206
Vila Cova à Coelheira,PURP,0,0,182206
