freguesia,acronym,validVotesPercentage,votes,dicofre
Vila do Touro,PPD/PSD,45.31,29,091139
Vila do Touro,PS,35.94,23,091139
Vila do Touro,PAN,6.25,4,091139
Vila do Touro,B.E.,4.69,3,091139
Vila do Touro,A,3.13,2,091139
Vila do Touro,CDS-PP,3.13,2,091139
Vila do Touro,PNR,1.56,1,091139
Vila do Touro,IL,0,0,091139
Vila do Touro,L,0,0,091139
Vila do Touro,MAS,0,0,091139
Vila do Touro,NC,0,0,091139
Vila do Touro,PCP-PEV,0,0,091139
Vila do Touro,PCTP/MRPP,0,0,091139
Vila do Touro,PDR,0,0,091139
Vila do Touro,PPM.PPV/CDC,0,0,091139
Vila do Touro,PTP,0,0,091139
Vila do Touro,PURP,0,0,091139
