freguesia,acronym,validVotesPercentage,votes,dicofre
Vila Real de Santo António,PS,37.47,884,081602
Vila Real de Santo António,PCP-PEV,16.91,399,081602
Vila Real de Santo António,B.E.,13.95,329,081602
Vila Real de Santo António,PPD/PSD,13.57,320,081602
Vila Real de Santo António,PAN,4.28,101,081602
Vila Real de Santo António,CDS-PP,4.11,97,081602
Vila Real de Santo António,PPM.PPV/CDC,1.7,40,081602
Vila Real de Santo António,NC,1.65,39,081602
Vila Real de Santo António,L,1.57,37,081602
Vila Real de Santo António,A,1.48,35,081602
Vila Real de Santo António,PCTP/MRPP,1.14,27,081602
Vila Real de Santo António,PNR,0.68,16,081602
Vila Real de Santo António,PDR,0.42,10,081602
Vila Real de Santo António,PURP,0.34,8,081602
Vila Real de Santo António,IL,0.3,7,081602
Vila Real de Santo António,MAS,0.21,5,081602
Vila Real de Santo António,PTP,0.21,5,081602
