freguesia,acronym,validVotesPercentage,votes,dicofre
Vila Verde,PPD/PSD,38.74,43,170117
Vila Verde,PS,36.94,41,170117
Vila Verde,CDS-PP,10.81,12,170117
Vila Verde,B.E.,5.41,6,170117
Vila Verde,A,1.8,2,170117
Vila Verde,PCP-PEV,1.8,2,170117
Vila Verde,NC,0.9,1,170117
Vila Verde,PAN,0.9,1,170117
Vila Verde,PCTP/MRPP,0.9,1,170117
Vila Verde,PNR,0.9,1,170117
Vila Verde,PPM.PPV/CDC,0.9,1,170117
Vila Verde,IL,0,0,170117
Vila Verde,L,0,0,170117
Vila Verde,MAS,0,0,170117
Vila Verde,PDR,0,0,170117
Vila Verde,PTP,0,0,170117
Vila Verde,PURP,0,0,170117
