freguesia,acronym,validVotesPercentage,votes,dicofre
Vilar do Torno e Alentém,PS,51.6,177,130526
Vilar do Torno e Alentém,PPD/PSD,23.62,81,130526
Vilar do Torno e Alentém,B.E.,8.16,28,130526
Vilar do Torno e Alentém,PCP-PEV,4.96,17,130526
Vilar do Torno e Alentém,L,2.92,10,130526
Vilar do Torno e Alentém,PAN,2.04,7,130526
Vilar do Torno e Alentém,CDS-PP,1.75,6,130526
Vilar do Torno e Alentém,A,0.87,3,130526
Vilar do Torno e Alentém,PCTP/MRPP,0.87,3,130526
Vilar do Torno e Alentém,PNR,0.87,3,130526
Vilar do Torno e Alentém,PTP,0.87,3,130526
Vilar do Torno e Alentém,PPM.PPV/CDC,0.58,2,130526
Vilar do Torno e Alentém,IL,0.29,1,130526
Vilar do Torno e Alentém,NC,0.29,1,130526
Vilar do Torno e Alentém,PDR,0.29,1,130526
Vilar do Torno e Alentém,MAS,0,0,130526
Vilar do Torno e Alentém,PURP,0,0,130526
