freguesia,acronym,validVotesPercentage,votes,dicofre
Vilar de Peregrinos,PS,51.72,30,041233
Vilar de Peregrinos,PPD/PSD,34.48,20,041233
Vilar de Peregrinos,PAN,3.45,2,041233
Vilar de Peregrinos,A,1.72,1,041233
Vilar de Peregrinos,B.E.,1.72,1,041233
Vilar de Peregrinos,CDS-PP,1.72,1,041233
Vilar de Peregrinos,IL,1.72,1,041233
Vilar de Peregrinos,PCP-PEV,1.72,1,041233
Vilar de Peregrinos,PDR,1.72,1,041233
Vilar de Peregrinos,L,0,0,041233
Vilar de Peregrinos,MAS,0,0,041233
Vilar de Peregrinos,NC,0,0,041233
Vilar de Peregrinos,PCTP/MRPP,0,0,041233
Vilar de Peregrinos,PNR,0,0,041233
Vilar de Peregrinos,PPM.PPV/CDC,0,0,041233
Vilar de Peregrinos,PTP,0,0,041233
Vilar de Peregrinos,PURP,0,0,041233
