freguesia,acronym,validVotesPercentage,votes,dicofre
Vila de Ala,PPD/PSD,63.64,63,040826
Vila de Ala,PS,18.18,18,040826
Vila de Ala,CDS-PP,12.12,12,040826
Vila de Ala,B.E.,3.03,3,040826
Vila de Ala,A,1.01,1,040826
Vila de Ala,PAN,1.01,1,040826
Vila de Ala,PTP,1.01,1,040826
Vila de Ala,IL,0,0,040826
Vila de Ala,L,0,0,040826
Vila de Ala,MAS,0,0,040826
Vila de Ala,NC,0,0,040826
Vila de Ala,PCP-PEV,0,0,040826
Vila de Ala,PCTP/MRPP,0,0,040826
Vila de Ala,PDR,0,0,040826
Vila de Ala,PNR,0,0,040826
Vila de Ala,PPM.PPV/CDC,0,0,040826
Vila de Ala,PURP,0,0,040826
