freguesia,acronym,validVotesPercentage,votes,dicofre
Zambujal,PS,34.65,35,060410
Zambujal,B.E.,21.78,22,060410
Zambujal,PPD/PSD,21.78,22,060410
Zambujal,PCP-PEV,8.91,9,060410
Zambujal,CDS-PP,4.95,5,060410
Zambujal,PAN,2.97,3,060410
Zambujal,A,1.98,2,060410
Zambujal,L,0.99,1,060410
Zambujal,PCTP/MRPP,0.99,1,060410
Zambujal,PNR,0.99,1,060410
Zambujal,IL,0,0,060410
Zambujal,MAS,0,0,060410
Zambujal,NC,0,0,060410
Zambujal,PDR,0,0,060410
Zambujal,PPM.PPV/CDC,0,0,060410
Zambujal,PTP,0,0,060410
Zambujal,PURP,0,0,060410
