freguesia,acronym,validVotesPercentage,votes,dicofre
Zibreira,PS,41.39,125,141916
Zibreira,PPD/PSD,17.88,54,141916
Zibreira,B.E.,13.58,41,141916
Zibreira,PCP-PEV,10.26,31,141916
Zibreira,CDS-PP,5.63,17,141916
Zibreira,PAN,4.64,14,141916
Zibreira,A,2.32,7,141916
Zibreira,L,1.66,5,141916
Zibreira,PPM.PPV/CDC,1.32,4,141916
Zibreira,PCTP/MRPP,0.99,3,141916
Zibreira,PNR,0.33,1,141916
Zibreira,IL,0,0,141916
Zibreira,MAS,0,0,141916
Zibreira,NC,0,0,141916
Zibreira,PDR,0,0,141916
Zibreira,PTP,0,0,141916
Zibreira,PURP,0,0,141916
