"0","    json_file <- paste0(""https://www.europeias2019.mai.gov.pt/frontend/data/TerritoryResults?territoryKey=LOCAL-"",""170616"",""&electionId=EUR&ts=1558966081694.json"")"
"0",""
"0","    data <- fromJSON(getURL(json_file, encoding = ""latin1""))"
